SUMA4/simulation/qsim/SUMA4.msim.vcd
$comment
	File created using the following command:
		vcd file SUMA4.msim.vcd -direction
$end
$date
	Thu Feb 22 22:37:06 2024
$end
$version
	ModelSim Version 10.5b
$end
$timescale
	1ps
$end

$scope module suma4_vhd_vec_tst $end
$var wire 1 ! a [3] $end
$var wire 1 " a [2] $end
$var wire 1 # a [1] $end
$var wire 1 $ a [0] $end
$var wire 1 % b [3] $end
$var wire 1 & b [2] $end
$var wire 1 ' b [1] $end
$var wire 1 ( b [0] $end
$var wire 1 ) Cin $end
$var wire 1 * Cout $end
$var wire 1 + s [3] $end
$var wire 1 , s [2] $end
$var wire 1 - s [1] $end
$var wire 1 . s [0] $end

$scope module i1 $end
$var wire 1 / gnd $end
$var wire 1 0 vcc $end
$var wire 1 1 unknown $end
$var wire 1 2 devoe $end
$var wire 1 3 devclrn $end
$var wire 1 4 devpor $end
$var wire 1 5 ww_devoe $end
$var wire 1 6 ww_devclrn $end
$var wire 1 7 ww_devpor $end
$var wire 1 8 ww_a [3] $end
$var wire 1 9 ww_a [2] $end
$var wire 1 : ww_a [1] $end
$var wire 1 ; ww_a [0] $end
$var wire 1 < ww_b [3] $end
$var wire 1 = ww_b [2] $end
$var wire 1 > ww_b [1] $end
$var wire 1 ? ww_b [0] $end
$var wire 1 @ ww_Cin $end
$var wire 1 A ww_s [3] $end
$var wire 1 B ww_s [2] $end
$var wire 1 C ww_s [1] $end
$var wire 1 D ww_s [0] $end
$var wire 1 E ww_Cout $end
$var wire 1 F \~QUARTUS_CREATED_ADC1~_CHSEL_bus\ [4] $end
$var wire 1 G \~QUARTUS_CREATED_ADC1~_CHSEL_bus\ [3] $end
$var wire 1 H \~QUARTUS_CREATED_ADC1~_CHSEL_bus\ [2] $end
$var wire 1 I \~QUARTUS_CREATED_ADC1~_CHSEL_bus\ [1] $end
$var wire 1 J \~QUARTUS_CREATED_ADC1~_CHSEL_bus\ [0] $end
$var wire 1 K \~QUARTUS_CREATED_ADC2~_CHSEL_bus\ [4] $end
$var wire 1 L \~QUARTUS_CREATED_ADC2~_CHSEL_bus\ [3] $end
$var wire 1 M \~QUARTUS_CREATED_ADC2~_CHSEL_bus\ [2] $end
$var wire 1 N \~QUARTUS_CREATED_ADC2~_CHSEL_bus\ [1] $end
$var wire 1 O \~QUARTUS_CREATED_ADC2~_CHSEL_bus\ [0] $end
$var wire 1 P \~QUARTUS_CREATED_GND~I_combout\ $end
$var wire 1 Q \~QUARTUS_CREATED_UNVM~~busy\ $end
$var wire 1 R \~QUARTUS_CREATED_ADC1~~eoc\ $end
$var wire 1 S \~QUARTUS_CREATED_ADC2~~eoc\ $end
$var wire 1 T \s[0]~output_o\ $end
$var wire 1 U \s[1]~output_o\ $end
$var wire 1 V \s[2]~output_o\ $end
$var wire 1 W \s[3]~output_o\ $end
$var wire 1 X \Cout~output_o\ $end
$var wire 1 Y \Cin~input_o\ $end
$var wire 1 Z \a[0]~input_o\ $end
$var wire 1 [ \b[0]~input_o\ $end
$var wire 1 \ \I0|HA1|s~0_combout\ $end
$var wire 1 ] \I0|Cout~0_combout\ $end
$var wire 1 ^ \a[1]~input_o\ $end
$var wire 1 _ \b[1]~input_o\ $end
$var wire 1 ` \I1|HA1|s~combout\ $end
$var wire 1 a \I1|Cout~0_combout\ $end
$var wire 1 b \a[2]~input_o\ $end
$var wire 1 c \b[2]~input_o\ $end
$var wire 1 d \I2|HA1|s~combout\ $end
$var wire 1 e \a[3]~input_o\ $end
$var wire 1 f \I2|Cout~0_combout\ $end
$var wire 1 g \b[3]~input_o\ $end
$var wire 1 h \I3|HA1|s~combout\ $end
$var wire 1 i \I3|Cout~0_combout\ $end
$upscope $end
$upscope $end
$enddefinitions $end
#0
$dumpvars
0)
0*
0/
10
x1
12
13
14
15
16
17
0@
0E
0P
zQ
zR
zS
0T
0U
0V
1W
0X
0Y
0Z
0[
0\
0]
0^
0_
0`
0a
0b
0c
0d
0e
0f
1g
1h
0i
0!
0"
0#
0$
1%
0&
0'
0(
08
09
0:
0;
1<
0=
0>
0?
1A
0B
0C
0D
0F
0G
0H
0I
0J
0K
0L
0M
0N
0O
1+
0,
0-
0.
$end
#30000
1$
1'
1;
1>
1_
1Z
1\
1`
1U
1T
1C
1D
1.
1-
#60000
0$
1#
0%
1&
0;
1:
1=
0<
0g
1c
1^
0Z
0\
0`
1a
1d
0h
0W
1V
0U
0T
0d
1f
0A
1B
0C
0D
0V
1h
0.
0-
1,
0+
0B
1W
0,
1A
1+
#90000
1$
1%
1(
1;
1?
1<
1g
1[
1Z
1]
0h
1i
1X
0W
1`
1E
0A
1U
1*
0+
1C
1-
#120000
0$
0%
0(
0#
1)
1"
0;
0:
19
0?
0<
1@
1Y
0g
0[
1b
0^
0Z
0`
1d
1h
0i
1\
0]
1T
0X
1W
1V
0U
1`
0a
1D
0E
1A
1B
0C
1U
0d
1.
0-
1,
1+
0*
1C
0V
1-
0B
0,
#150000
1$
1(
1;
1?
1[
1Z
1]
0`
1a
0U
1d
0C
1V
0-
1B
1,
#180000
0$
1#
0&
0;
1:
0=
0c
1^
0Z
0\
1`
0d
0V
1U
0T
0B
1C
0D
0.
1-
0,
#210000
1$
1;
1Z
1\
1T
1D
1.
#240000
0$
0#
1%
0)
0"
1!
0;
0:
09
18
1<
0@
0Y
1g
1e
0b
0^
0Z
0`
1d
0f
1i
0]
1X
1V
0U
1`
0a
0h
1E
1B
0C
0W
1U
0d
1*
0-
1,
0A
1C
0V
1-
0+
0B
0,
#270000
1$
0%
1;
0<
0g
1Z
0\
1]
1h
0i
0X
1W
0T
0`
1a
0E
1A
0D
0U
1d
0*
0.
1+
0C
1V
0-
1B
1,
#300000
0$
1%
1#
0;
1:
1<
1g
1^
0Z
1\
0]
1`
0h
1i
1X
0W
1U
1T
0`
1E
0A
1C
1D
0U
1*
1.
1-
0+
0C
0-
#330000
1$
0(
1;
0?
0[
1Z
#360000
0$
0#
1"
1&
0'
0;
0:
19
0>
1=
1c
0_
1b
0^
0Z
0\
0a
1f
0T
1h
0d
0D
0V
1W
0.
0B
1A
0,
1+
#390000
1$
0&
1'
0%
1;
1>
0=
0<
0g
0c
1_
1Z
1\
1`
1d
0f
0h
0W
1V
1U
1T
1h
0i
0A
1B
1C
1D
0X
1W
1.
1-
1,
0+
0E
1A
0*
1+
#420000
0$
1&
0'
1%
1#
0;
1:
0>
1=
1<
1g
1c
0_
1^
0Z
0\
0d
1f
0h
1i
1X
0W
0V
0T
1h
1E
0A
0B
0D
1W
1*
0.
0,
0+
1A
1+
#450000
1$
0%
1(
1;
1?
0<
0g
1[
1Z
1]
0h
0W
0`
1a
0A
0U
1d
0+
0C
1V
0-
1B
1,
#480000
0$
1%
0(
0#
0"
1)
0!
0;
0:
09
08
0?
1<
1@
1Y
1g
0[
0e
0b
0^
0Z
1`
0a
0d
1\
0]
1T
0V
1U
0`
1d
0f
1D
0B
1C
1V
0U
1h
0i
1.
1-
0,
1B
0C
0X
1W
0-
1,
0E
1A
0*
1+
#510000
1$
1'
1;
1>
1_
1Z
0\
1]
1`
1U
0T
0`
1a
1C
0D
0U
0d
1f
0.
1-
0C
0V
0h
1i
0-
0B
1X
0W
0,
1E
0A
1*
0+
#540000
0$
0'
1#
0&
0;
1:
0>
0=
0c
0_
1^
0Z
1\
0]
1d
0f
1V
1T
1h
0i
1`
0a
1B
1D
1U
0X
1W
0d
1.
1,
1C
0E
1A
0V
1-
1+
0*
0B
0,
#570000
1$
1'
1&
0%
1;
1>
1=
0<
0g
1c
1_
1Z
0\
1]
0`
1a
1d
0h
0W
1V
0U
0T
0d
1f
1`
0A
1B
0C
0D
1U
0V
1h
0.
0-
1,
0+
1C
0B
1W
1-
0,
1A
1+
#600000
0$
0'
0&
0#
1"
0;
0:
19
0>
0=
0c
0_
1b
0^
0Z
1\
0]
0a
1T
1d
0f
0`
1D
0U
1V
0h
1.
0C
1B
0W
0-
1,
0A
0+
#630000
1$
1'
1&
1%
1(
1;
1?
1>
1=
1<
1g
1c
1_
1[
1Z
1]
1`
0d
1f
1h
1W
0V
1U
0h
1i
0`
1a
1A
0B
1C
0U
1X
0W
1d
1-
0,
1+
0C
1E
0A
1V
0-
0+
1*
1B
1,
#660000
0$
0'
0&
0%
0(
1#
0;
1:
0?
0>
0=
0<
0g
0c
0_
0[
1^
0Z
0]
0d
1h
0i
0X
1W
0V
1`
0a
0E
1A
0B
1U
1d
0f
0*
0,
1+
1C
1V
0h
1-
1B
0W
1,
0A
0+
#690000
1$
1(
1;
1?
1[
1Z
1]
0`
1a
0U
0d
1f
0C
0V
1h
0-
0B
1W
0,
1A
1+
#720000
0$
0#
0"
0)
1!
0;
0:
09
18
0@
0Y
1e
0b
0^
0Z
1`
0a
1d
0f
0h
1i
0]
1X
0W
1V
1U
0`
1h
0i
0d
1E
0A
1B
1C
0V
0X
1W
0U
1*
1-
1,
0+
0B
0E
1A
0C
0-
0,
1+
0*
#750000
1$
1'
1%
1;
1>
1<
1g
1_
1Z
0\
1]
1`
0h
1i
1X
0W
1U
0T
0`
1a
1E
0A
1C
0D
0U
1d
1*
0.
1-
0+
0C
1V
0-
1B
1,
#780000
0$
0'
0%
1#
1&
0;
1:
0>
1=
0<
0g
1c
0_
1^
0Z
1\
0]
0d
1f
1h
0i
0X
1W
0V
1T
0h
1i
1`
0a
0E
1A
0B
1D
1U
1X
0W
1d
0f
0*
1.
0,
1+
1C
1E
0A
1V
1h
0i
1-
0+
1*
1B
0X
1W
1,
0E
1A
0*
1+
#810000
1$
1'
0&
1;
1>
0=
0c
1_
1Z
0\
1]
0`
1a
0d
0V
0U
0T
1d
1`
0B
0C
0D
1U
1V
0.
0-
0,
1C
1B
1-
1,
#840000
0$
1&
0#
1"
1)
0;
0:
19
1=
1@
1Y
1c
1b
0^
0Z
0`
1f
0U
0h
1i
0C
1X
0W
0-
1E
0A
1*
0+
#870000
1$
0&
1%
1;
0=
1<
1g
0c
1Z
1\
0d
1h
1W
0V
1T
1A
0B
1D
1.
0,
1+
#900000
0$
1&
0%
1#
0(
0;
1:
0?
1=
0<
0g
1c
0[
1^
0Z
1`
0]
1d
0h
0W
1V
1U
0`
0A
1B
1C
0U
1-
1,
0+
0C
0-
#930000
1$
1%
1;
1<
1g
1Z
0\
1]
1h
1W
0T
1`
1A
0D
1U
0.
1+
1C
1-
#960000
0$
0%
0#
0"
0)
0!
0;
0:
09
08
0<
0@
0Y
0g
0e
0b
0^
0Z
0`
0d
0i
0]
0X
0V
0U
1`
0a
0E
0B
0C
1U
1d
0f
0*
0-
0,
1C
1V
0h
1-
1B
0W
1,
0A
0+
#990000
1$
1%
1(
0'
1;
1?
0>
1<
1g
0_
1[
1Z
1]
0`
1h
1W
0U
1`
1A
0C
1U
0-
1+
1C
1-
