SUMAUNO5/simulation/qsim/SUMAUNO5.msim.vcd
$comment
	File created using the following command:
		vcd file SUMAUNO5.msim.vcd -direction
$end
$date
	Thu Feb 29 22:36:00 2024
$end
$version
	ModelSim Version 10.5b
$end
$timescale
	1ps
$end

$scope module sumauno5_vhd_vec_tst $end
$var wire 1 ! A [4] $end
$var wire 1 " A [3] $end
$var wire 1 # A [2] $end
$var wire 1 $ A [1] $end
$var wire 1 % A [0] $end
$var wire 1 & S [4] $end
$var wire 1 ' S [3] $end
$var wire 1 ( S [2] $end
$var wire 1 ) S [1] $end
$var wire 1 * S [0] $end

$scope module i1 $end
$var wire 1 + gnd $end
$var wire 1 , vcc $end
$var wire 1 - unknown $end
$var wire 1 . devoe $end
$var wire 1 / devclrn $end
$var wire 1 0 devpor $end
$var wire 1 1 ww_devoe $end
$var wire 1 2 ww_devclrn $end
$var wire 1 3 ww_devpor $end
$var wire 1 4 ww_A [4] $end
$var wire 1 5 ww_A [3] $end
$var wire 1 6 ww_A [2] $end
$var wire 1 7 ww_A [1] $end
$var wire 1 8 ww_A [0] $end
$var wire 1 9 ww_S [4] $end
$var wire 1 : ww_S [3] $end
$var wire 1 ; ww_S [2] $end
$var wire 1 < ww_S [1] $end
$var wire 1 = ww_S [0] $end
$var wire 1 > \~QUARTUS_CREATED_ADC1~_CHSEL_bus\ [4] $end
$var wire 1 ? \~QUARTUS_CREATED_ADC1~_CHSEL_bus\ [3] $end
$var wire 1 @ \~QUARTUS_CREATED_ADC1~_CHSEL_bus\ [2] $end
$var wire 1 A \~QUARTUS_CREATED_ADC1~_CHSEL_bus\ [1] $end
$var wire 1 B \~QUARTUS_CREATED_ADC1~_CHSEL_bus\ [0] $end
$var wire 1 C \~QUARTUS_CREATED_GND~I_combout\ $end
$var wire 1 D \~QUARTUS_CREATED_UNVM~~busy\ $end
$var wire 1 E \~QUARTUS_CREATED_ADC1~~eoc\ $end
$var wire 1 F \S[0]~output_o\ $end
$var wire 1 G \S[1]~output_o\ $end
$var wire 1 H \S[2]~output_o\ $end
$var wire 1 I \S[3]~output_o\ $end
$var wire 1 J \S[4]~output_o\ $end
$var wire 1 K \A[0]~input_o\ $end
$var wire 1 L \A[1]~input_o\ $end
$var wire 1 M \I2|s~combout\ $end
$var wire 1 N \A[2]~input_o\ $end
$var wire 1 O \I3|s~combout\ $end
$var wire 1 P \A[3]~input_o\ $end
$var wire 1 Q \I4|s~combout\ $end
$var wire 1 R \I4|Cout~combout\ $end
$var wire 1 S \A[4]~input_o\ $end
$var wire 1 T \S~0_combout\ $end
$var wire 1 U \ALT_INV_A[0]~input_o\ $end
$upscope $end
$upscope $end
$enddefinitions $end
#0
$dumpvars
0+
1,
x-
1.
1/
10
11
12
13
0C
zD
zE
1F
0G
0H
0I
0J
0K
0L
0M
0N
0O
0P
0Q
0R
0S
0T
1U
0!
0"
0#
0$
0%
0&
0'
0(
0)
1*
04
05
06
07
08
09
0:
0;
0<
1=
0>
0?
0@
0A
0B
$end
#10000
1%
18
1K
0U
1M
0F
1G
0=
1<
0*
1)
#20000
0%
1$
08
17
1L
0K
1U
1F
1=
1*
#30000
1%
18
1K
0U
0M
1O
0F
1H
0G
0=
1;
0<
0*
0)
1(
#40000
0%
0$
1#
08
07
16
1N
0L
0K
1U
1F
1=
1*
#50000
1%
18
1K
0U
1M
0F
1G
0=
1<
0*
1)
#60000
0%
1$
08
17
1L
0K
1U
1F
1=
1*
#70000
1%
18
1K
0U
0M
0O
1Q
0F
1I
0H
0G
0=
1:
0;
0<
0*
0)
0(
1'
#80000
0%
0$
0#
1"
08
07
06
15
1P
0N
0L
0K
1U
1F
1=
1*
#90000
1%
18
1K
0U
1M
0F
1G
0=
1<
0*
1)
#100000
0%
1$
08
17
1L
0K
1U
1F
1=
1*
#110000
1%
18
1K
0U
0M
1O
0F
1H
0G
0=
1;
0<
0*
0)
1(
#120000
0%
0$
1#
08
07
16
1N
0L
0K
1U
1F
1=
1*
#130000
1%
18
1K
0U
1M
0F
1G
0=
1<
0*
1)
#140000
0%
1$
08
17
1L
0K
1U
1F
1=
1*
#150000
1%
18
1K
0U
0M
0O
0Q
1R
0F
0I
0H
0G
1T
0=
0:
0;
0<
0*
1J
0)
0(
0'
19
1&
#160000
0%
0$
0#
0"
1!
08
07
06
05
14
1S
0P
0N
0L
0K
1U
0R
0T
1F
0J
1T
1=
09
1*
1J
0&
19
1&
#170000
1%
18
1K
0U
1M
0F
1G
0=
1<
0*
1)
#180000
0%
1$
08
17
1L
0K
1U
1F
1=
1*
#190000
1%
18
1K
0U
0M
1O
0F
1H
0G
0=
1;
0<
0*
0)
1(
#200000
0%
0$
1#
08
07
16
1N
0L
0K
1U
1F
1=
1*
#210000
1%
18
1K
0U
1M
0F
1G
0=
1<
0*
1)
#220000
0%
1$
08
17
1L
0K
1U
1F
1=
1*
#230000
1%
18
1K
0U
0M
0O
1Q
0F
1I
0H
0G
0=
1:
0;
0<
0*
0)
0(
1'
#240000
0%
0$
0#
1"
08
07
06
15
1P
0N
0L
0K
1U
1F
1=
1*
#250000
1%
18
1K
0U
1M
0F
1G
0=
1<
0*
1)
#260000
0%
1$
08
17
1L
0K
1U
1F
1=
1*
#270000
1%
18
1K
0U
0M
1O
0F
1H
0G
0=
1;
0<
0*
0)
1(
#280000
0%
0$
1#
08
07
16
1N
0L
0K
1U
1F
1=
1*
#290000
1%
18
1K
0U
1M
0F
1G
0=
1<
0*
1)
#300000
0%
1$
08
17
1L
0K
1U
1F
1=
1*
#310000
1%
18
1K
0U
0M
0O
0Q
1R
0F
0I
0H
0G
0T
0=
0:
0;
0<
0*
0J
0)
0(
0'
09
0&
#320000
0%
0$
0#
0"
0!
08
07
06
05
04
0S
0P
0N
0L
0K
1U
0R
1T
1F
1J
0T
1=
19
1*
0J
1&
09
0&
#330000
1%
18
1K
0U
1M
0F
1G
0=
1<
0*
1)
#340000
0%
1$
08
17
1L
0K
1U
1F
1=
1*
#350000
1%
18
1K
0U
0M
1O
0F
1H
0G
0=
1;
0<
0*
0)
1(
#360000
0%
0$
1#
08
07
16
1N
0L
0K
1U
1F
1=
1*
#370000
1%
18
1K
0U
1M
0F
1G
0=
1<
0*
1)
#380000
0%
1$
08
17
1L
0K
1U
1F
1=
1*
#390000
1%
18
1K
0U
0M
0O
1Q
0F
1I
0H
0G
0=
1:
0;
0<
0*
0)
0(
1'
#400000
0%
0$
0#
1"
08
07
06
15
1P
0N
0L
0K
1U
1F
1=
1*
#410000
1%
18
1K
0U
1M
0F
1G
0=
1<
0*
1)
#420000
0%
1$
08
17
1L
0K
1U
1F
1=
1*
#430000
1%
18
1K
0U
0M
1O
0F
1H
0G
0=
1;
0<
0*
0)
1(
#440000
0%
0$
1#
08
07
16
1N
0L
0K
1U
1F
1=
1*
#450000
1%
18
1K
0U
1M
0F
1G
0=
1<
0*
1)
#460000
0%
1$
08
17
1L
0K
1U
1F
1=
1*
#470000
1%
18
1K
0U
0M
0O
0Q
1R
0F
0I
0H
0G
1T
0=
0:
0;
0<
0*
1J
0)
0(
0'
19
1&
#480000
0%
0$
0#
0"
1!
08
07
06
05
14
1S
0P
0N
0L
0K
1U
0R
0T
1F
0J
1T
1=
09
1*
1J
0&
19
1&
#490000
1%
18
1K
0U
1M
0F
1G
0=
1<
0*
1)
#500000
0%
1$
08
17
1L
0K
1U
1F
1=
1*
#510000
1%
18
1K
0U
0M
1O
0F
1H
0G
0=
1;
0<
0*
0)
1(
#520000
0%
0$
1#
08
07
16
1N
0L
0K
1U
1F
1=
1*
#530000
1%
18
1K
0U
1M
0F
1G
0=
1<
0*
1)
#540000
0%
1$
08
17
1L
0K
1U
1F
1=
1*
#550000
1%
18
1K
0U
0M
0O
1Q
0F
1I
0H
0G
0=
1:
0;
0<
0*
0)
0(
1'
#560000
0%
0$
0#
1"
08
07
06
15
1P
0N
0L
0K
1U
1F
1=
1*
#570000
1%
18
1K
0U
1M
0F
1G
0=
1<
0*
1)
#580000
0%
1$
08
17
1L
0K
1U
1F
1=
1*
#590000
1%
18
1K
0U
0M
1O
0F
1H
0G
0=
1;
0<
0*
0)
1(
#600000
0%
0$
1#
08
07
16
1N
0L
0K
1U
1F
1=
1*
#610000
1%
18
1K
0U
1M
0F
1G
0=
1<
0*
1)
#620000
0%
1$
08
17
1L
0K
1U
1F
1=
1*
#630000
1%
18
1K
0U
0M
0O
0Q
1R
0F
0I
0H
0G
0T
0=
0:
0;
0<
0*
0J
0)
0(
0'
09
0&
#640000
0%
0$
0#
0"
0!
08
07
06
05
04
0S
0P
0N
0L
0K
1U
0R
1T
1F
1J
0T
1=
19
1*
0J
1&
09
0&
#650000
1%
18
1K
0U
1M
0F
1G
0=
1<
0*
1)
#660000
0%
1$
08
17
1L
0K
1U
1F
1=
1*
#670000
1%
18
1K
0U
0M
1O
0F
1H
0G
0=
1;
0<
0*
0)
1(
#680000
0%
0$
1#
08
07
16
1N
0L
0K
1U
1F
1=
1*
#690000
1%
18
1K
0U
1M
0F
1G
0=
1<
0*
1)
#700000
0%
1$
08
17
1L
0K
1U
1F
1=
1*
#710000
1%
18
1K
0U
0M
0O
1Q
0F
1I
0H
0G
0=
1:
0;
0<
0*
0)
0(
1'
#720000
0%
0$
0#
1"
08
07
06
15
1P
0N
0L
0K
1U
1F
1=
1*
#730000
1%
18
1K
0U
1M
0F
1G
0=
1<
0*
1)
#740000
0%
1$
08
17
1L
0K
1U
1F
1=
1*
#750000
1%
18
1K
0U
0M
1O
0F
1H
0G
0=
1;
0<
0*
0)
1(
#760000
0%
0$
1#
08
07
16
1N
0L
0K
1U
1F
1=
1*
#770000
1%
18
1K
0U
1M
0F
1G
0=
1<
0*
1)
#780000
0%
1$
08
17
1L
0K
1U
1F
1=
1*
#790000
1%
18
1K
0U
0M
0O
0Q
1R
0F
0I
0H
0G
1T
0=
0:
0;
0<
0*
1J
0)
0(
0'
19
1&
#800000
0%
0$
0#
0"
1!
08
07
06
05
14
1S
0P
0N
0L
0K
1U
0R
0T
1F
0J
1T
1=
09
1*
1J
0&
19
1&
#810000
1%
18
1K
0U
1M
0F
1G
0=
1<
0*
1)
#820000
0%
1$
08
17
1L
0K
1U
1F
1=
1*
#830000
1%
18
1K
0U
0M
1O
0F
1H
0G
0=
1;
0<
0*
0)
1(
#840000
0%
0$
1#
08
07
16
1N
0L
0K
1U
1F
1=
1*
#850000
1%
18
1K
0U
1M
0F
1G
0=
1<
0*
1)
#860000
0%
1$
08
17
1L
0K
1U
1F
1=
1*
#870000
1%
18
1K
0U
0M
0O
1Q
0F
1I
0H
0G
0=
1:
0;
0<
0*
0)
0(
1'
#880000
0%
0$
0#
1"
08
07
06
15
1P
0N
0L
0K
1U
1F
1=
1*
#890000
1%
18
1K
0U
1M
0F
1G
0=
1<
0*
1)
#900000
0%
1$
08
17
1L
0K
1U
1F
1=
1*
#910000
1%
18
1K
0U
0M
1O
0F
1H
0G
0=
1;
0<
0*
0)
1(
#920000
0%
0$
1#
08
07
16
1N
0L
0K
1U
1F
1=
1*
#930000
1%
18
1K
0U
1M
0F
1G
0=
1<
0*
1)
#940000
0%
1$
08
17
1L
0K
1U
1F
1=
1*
#950000
1%
18
1K
0U
0M
0O
0Q
1R
0F
0I
0H
0G
0T
0=
0:
0;
0<
0*
0J
0)
0(
0'
09
0&
#960000
0%
0$
0#
0"
0!
08
07
06
05
04
0S
0P
0N
0L
0K
1U
0R
1T
1F
1J
0T
1=
19
1*
0J
1&
09
0&
#970000
1%
18
1K
0U
1M
0F
1G
0=
1<
0*
1)
#980000
0%
1$
08
17
1L
0K
1U
1F
1=
1*
#990000
1%
18
1K
0U
0M
1O
0F
1H
0G
0=
1;
0<
0*
0)
1(
