MOVOBST/simulation/qsim/MOVOBST.msim.vcd
$comment
	File created using the following command:
		vcd file MOVOBST.msim.vcd -direction
$end
$date
	Mon Mar 11 17:49:17 2024
$end
$version
	ModelSim Version 10.5b
$end
$timescale
	1ps
$end

$scope module movobst_vhd_vec_tst $end
$var wire 1 ! clk $end
$var wire 1 " reset $end
$var wire 1 # ST $end
$var wire 1 $ valor [9] $end
$var wire 1 % valor [8] $end
$var wire 1 & valor [7] $end
$var wire 1 ' valor [6] $end
$var wire 1 ( valor [5] $end
$var wire 1 ) valor [4] $end
$var wire 1 * valor [3] $end
$var wire 1 + valor [2] $end
$var wire 1 , valor [1] $end
$var wire 1 - valor [0] $end
$var wire 1 . valor2 [9] $end
$var wire 1 / valor2 [8] $end
$var wire 1 0 valor2 [7] $end
$var wire 1 1 valor2 [6] $end
$var wire 1 2 valor2 [5] $end
$var wire 1 3 valor2 [4] $end
$var wire 1 4 valor2 [3] $end
$var wire 1 5 valor2 [2] $end
$var wire 1 6 valor2 [1] $end
$var wire 1 7 valor2 [0] $end

$scope module i1 $end
$var wire 1 8 gnd $end
$var wire 1 9 vcc $end
$var wire 1 : unknown $end
$var wire 1 ; devoe $end
$var wire 1 < devclrn $end
$var wire 1 = devpor $end
$var wire 1 > ww_devoe $end
$var wire 1 ? ww_devclrn $end
$var wire 1 @ ww_devpor $end
$var wire 1 A ww_clk $end
$var wire 1 B ww_reset $end
$var wire 1 C ww_ST $end
$var wire 1 D ww_valor [9] $end
$var wire 1 E ww_valor [8] $end
$var wire 1 F ww_valor [7] $end
$var wire 1 G ww_valor [6] $end
$var wire 1 H ww_valor [5] $end
$var wire 1 I ww_valor [4] $end
$var wire 1 J ww_valor [3] $end
$var wire 1 K ww_valor [2] $end
$var wire 1 L ww_valor [1] $end
$var wire 1 M ww_valor [0] $end
$var wire 1 N ww_valor2 [9] $end
$var wire 1 O ww_valor2 [8] $end
$var wire 1 P ww_valor2 [7] $end
$var wire 1 Q ww_valor2 [6] $end
$var wire 1 R ww_valor2 [5] $end
$var wire 1 S ww_valor2 [4] $end
$var wire 1 T ww_valor2 [3] $end
$var wire 1 U ww_valor2 [2] $end
$var wire 1 V ww_valor2 [1] $end
$var wire 1 W ww_valor2 [0] $end
$var wire 1 X \~QUARTUS_CREATED_ADC1~_CHSEL_bus\ [4] $end
$var wire 1 Y \~QUARTUS_CREATED_ADC1~_CHSEL_bus\ [3] $end
$var wire 1 Z \~QUARTUS_CREATED_ADC1~_CHSEL_bus\ [2] $end
$var wire 1 [ \~QUARTUS_CREATED_ADC1~_CHSEL_bus\ [1] $end
$var wire 1 \ \~QUARTUS_CREATED_ADC1~_CHSEL_bus\ [0] $end
$var wire 1 ] \reset~inputclkctrl_INCLK_bus\ [3] $end
$var wire 1 ^ \reset~inputclkctrl_INCLK_bus\ [2] $end
$var wire 1 _ \reset~inputclkctrl_INCLK_bus\ [1] $end
$var wire 1 ` \reset~inputclkctrl_INCLK_bus\ [0] $end
$var wire 1 a \clk~inputclkctrl_INCLK_bus\ [3] $end
$var wire 1 b \clk~inputclkctrl_INCLK_bus\ [2] $end
$var wire 1 c \clk~inputclkctrl_INCLK_bus\ [1] $end
$var wire 1 d \clk~inputclkctrl_INCLK_bus\ [0] $end
$var wire 1 e \~QUARTUS_CREATED_UNVM~~busy\ $end
$var wire 1 f \~QUARTUS_CREATED_ADC1~~eoc\ $end
$var wire 1 g \valor[0]~output_o\ $end
$var wire 1 h \valor[1]~output_o\ $end
$var wire 1 i \valor[2]~output_o\ $end
$var wire 1 j \valor[3]~output_o\ $end
$var wire 1 k \valor[4]~output_o\ $end
$var wire 1 l \valor[5]~output_o\ $end
$var wire 1 m \valor[6]~output_o\ $end
$var wire 1 n \valor[7]~output_o\ $end
$var wire 1 o \valor[8]~output_o\ $end
$var wire 1 p \valor[9]~output_o\ $end
$var wire 1 q \valor2[0]~output_o\ $end
$var wire 1 r \valor2[1]~output_o\ $end
$var wire 1 s \valor2[2]~output_o\ $end
$var wire 1 t \valor2[3]~output_o\ $end
$var wire 1 u \valor2[4]~output_o\ $end
$var wire 1 v \valor2[5]~output_o\ $end
$var wire 1 w \valor2[6]~output_o\ $end
$var wire 1 x \valor2[7]~output_o\ $end
$var wire 1 y \valor2[8]~output_o\ $end
$var wire 1 z \valor2[9]~output_o\ $end
$var wire 1 { \clk~input_o\ $end
$var wire 1 | \clk~inputclkctrl_outclk\ $end
$var wire 1 } \valor_int[0]~10_combout\ $end
$var wire 1 ~ \~GND~combout\ $end
$var wire 1 !! \reset~input_o\ $end
$var wire 1 "! \reset~inputclkctrl_outclk\ $end
$var wire 1 #! \valor_int[0]~11\ $end
$var wire 1 $! \valor_int[1]~16_combout\ $end
$var wire 1 %! \valor_int[1]~17\ $end
$var wire 1 &! \valor_int[2]~18_combout\ $end
$var wire 1 '! \valor_int[2]~19\ $end
$var wire 1 (! \valor_int[3]~20_combout\ $end
$var wire 1 )! \valor_int[3]~21\ $end
$var wire 1 *! \valor_int[4]~22_combout\ $end
$var wire 1 +! \valor_int[4]~23\ $end
$var wire 1 ,! \valor_int[5]~24_combout\ $end
$var wire 1 -! \ST~input_o\ $end
$var wire 1 .! \valor_int[5]~25\ $end
$var wire 1 /! \valor_int[6]~26_combout\ $end
$var wire 1 0! \valor_int[6]~27\ $end
$var wire 1 1! \valor_int[7]~28_combout\ $end
$var wire 1 2! \valor_int[7]~29\ $end
$var wire 1 3! \valor_int[8]~30_combout\ $end
$var wire 1 4! \valor_int[8]~31\ $end
$var wire 1 5! \valor_int[9]~32_combout\ $end
$var wire 1 6! \valor_int[0]~12_combout\ $end
$var wire 1 7! \valor_int[0]~13_combout\ $end
$var wire 1 8! \valor_int[0]~14_combout\ $end
$var wire 1 9! \valor_int[0]~15_combout\ $end
$var wire 1 :! \valor_int2[0]~10_combout\ $end
$var wire 1 ;! \valor_int2[0]~11\ $end
$var wire 1 <! \valor_int2[1]~16_combout\ $end
$var wire 1 =! \valor_int2[1]~17\ $end
$var wire 1 >! \valor_int2[2]~18_combout\ $end
$var wire 1 ?! \valor_int2[2]~19\ $end
$var wire 1 @! \valor_int2[3]~20_combout\ $end
$var wire 1 A! \valor_int2[3]~21\ $end
$var wire 1 B! \valor_int2[4]~22_combout\ $end
$var wire 1 C! \valor_int2[4]~23\ $end
$var wire 1 D! \valor_int2[5]~24_combout\ $end
$var wire 1 E! \valor_int2[5]~25\ $end
$var wire 1 F! \valor_int2[6]~26_combout\ $end
$var wire 1 G! \valor_int2[6]~27\ $end
$var wire 1 H! \valor_int2[7]~28_combout\ $end
$var wire 1 I! \valor_int2[7]~29\ $end
$var wire 1 J! \valor_int2[8]~30_combout\ $end
$var wire 1 K! \valor_int2[8]~31\ $end
$var wire 1 L! \valor_int2[9]~32_combout\ $end
$var wire 1 M! \valor_int2[0]~13_combout\ $end
$var wire 1 N! \valor_int2[0]~12_combout\ $end
$var wire 1 O! \valor_int2[0]~14_combout\ $end
$var wire 1 P! \valor_int2[0]~15_combout\ $end
$var wire 1 Q! valor_int [9] $end
$var wire 1 R! valor_int [8] $end
$var wire 1 S! valor_int [7] $end
$var wire 1 T! valor_int [6] $end
$var wire 1 U! valor_int [5] $end
$var wire 1 V! valor_int [4] $end
$var wire 1 W! valor_int [3] $end
$var wire 1 X! valor_int [2] $end
$var wire 1 Y! valor_int [1] $end
$var wire 1 Z! valor_int [0] $end
$var wire 1 [! valor_int2 [9] $end
$var wire 1 \! valor_int2 [8] $end
$var wire 1 ]! valor_int2 [7] $end
$var wire 1 ^! valor_int2 [6] $end
$var wire 1 _! valor_int2 [5] $end
$var wire 1 `! valor_int2 [4] $end
$var wire 1 a! valor_int2 [3] $end
$var wire 1 b! valor_int2 [2] $end
$var wire 1 c! valor_int2 [1] $end
$var wire 1 d! valor_int2 [0] $end
$var wire 1 e! \ALT_INV_reset~inputclkctrl_outclk\ $end
$var wire 1 f! ALT_INV_valor_int2 [6] $end
$var wire 1 g! ALT_INV_valor_int2 [5] $end
$var wire 1 h! ALT_INV_valor_int2 [4] $end
$var wire 1 i! ALT_INV_valor_int2 [3] $end
$var wire 1 j! ALT_INV_valor_int2 [2] $end
$var wire 1 k! ALT_INV_valor_int2 [1] $end
$var wire 1 l! ALT_INV_valor_int2 [0] $end
$var wire 1 m! ALT_INV_valor_int [5] $end
$var wire 1 n! ALT_INV_valor_int [4] $end
$var wire 1 o! ALT_INV_valor_int [3] $end
$var wire 1 p! ALT_INV_valor_int [2] $end
$var wire 1 q! ALT_INV_valor_int [1] $end
$var wire 1 r! ALT_INV_valor_int [0] $end
$upscope $end
$upscope $end
$enddefinitions $end
#0
$dumpvars
0!
0"
0#
08
19
x:
1;
1<
1=
1>
1?
1@
0A
0B
0C
ze
zf
1g
1h
0i
0j
0k
1l
0m
0n
0o
0p
1q
1r
0s
0t
1u
1v
1w
0x
0y
0z
0{
0|
1}
0~
0!!
0"!
1#!
1$!
0%!
1&!
0'!
0(!
1)!
0*!
0+!
0,!
0-!
1.!
0/!
00!
01!
12!
03!
04!
05!
06!
07!
08!
19!
1:!
1;!
1<!
0=!
1>!
0?!
0@!
1A!
0B!
0C!
0D!
1E!
0F!
0G!
0H!
1I!
0J!
0K!
0L!
0M!
0N!
0O!
1P!
1e!
0D
0E
0F
0G
1H
0I
0J
0K
1L
1M
0N
0O
0P
1Q
1R
1S
0T
0U
1V
1W
0Q!
0R!
0S!
0T!
0U!
0V!
0W!
0X!
0Y!
0Z!
0[!
0\!
0]!
0^!
0_!
0`!
0a!
0b!
0c!
0d!
1f!
1g!
1h!
xi!
xj!
1k!
1l!
1m!
xn!
xo!
xp!
1q!
1r!
1a
1b
1c
0d
1]
1^
1_
0`
0X
0Y
0Z
0[
0\
0$
0%
0&
0'
1(
0)
0*
0+
1,
1-
0.
0/
00
11
12
13
04
05
16
17
$end
#1000
1!
1A
1{
1d
1|
#2000
0!
0A
0{
0d
0|
#3000
1!
1A
1{
1d
1|
#4000
0!
0A
0{
0d
0|
#5000
1!
1A
1{
1d
1|
#6000
0!
0A
0{
0d
0|
#7000
1!
1A
1{
1d
1|
#8000
0!
0A
0{
0d
0|
#9000
1!
1A
1{
1d
1|
#10000
0!
0A
0{
0d
0|
#11000
1!
1A
1{
1d
1|
#12000
0!
0A
0{
0d
0|
#13000
1!
1A
1{
1d
1|
#14000
0!
0A
0{
0d
0|
#15000
1!
1A
1{
1d
1|
#16000
0!
0A
0{
0d
0|
#17000
1!
1A
1{
1d
1|
#18000
0!
0A
0{
0d
0|
#19000
1!
1A
1{
1d
1|
#20000
0!
1#
0A
1C
1-!
0{
0d
09!
0P!
0|
#21000
1!
1A
1{
1d
1|
1Y!
1X!
1Z!
1c!
1b!
1d!
0l!
0k!
0r!
0q!
1s
1i
0:!
0;!
0>!
1?!
0<!
1=!
0}
0#!
0&!
1'!
0$!
1%!
0h
0g
0r
0q
1U
1K
1&!
0'!
1(!
1$!
1>!
0?!
1@!
1<!
0L
0M
0V
0W
15
1+
0-
0,
07
06
0@!
0(!
#22000
0!
0A
0{
0d
0|
#23000
1!
1A
1{
1d
1|
0Z!
0d!
1l!
1r!
1:!
1;!
1}
1#!
1g
1q
0$!
0<!
1M
1W
1-
17
#24000
0!
0A
0{
0d
0|
#25000
1!
1A
1{
1d
1|
0Y!
1Z!
0c!
1d!
0l!
1k!
0r!
1q!
0:!
0;!
1<!
0=!
0}
0#!
1$!
0%!
1h
0g
1r
0q
0&!
1'!
0$!
1%!
0>!
1?!
0<!
1=!
1L
0M
1V
0W
0-
1,
07
16
1>!
0?!
1@!
1&!
0'!
1(!
0(!
0@!
#26000
0!
0A
0{
0d
0|
#27000
1!
1A
1{
1d
1|
0Z!
0d!
1l!
1r!
1:!
1;!
1}
1#!
1g
1q
1$!
0%!
1<!
0=!
1M
1W
1-
17
0>!
1?!
0&!
1'!
1(!
1@!
#28000
0!
0A
0{
0d
0|
#29000
1!
1A
1{
1d
1|
1Y!
0X!
1W!
1Z!
1c!
0b!
1a!
1d!
0l!
0k!
0r!
0q!
1t
0s
1j
0i
0:!
0;!
0@!
0A!
1>!
0?!
0<!
1=!
1N!
0}
0#!
0(!
0)!
1&!
0'!
0$!
1%!
16!
0h
0g
0r
0q
1T
0U
1J
0K
0&!
1(!
1)!
1*!
1$!
0>!
1@!
1A!
1B!
1C!
1<!
0L
0M
0V
0W
05
14
0+
1*
0-
0,
07
06
1D!
0E!
0B!
0C!
0*!
0D!
1E!
1F!
1G!
1H!
0F!
0G!
0H!
#30000
0!
0A
0{
0d
0|
#31000
1!
1A
1{
1d
1|
0Z!
0d!
1l!
1r!
1:!
1;!
1}
1#!
1g
1q
0$!
0<!
1M
1W
1-
17
#32000
0!
0A
0{
0d
0|
#33000
1!
1A
1{
1d
1|
0Y!
1Z!
0c!
1d!
0l!
1k!
0r!
1q!
0:!
0;!
1<!
0=!
0}
0#!
1$!
0%!
1h
0g
1r
0q
1&!
0$!
1%!
1>!
0<!
1=!
1L
0M
1V
0W
0-
1,
07
16
0>!
0&!
#34000
0!
0A
0{
0d
0|
#35000
1!
1A
1{
1d
1|
0Z!
0d!
1l!
1r!
1:!
1;!
0N!
1}
1#!
06!
1g
1q
1$!
0%!
1<!
0=!
1M
1W
1-
17
1>!
1&!
#36000
0!
0A
0{
0d
0|
#37000
1!
1A
1{
1d
1|
1Y!
1X!
1Z!
1c!
1b!
1d!
0l!
0k!
0r!
0q!
1s
1i
0:!
0;!
0>!
1?!
0<!
1=!
0}
0#!
0&!
1'!
0$!
1%!
0h
0g
0r
0q
1U
1K
1&!
0'!
0(!
0)!
1$!
1>!
0?!
0@!
0A!
1<!
0L
0M
0V
0W
15
1+
0-
0,
07
06
1B!
1C!
1@!
1A!
1*!
1(!
1)!
0*!
0B!
0C!
1D!
0E!
1F!
1G!
0D!
1E!
0F!
0G!
1H!
0H!
#38000
0!
0A
0{
0d
0|
#39000
1!
1A
1{
1d
1|
0Z!
0d!
1l!
1r!
1:!
1;!
1}
1#!
1g
1q
0$!
0<!
1M
1W
1-
17
#40000
0!
0A
0{
0d
0|
#41000
1!
1A
1{
1d
1|
0Y!
1Z!
0c!
1d!
0l!
1k!
0r!
1q!
0:!
0;!
1<!
0=!
0}
0#!
1$!
0%!
1h
0g
1r
0q
0&!
1'!
0$!
1%!
0>!
1?!
0<!
1=!
1L
0M
1V
0W
0-
1,
07
16
1>!
0?!
0@!
0A!
1&!
0'!
0(!
0)!
1*!
1(!
1)!
1B!
1C!
1@!
1A!
0B!
0C!
1D!
0E!
0*!
1F!
1G!
0D!
1E!
0F!
0G!
1H!
0H!
#42000
0!
0A
0{
0d
0|
#43000
1!
1A
1{
1d
1|
0Z!
0d!
1l!
1r!
1:!
1;!
1}
1#!
1g
1q
1$!
0%!
1<!
0=!
1M
1W
1-
17
0>!
1?!
0&!
1'!
0(!
0)!
0@!
0A!
1B!
1C!
1*!
1D!
0E!
1F!
1G!
1H!
#44000
0!
0A
0{
0d
0|
#45000
1!
1A
1{
1d
1|
1Y!
0X!
0W!
1V!
1Z!
1c!
0b!
0a!
1`!
1_!
1^!
1]!
1d!
0l!
0f!
0g!
0h!
0k!
0r!
0q!
1x
0t
0s
1k
0j
0i
0:!
0;!
0H!
0I!
0F!
0G!
0D!
1E!
0B!
0C!
1@!
1A!
1M!
1>!
0?!
0<!
1=!
1N!
0}
0#!
0*!
1+!
1(!
1)!
1&!
0'!
0$!
1%!
16!
0h
0g
0r
0u
0v
0w
0q
1P
0T
0U
1I
0J
0K
0&!
0(!
1*!
0+!
1,!
0.!
1$!
0>!
0@!
1B!
1D!
1F!
1H!
1I!
1J!
1<!
0L
0M
0V
0S
0R
0Q
0W
05
04
10
0+
0*
1)
0-
0,
07
06
03
02
01
0J!
1/!
0,!
1.!
0/!
#46000
0!
0A
0{
0d
0|
#47000
1!
1A
1{
1d
1|
0Z!
0d!
1l!
1r!
1:!
1;!
1}
1#!
1g
1q
0$!
0<!
1M
1W
1-
17
#48000
0!
0A
0{
0d
0|
#49000
1!
1A
1{
1d
1|
0Y!
1Z!
0c!
1d!
0l!
1k!
0r!
1q!
0:!
0;!
1<!
0=!
0}
0#!
1$!
0%!
1h
0g
1r
0q
1&!
0$!
1%!
1>!
0<!
1=!
1L
0M
1V
0W
0-
1,
07
16
0>!
0&!
#50000
0!
0A
0{
0d
0|
#51000
1!
1A
1{
1d
1|
0Z!
0d!
1l!
1r!
1:!
1;!
0N!
1}
1#!
06!
1g
1q
1$!
0%!
1<!
0=!
1M
1W
1-
17
1>!
1&!
#52000
0!
0A
0{
0d
0|
#53000
1!
1A
1{
1d
1|
1Y!
1X!
1Z!
1c!
1b!
1d!
0l!
0k!
0r!
0q!
1s
1i
0:!
0;!
0>!
1?!
0<!
1=!
0}
0#!
0&!
1'!
0$!
1%!
0h
0g
0r
0q
1U
1K
1&!
0'!
1(!
1$!
1>!
0?!
1@!
1<!
0L
0M
0V
0W
15
1+
0-
0,
07
06
0@!
0(!
#54000
0!
0A
0{
0d
0|
#55000
1!
1A
1{
1d
1|
0Z!
0d!
1l!
1r!
1:!
1;!
1}
1#!
1g
1q
0$!
0<!
1M
1W
1-
17
#56000
0!
0A
0{
0d
0|
#57000
1!
1A
1{
1d
1|
0Y!
1Z!
0c!
1d!
0l!
1k!
0r!
1q!
0:!
0;!
1<!
0=!
0}
0#!
1$!
0%!
1h
0g
1r
0q
0&!
1'!
0$!
1%!
0>!
1?!
0<!
1=!
1L
0M
1V
0W
0-
1,
07
16
1>!
0?!
1@!
1&!
0'!
1(!
0(!
0@!
#58000
0!
0A
0{
0d
0|
#59000
1!
1A
1{
1d
1|
0Z!
0d!
1l!
1r!
1:!
1;!
1}
1#!
1g
1q
1$!
0%!
1<!
0=!
1M
1W
1-
17
0>!
1?!
0&!
1'!
1(!
1@!
#60000
0!
0A
0{
0d
0|
#61000
1!
1A
1{
1d
1|
1Y!
0X!
1W!
1Z!
1c!
0b!
1a!
1d!
0l!
0k!
0r!
0q!
1t
0s
1j
0i
0:!
0;!
0@!
0A!
0M!
1>!
0?!
0<!
1=!
1N!
0}
0#!
0(!
0)!
1&!
0'!
0$!
1%!
16!
0h
0g
0r
0q
1T
0U
1J
0K
0&!
1(!
1)!
0*!
1+!
1$!
0>!
1@!
1A!
0B!
1<!
0L
0M
0V
0W
05
14
0+
1*
0-
0,
07
06
1B!
1,!
0.!
1*!
0+!
0,!
1.!
1/!
0/!
#62000
0!
0A
0{
0d
0|
#63000
1!
1A
1{
1d
1|
0Z!
0d!
1l!
1r!
1:!
1;!
1}
1#!
1g
1q
0$!
0<!
1M
1W
1-
17
#64000
0!
0A
0{
0d
0|
#65000
1!
1A
1{
1d
1|
0Y!
1Z!
0c!
1d!
0l!
1k!
0r!
1q!
0:!
0;!
1<!
0=!
0}
0#!
1$!
0%!
1h
0g
1r
0q
1&!
0$!
1%!
1>!
0<!
1=!
1L
0M
1V
0W
0-
1,
07
16
0>!
0&!
#66000
0!
0A
0{
0d
0|
#67000
1!
1A
1{
1d
1|
0Z!
0d!
1l!
1r!
1:!
1;!
0N!
1}
1#!
06!
1g
1q
1$!
0%!
1<!
0=!
1M
1W
1-
17
1>!
1&!
#68000
0!
0A
0{
0d
0|
#69000
1!
1A
1{
1d
1|
1Y!
1X!
1Z!
1c!
1b!
1d!
0l!
0k!
0r!
0q!
1s
1i
0:!
0;!
0>!
1?!
0<!
1=!
0}
0#!
0&!
1'!
0$!
1%!
0h
0g
0r
0q
1U
1K
1&!
0'!
0(!
0)!
1$!
1>!
0?!
0@!
0A!
1<!
0L
0M
0V
0W
15
1+
0-
0,
07
06
0B!
1@!
1A!
0*!
1+!
1(!
1)!
1*!
0+!
1,!
0.!
1B!
1/!
0,!
1.!
0/!
#70000
0!
0A
0{
0d
0|
#71000
1!
1A
1{
1d
1|
0Z!
0d!
1l!
1r!
1:!
1;!
1}
1#!
1g
1q
0$!
0<!
1M
1W
1-
17
#72000
0!
0A
0{
0d
0|
#73000
1!
1A
1{
1d
1|
0Y!
1Z!
0c!
1d!
0l!
1k!
0r!
1q!
0:!
0;!
1<!
0=!
0}
0#!
1$!
0%!
1h
0g
1r
0q
0&!
1'!
0$!
1%!
0>!
1?!
0<!
1=!
1L
0M
1V
0W
0-
1,
07
16
1>!
0?!
0@!
0A!
1&!
0'!
0(!
0)!
0*!
1+!
1(!
1)!
0B!
1@!
1A!
1B!
1*!
0+!
1,!
0.!
1/!
0,!
1.!
0/!
#74000
0!
0A
0{
0d
0|
#75000
1!
1A
1{
1d
1|
0Z!
0d!
1l!
1r!
1:!
1;!
1}
1#!
1g
1q
1$!
0%!
1<!
0=!
1M
1W
1-
17
0>!
1?!
0&!
1'!
0(!
0)!
0@!
0A!
0B!
0*!
1+!
1,!
0.!
1/!
#76000
0!
0A
0{
0d
0|
#77000
1!
1A
1{
1d
1|
1Y!
0X!
0W!
0V!
1U!
1T!
1Z!
1c!
0b!
0a!
0`!
1d!
0l!
1h!
0k!
0r!
0m!
0q!
0t
0s
1m
0k
0j
0i
0:!
0;!
1B!
1C!
1@!
1A!
1>!
0?!
0<!
1=!
1N!
0}
0#!
0/!
10!
0,!
1.!
1*!
0+!
1(!
1)!
1&!
0'!
0$!
1%!
16!
0h
0l
0g
0r
1u
0q
0T
0U
1G
0I
0J
0K
0&!
0(!
0*!
1,!
1/!
00!
11!
1$!
0>!
0@!
0B!
0C!
0D!
1<!
0L
0H
0M
0V
1S
0W
05
04
0+
0*
0)
1'
0-
0,
0(
07
06
13
1D!
01!
#78000
0!
0A
0{
0d
0|
#79000
1!
1A
1{
1d
1|
0Z!
0d!
1l!
1r!
1:!
1;!
1}
1#!
1g
1q
0$!
0<!
1M
1W
1-
17
#80000
0!
0A
0{
0d
0|
#81000
1!
1A
1{
1d
1|
0Y!
1Z!
0c!
1d!
0l!
1k!
0r!
1q!
0:!
0;!
1<!
0=!
0}
0#!
1$!
0%!
1h
0g
1r
0q
1&!
0$!
1%!
1>!
0<!
1=!
1L
0M
1V
0W
0-
1,
07
16
0>!
0&!
#82000
0!
0A
0{
0d
0|
#83000
1!
1A
1{
1d
1|
0Z!
0d!
1l!
1r!
1:!
1;!
0N!
1}
1#!
06!
1g
1q
1$!
0%!
1<!
0=!
1M
1W
1-
17
1>!
1&!
#84000
0!
0A
0{
0d
0|
#85000
1!
1A
1{
1d
1|
1Y!
1X!
1Z!
1c!
1b!
1d!
0l!
0k!
0r!
0q!
1s
1i
0:!
0;!
0>!
1?!
0<!
1=!
0}
0#!
0&!
1'!
0$!
1%!
0h
0g
0r
0q
1U
1K
1&!
0'!
1(!
1$!
1>!
0?!
1@!
1<!
0L
0M
0V
0W
15
1+
0-
0,
07
06
0@!
0(!
#86000
0!
0A
0{
0d
0|
#87000
1!
1A
1{
1d
1|
0Z!
0d!
1l!
1r!
1:!
1;!
1}
1#!
1g
1q
0$!
0<!
1M
1W
1-
17
#88000
0!
0A
0{
0d
0|
#89000
1!
1A
1{
1d
1|
0Y!
1Z!
0c!
1d!
0l!
1k!
0r!
1q!
0:!
0;!
1<!
0=!
0}
0#!
1$!
0%!
1h
0g
1r
0q
0&!
1'!
0$!
1%!
0>!
1?!
0<!
1=!
1L
0M
1V
0W
0-
1,
07
16
1>!
0?!
1@!
1&!
0'!
1(!
0(!
0@!
#90000
0!
0A
0{
0d
0|
#91000
1!
1A
1{
1d
1|
0Z!
0d!
1l!
1r!
1:!
1;!
1}
1#!
1g
1q
1$!
0%!
1<!
0=!
1M
1W
1-
17
0>!
1?!
0&!
1'!
1(!
1@!
#92000
0!
0A
0{
0d
0|
#93000
1!
1A
1{
1d
1|
1Y!
0X!
1W!
1Z!
1c!
0b!
1a!
1d!
0l!
0k!
0r!
0q!
1t
0s
1j
0i
0:!
0;!
0@!
0A!
1>!
0?!
0<!
1=!
1N!
0}
0#!
0(!
0)!
1&!
0'!
0$!
1%!
16!
0h
0g
0r
0q
1T
0U
1J
0K
0&!
1(!
1)!
1*!
1$!
0>!
1@!
1A!
1B!
1C!
1<!
0L
0M
0V
0W
05
14
0+
1*
0-
0,
07
06
0D!
0B!
0C!
0*!
1D!
#94000
0!
0A
0{
0d
0|
#95000
1!
1A
1{
1d
1|
0Z!
0d!
1l!
1r!
1:!
1;!
1}
1#!
1g
1q
0$!
0<!
1M
1W
1-
17
#96000
0!
0A
0{
0d
0|
#97000
1!
1A
1{
1d
1|
0Y!
1Z!
0c!
1d!
0l!
1k!
0r!
1q!
0:!
0;!
1<!
0=!
0}
0#!
1$!
0%!
1h
0g
1r
0q
1&!
0$!
1%!
1>!
0<!
1=!
1L
0M
1V
0W
0-
1,
07
16
0>!
0&!
#98000
0!
0A
0{
0d
0|
#99000
1!
1A
1{
1d
1|
0Z!
0d!
1l!
1r!
1:!
1;!
0N!
1}
1#!
06!
1g
1q
1$!
0%!
1<!
0=!
1M
1W
1-
17
1>!
1&!
#100000
0!
0A
0{
0d
0|
#101000
1!
1A
1{
1d
1|
1Y!
1X!
1Z!
1c!
1b!
1d!
0l!
0k!
0r!
0q!
1s
1i
0:!
0;!
0>!
1?!
0<!
1=!
0}
0#!
0&!
1'!
0$!
1%!
0h
0g
0r
0q
1U
1K
1&!
0'!
0(!
0)!
1$!
1>!
0?!
0@!
0A!
1<!
0L
0M
0V
0W
15
1+
0-
0,
07
06
1B!
1C!
1@!
1A!
1*!
1(!
1)!
0*!
0B!
0C!
0D!
1D!
#102000
0!
0A
0{
0d
0|
#103000
1!
1A
1{
1d
1|
0Z!
0d!
1l!
1r!
1:!
1;!
1}
1#!
1g
1q
0$!
0<!
1M
1W
1-
17
#104000
0!
0A
0{
0d
0|
#105000
1!
1A
1{
1d
1|
0Y!
1Z!
0c!
1d!
0l!
1k!
0r!
1q!
0:!
0;!
1<!
0=!
0}
0#!
1$!
0%!
1h
0g
1r
0q
0&!
1'!
0$!
1%!
0>!
1?!
0<!
1=!
1L
0M
1V
0W
0-
1,
07
16
1>!
0?!
0@!
0A!
1&!
0'!
0(!
0)!
1*!
1(!
1)!
1B!
1C!
1@!
1A!
0B!
0C!
0D!
0*!
1D!
#106000
0!
0A
0{
0d
0|
#107000
1!
1A
1{
1d
1|
0Z!
0d!
1l!
1r!
1:!
1;!
1}
1#!
1g
1q
1$!
0%!
1<!
0=!
1M
1W
1-
17
0>!
1?!
0&!
1'!
0(!
0)!
0@!
0A!
1B!
1C!
1*!
0D!
#108000
0!
0A
0{
0d
0|
#109000
1!
1A
1{
1d
1|
1Y!
0X!
0W!
1V!
1Z!
1c!
0b!
0a!
1`!
0_!
1d!
0l!
1g!
0h!
0k!
0r!
0q!
0t
0s
1k
0j
0i
0:!
0;!
1D!
0E!
0B!
0C!
1@!
1A!
1>!
0?!
0<!
1=!
1N!
0}
0#!
0*!
1+!
1(!
1)!
1&!
0'!
0$!
1%!
16!
0h
0g
0r
0u
1v
0q
0T
0U
1I
0J
0K
0&!
0(!
1*!
0+!
0,!
1$!
0>!
0@!
1B!
0D!
1E!
0F!
1<!
0L
0M
0V
0S
1R
0W
05
04
0+
0*
1)
0-
0,
07
06
03
12
1F!
1,!
#110000
0!
0A
0{
0d
0|
#111000
1!
1A
1{
1d
1|
0Z!
0d!
1l!
1r!
1:!
1;!
1}
1#!
1g
1q
0$!
0<!
1M
1W
1-
17
#112000
0!
0A
0{
0d
0|
#113000
1!
1A
1{
1d
1|
0Y!
1Z!
0c!
1d!
0l!
1k!
0r!
1q!
0:!
0;!
1<!
0=!
0}
0#!
1$!
0%!
1h
0g
1r
0q
1&!
0$!
1%!
1>!
0<!
1=!
1L
0M
1V
0W
0-
1,
07
16
0>!
0&!
#114000
0!
0A
0{
0d
0|
#115000
1!
1A
1{
1d
1|
0Z!
0d!
1l!
1r!
1:!
1;!
0N!
1}
1#!
06!
1g
1q
1$!
0%!
1<!
0=!
1M
1W
1-
17
1>!
1&!
#116000
0!
0A
0{
0d
0|
#117000
1!
1A
1{
1d
1|
1Y!
1X!
1Z!
1c!
1b!
1d!
0l!
0k!
0r!
0q!
1s
1i
0:!
0;!
0>!
1?!
0<!
1=!
0}
0#!
0&!
1'!
0$!
1%!
0h
0g
0r
0q
1U
1K
1&!
0'!
1(!
1$!
1>!
0?!
1@!
1<!
0L
0M
0V
0W
15
1+
0-
0,
07
06
0@!
0(!
#118000
0!
0A
0{
0d
0|
#119000
1!
1A
1{
1d
1|
0Z!
0d!
1l!
1r!
1:!
1;!
1}
1#!
1g
1q
0$!
0<!
1M
1W
1-
17
#120000
0!
0A
0{
0d
0|
#121000
1!
1A
1{
1d
1|
0Y!
1Z!
0c!
1d!
0l!
1k!
0r!
1q!
0:!
0;!
1<!
0=!
0}
0#!
1$!
0%!
1h
0g
1r
0q
0&!
1'!
0$!
1%!
0>!
1?!
0<!
1=!
1L
0M
1V
0W
0-
1,
07
16
1>!
0?!
1@!
1&!
0'!
1(!
0(!
0@!
#122000
0!
0A
0{
0d
0|
#123000
1!
1A
1{
1d
1|
0Z!
0d!
1l!
1r!
1:!
1;!
1}
1#!
1g
1q
1$!
0%!
1<!
0=!
1M
1W
1-
17
0>!
1?!
0&!
1'!
1(!
1@!
#124000
0!
0A
0{
0d
0|
#125000
1!
1A
1{
1d
1|
1Y!
0X!
1W!
1Z!
1c!
0b!
1a!
1d!
0l!
0k!
0r!
0q!
1t
0s
1j
0i
0:!
0;!
0@!
0A!
1>!
0?!
0<!
1=!
1N!
0}
0#!
0(!
0)!
1&!
0'!
0$!
1%!
16!
0h
0g
0r
0q
1T
0U
1J
0K
0&!
1(!
1)!
0*!
1+!
1$!
0>!
1@!
1A!
0B!
1<!
0L
0M
0V
0W
05
14
0+
1*
0-
0,
07
06
1B!
0,!
1*!
0+!
1,!
#126000
0!
0A
0{
0d
0|
