SUM_BCD/simulation/qsim/SUM_BCD.msim.vcd
$comment
	File created using the following command:
		vcd file SUM_BCD.msim.vcd -direction
$end
$date
	Thu Feb 22 22:59:11 2024
$end
$version
	ModelSim Version 10.5b
$end
$timescale
	1ps
$end

$scope module sum_bcd_vhd_vec_tst $end
$var wire 1 ! A [3] $end
$var wire 1 " A [2] $end
$var wire 1 # A [1] $end
$var wire 1 $ A [0] $end
$var wire 1 % B [3] $end
$var wire 1 & B [2] $end
$var wire 1 ' B [1] $end
$var wire 1 ( B [0] $end
$var wire 1 ) CIN $end
$var wire 1 * COUT $end
$var wire 1 + S [3] $end
$var wire 1 , S [2] $end
$var wire 1 - S [1] $end
$var wire 1 . S [0] $end

$scope module i1 $end
$var wire 1 / gnd $end
$var wire 1 0 vcc $end
$var wire 1 1 unknown $end
$var wire 1 2 devoe $end
$var wire 1 3 devclrn $end
$var wire 1 4 devpor $end
$var wire 1 5 ww_devoe $end
$var wire 1 6 ww_devclrn $end
$var wire 1 7 ww_devpor $end
$var wire 1 8 ww_A [3] $end
$var wire 1 9 ww_A [2] $end
$var wire 1 : ww_A [1] $end
$var wire 1 ; ww_A [0] $end
$var wire 1 < ww_B [3] $end
$var wire 1 = ww_B [2] $end
$var wire 1 > ww_B [1] $end
$var wire 1 ? ww_B [0] $end
$var wire 1 @ ww_CIN $end
$var wire 1 A ww_S [3] $end
$var wire 1 B ww_S [2] $end
$var wire 1 C ww_S [1] $end
$var wire 1 D ww_S [0] $end
$var wire 1 E ww_COUT $end
$var wire 1 F \~QUARTUS_CREATED_ADC1~_CHSEL_bus\ [4] $end
$var wire 1 G \~QUARTUS_CREATED_ADC1~_CHSEL_bus\ [3] $end
$var wire 1 H \~QUARTUS_CREATED_ADC1~_CHSEL_bus\ [2] $end
$var wire 1 I \~QUARTUS_CREATED_ADC1~_CHSEL_bus\ [1] $end
$var wire 1 J \~QUARTUS_CREATED_ADC1~_CHSEL_bus\ [0] $end
$var wire 1 K \~QUARTUS_CREATED_GND~I_combout\ $end
$var wire 1 L \~QUARTUS_CREATED_UNVM~~busy\ $end
$var wire 1 M \~QUARTUS_CREATED_ADC1~~eoc\ $end
$var wire 1 N \S[0]~output_o\ $end
$var wire 1 O \S[1]~output_o\ $end
$var wire 1 P \S[2]~output_o\ $end
$var wire 1 Q \S[3]~output_o\ $end
$var wire 1 R \COUT~output_o\ $end
$var wire 1 S \CIN~input_o\ $end
$var wire 1 T \B[0]~input_o\ $end
$var wire 1 U \A[0]~input_o\ $end
$var wire 1 V \I0|I0|HA1|s~0_combout\ $end
$var wire 1 W \B[1]~input_o\ $end
$var wire 1 X \I0|I0|Cout~0_combout\ $end
$var wire 1 Y \A[1]~input_o\ $end
$var wire 1 Z \B[3]~input_o\ $end
$var wire 1 [ \B[2]~input_o\ $end
$var wire 1 \ \I0|I1|Cout~0_combout\ $end
$var wire 1 ] \A[2]~input_o\ $end
$var wire 1 ^ \I0|I2|Cout~0_combout\ $end
$var wire 1 _ \A[3]~input_o\ $end
$var wire 1 ` \I0|I2|HA1|s~0_combout\ $end
$var wire 1 a \S~0_combout\ $end
$var wire 1 b \CS4~0_combout\ $end
$var wire 1 c \I1|s~combout\ $end
$var wire 1 d \I0|I1|HA1|s~combout\ $end
$var wire 1 e \I2|HA1|s~0_combout\ $end
$var wire 1 f \S~1_combout\ $end
$upscope $end
$upscope $end
$enddefinitions $end
#0
$dumpvars
0)
1*
0/
10
x1
12
13
14
15
16
17
0@
1E
0K
zL
zM
0N
0O
0P
0Q
1R
0S
1T
1U
0V
1W
1X
1Y
1Z
1[
1\
0]
1^
1_
1`
1a
1b
0c
1d
0e
0f
1!
0"
1#
1$
1%
1&
1'
1(
18
09
1:
1;
1<
1=
1>
1?
0A
0B
0C
0D
0F
0G
0H
0I
0J
0+
0,
0-
0.
$end
#50000
1"
0$
0%
0&
0'
0;
19
0>
0=
0<
0Z
0[
0W
1]
0U
1V
0X
0a
1c
0d
1f
1Q
1O
1N
1e
0f
0\
1a
0c
1d
1A
1C
1D
0O
0Q
1P
1f
0^
1.
1-
1+
0C
0A
1B
1Q
0f
0-
1,
0+
1A
0Q
1+
0A
0+
#100000
1$
1&
1'
0#
1;
0:
1>
1=
1[
1W
0Y
1U
0V
1X
1^
0`
0N
0e
1f
1\
1c
0d
0D
1O
1Q
0P
0.
1C
1A
0B
1-
0,
1+
#150000
0$
0"
0!
0(
0;
09
08
0?
0T
0_
0]
0U
1`
0f
0X
0Q
0\
0c
1d
1e
0A
1P
0O
0^
0+
1B
0C
0b
0-
1,
0R
1c
0E
1O
0*
1C
1-
#200000
1"
1(
0&
0'
1#
1%
1:
19
1?
0>
0=
1<
1Z
0[
0W
1T
1]
1Y
1V
1b
1R
1N
0c
1E
1D
0O
1*
1.
0C
0-
#250000
0"
1&
0#
1!
0:
09
18
1=
1[
1_
0]
0Y
1c
0d
1f
1Q
1O
0e
1A
1C
0P
1-
1+
0B
0,
#300000
0&
1'
0%
1>
0=
0<
0Z
0[
1W
0c
1d
0`
0f
0Q
0O
0A
0C
0-
0+
#350000
1&
0'
1%
1"
1#
0(
0?
0>
1=
1<
1:
19
1]
1Y
1Z
1[
0W
0T
0V
1f
1^
1Q
0N
0f
1A
0D
0Q
0.
1+
0A
0+
#400000
0%
0"
0!
0<
09
08
0_
0]
0Z
0^
1`
1e
0b
0R
1P
1c
0E
1B
1O
0*
1,
1C
1-
#450000
1%
1'
1>
1<
1Z
1W
1\
0a
0c
0d
1b
1R
0O
1c
0b
1f
1^
1E
0C
1Q
0R
1O
1b
0f
0c
0e
1*
0-
1A
0E
1C
0P
0O
0Q
1R
1c
1e
1-
1+
0*
0B
0C
0A
1E
1P
1O
0-
0,
0+
1*
1B
1C
1-
1,
#500000
0%
1"
0&
0#
1(
1?
0=
0<
0:
19
1]
0Y
0Z
0[
1T
1V
0b
1f
0\
1a
0c
1d
0O
1Q
0R
1N
1b
0f
0^
1c
0C
1A
0E
1D
1O
0Q
1R
0b
0c
1.
0-
1+
0*
1C
0A
1E
0O
0R
1c
1-
0+
1*
0C
0E
1O
0-
0*
1C
1-
#550000
1%
0"
0(
1$
0?
1<
1;
09
0]
1U
1Z
0T
1b
0`
1R
0c
0e
1E
0P
0O
1*
0B
0C
0-
0,
#600000
1"
1(
1#
0'
1:
19
1?
0>
0W
1T
1]
1Y
1`
0V
1X
0N
1\
1c
0d
0a
1e
0D
1P
1O
0b
1f
1^
0.
1B
1C
1Q
0R
1b
0f
0c
0e
1-
1,
1A
0E
0P
0O
0Q
1R
1c
1e
1+
0*
0B
0C
0A
1E
1P
1O
0-
0,
0+
1*
1B
1C
1-
1,
#650000
0"
1'
0$
1!
0;
09
18
1>
1W
1_
0]
0U
1V
0X
0^
0`
1f
1a
0c
1d
0O
1Q
1N
1c
0d
0C
1A
1D
1O
0e
1.
0-
1+
1C
0P
1-
0B
0,
#700000
0!
0#
0%
1&
0:
08
1=
0<
0Z
1[
0_
0Y
0\
0c
1d
1^
1`
0b
0f
0Q
0R
0O
1c
1b
0^
1e
0A
0E
0C
1P
1R
1O
0b
0c
0-
0+
0*
1B
1E
1C
0O
0R
1c
1-
1,
1*
0C
0E
1O
0-
0*
1C
1-
#750000
1#
1%
1$
0(
1;
1:
0?
1<
1Z
0T
1Y
1U
1\
0a
0c
0d
1b
1R
0O
1c
0b
1f
1^
1E
0C
1Q
0R
1O
1b
0f
0c
0e
1*
0-
1A
0E
1C
0P
0O
0Q
1R
1c
1e
1-
1+
0*
0B
0C
0A
1E
1P
1O
0-
0,
0+
1*
1B
1C
1-
1,
#800000
0#
0$
0&
0'
0;
0:
0>
0=
0[
0W
0Y
0U
0V
0\
1a
0^
0`
0N
0a
0D
0b
1f
0.
1Q
0R
0c
0e
1A
0E
0P
0O
1+
0*
0B
0C
0-
0,
#850000
1$
0%
1(
1;
1?
0<
0Z
1T
1U
1X
0f
0Q
1a
1c
1d
0A
1O
0+
1C
1-
#900000
0$
0(
1'
1!
0;
18
0?
1>
1W
0T
1_
0U
1b
0X
1\
0c
0d
0O
1R
0\
1d
0C
1E
0-
1*
#950000
1$
1(
0!
1#
1"
1;
1:
19
08
1?
1T
0_
1]
1Y
1U
1\
1c
0d
1`
0b
1X
0R
1O
1d
1^
0E
1C
1b
0*
1-
1R
0c
1E
0O
1*
0C
0-
