CONTADOR5BITS/simulation/qsim/CONTADOR5BITS.msim.vcd
$comment
	File created using the following command:
		vcd file CONTADOR5BITS.msim.vcd -direction
$end
$date
	Thu Feb 29 22:51:29 2024
$end
$version
	ModelSim Version 10.5b
$end
$timescale
	1ps
$end

$scope module contador5bits_vhd_vec_tst $end
$var wire 1 ! CLK $end
$var wire 1 " ENA $end
$var wire 1 # RST $end
$var wire 1 $ S [4] $end
$var wire 1 % S [3] $end
$var wire 1 & S [2] $end
$var wire 1 ' S [1] $end
$var wire 1 ( S [0] $end

$scope module i1 $end
$var wire 1 ) gnd $end
$var wire 1 * vcc $end
$var wire 1 + unknown $end
$var wire 1 , devoe $end
$var wire 1 - devclrn $end
$var wire 1 . devpor $end
$var wire 1 / ww_devoe $end
$var wire 1 0 ww_devclrn $end
$var wire 1 1 ww_devpor $end
$var wire 1 2 ww_ENA $end
$var wire 1 3 ww_CLK $end
$var wire 1 4 ww_RST $end
$var wire 1 5 ww_S [4] $end
$var wire 1 6 ww_S [3] $end
$var wire 1 7 ww_S [2] $end
$var wire 1 8 ww_S [1] $end
$var wire 1 9 ww_S [0] $end
$var wire 1 : \~QUARTUS_CREATED_ADC1~_CHSEL_bus\ [4] $end
$var wire 1 ; \~QUARTUS_CREATED_ADC1~_CHSEL_bus\ [3] $end
$var wire 1 < \~QUARTUS_CREATED_ADC1~_CHSEL_bus\ [2] $end
$var wire 1 = \~QUARTUS_CREATED_ADC1~_CHSEL_bus\ [1] $end
$var wire 1 > \~QUARTUS_CREATED_ADC1~_CHSEL_bus\ [0] $end
$var wire 1 ? \RST~inputclkctrl_INCLK_bus\ [3] $end
$var wire 1 @ \RST~inputclkctrl_INCLK_bus\ [2] $end
$var wire 1 A \RST~inputclkctrl_INCLK_bus\ [1] $end
$var wire 1 B \RST~inputclkctrl_INCLK_bus\ [0] $end
$var wire 1 C \CLK~inputclkctrl_INCLK_bus\ [3] $end
$var wire 1 D \CLK~inputclkctrl_INCLK_bus\ [2] $end
$var wire 1 E \CLK~inputclkctrl_INCLK_bus\ [1] $end
$var wire 1 F \CLK~inputclkctrl_INCLK_bus\ [0] $end
$var wire 1 G \~QUARTUS_CREATED_GND~I_combout\ $end
$var wire 1 H \~QUARTUS_CREATED_UNVM~~busy\ $end
$var wire 1 I \~QUARTUS_CREATED_ADC1~~eoc\ $end
$var wire 1 J \S[0]~output_o\ $end
$var wire 1 K \S[1]~output_o\ $end
$var wire 1 L \S[2]~output_o\ $end
$var wire 1 M \S[3]~output_o\ $end
$var wire 1 N \S[4]~output_o\ $end
$var wire 1 O \CLK~input_o\ $end
$var wire 1 P \CLK~inputclkctrl_outclk\ $end
$var wire 1 Q \ENA~input_o\ $end
$var wire 1 R \Q[0]~0_combout\ $end
$var wire 1 S \RST~input_o\ $end
$var wire 1 T \RST~inputclkctrl_outclk\ $end
$var wire 1 U \Q[1]~1_combout\ $end
$var wire 1 V \Q[2]~2_combout\ $end
$var wire 1 W \Q[3]~3_combout\ $end
$var wire 1 X \Q[3]~4_combout\ $end
$var wire 1 Y \Q[4]~5_combout\ $end
$var wire 1 Z Q [4] $end
$var wire 1 [ Q [3] $end
$var wire 1 \ Q [2] $end
$var wire 1 ] Q [1] $end
$var wire 1 ^ Q [0] $end
$upscope $end
$upscope $end
$enddefinitions $end
#0
$dumpvars
0!
0"
1#
0)
1*
x+
1,
1-
1.
1/
10
11
02
03
14
0G
zH
zI
0J
0K
0L
0M
0N
0O
0P
0Q
0R
1S
1T
0U
0V
0W
0X
0Y
0$
0%
0&
0'
0(
05
06
07
08
09
0Z
0[
0\
0]
0^
1C
1D
1E
0F
1?
1@
1A
1B
0:
0;
0<
0=
0>
$end
#5000
1!
13
1O
1F
1P
#10000
0!
1"
03
12
1Q
0O
0F
1R
0P
#15000
1!
13
1O
1F
1P
1^
1J
0R
1U
19
1(
#20000
0!
03
0O
0F
0P
#25000
1!
13
1O
1F
1P
0^
1]
1K
0J
1R
18
09
0(
1'
#30000
0!
0"
03
02
0Q
0O
0F
0R
0P
#35000
1!
13
1O
1F
1P
#40000
0!
03
0O
0F
0P
#45000
1!
13
1O
1F
1P
#50000
0!
03
0O
0F
0P
#55000
1!
13
1O
1F
1P
#60000
0!
03
0O
0F
0P
#65000
1!
13
1O
1F
1P
#70000
0!
03
0O
0F
0P
#75000
1!
13
1O
1F
1P
#80000
0!
1"
03
12
1Q
0O
0F
1R
0P
#85000
1!
13
1O
1F
1P
1^
1J
0R
0U
1V
19
1(
#90000
0!
0"
03
02
0Q
0O
0F
1R
1U
0V
0P
#95000
1!
13
1O
1F
1P
#100000
0!
1"
03
12
1Q
0O
0F
0R
0U
1V
0P
#105000
1!
13
1O
1F
1P
0^
0]
1\
1L
0K
0J
1R
17
08
09
0(
0'
1&
#110000
0!
0"
03
02
0Q
0O
0F
0R
0P
#115000
1!
13
1O
1F
1P
#120000
0!
1"
03
12
1Q
0O
0F
1R
0P
#125000
1!
13
1O
1F
1P
1^
1J
0R
1U
19
1(
#130000
0!
03
0O
0F
0P
#135000
1!
13
1O
1F
1P
0^
1]
1K
0J
1R
18
09
0(
1'
#140000
0!
03
0O
0F
0P
#145000
1!
13
1O
1F
1P
1^
1J
0R
0U
0V
1W
19
1X
1(
#150000
0!
0"
03
02
0Q
0O
0F
1R
1U
1V
0W
0X
0P
#155000
1!
13
1O
1F
1P
#160000
0!
1"
03
12
1Q
0O
0F
0R
0U
0V
1W
1X
0P
#165000
1!
13
1O
1F
1P
0^
0]
0\
1[
1M
0L
0K
0J
0X
1Y
1R
0W
16
07
08
09
1X
0Y
0(
0'
0&
1%
#170000
0!
0"
03
02
0Q
0O
0F
0R
0P
#175000
1!
13
1O
1F
1P
#180000
0!
1"
03
12
1Q
0O
0F
1R
0P
#185000
1!
13
1O
1F
1P
1^
1J
0R
1U
19
1(
#190000
0!
03
0O
0F
0P
#195000
1!
13
1O
1F
1P
0^
1]
1K
0J
1R
18
09
0(
1'
#200000
0!
0"
03
02
0Q
0O
0F
0R
0P
#205000
1!
13
1O
1F
1P
#210000
0!
03
0O
0F
0P
#215000
1!
13
1O
1F
1P
#220000
0!
1"
03
12
1Q
0O
0F
1R
0P
#225000
1!
13
1O
1F
1P
1^
1J
0R
0U
1V
19
1(
#230000
0!
03
0O
0F
0P
#235000
1!
13
1O
1F
1P
0^
0]
1\
1L
0K
0J
1R
17
08
09
0(
0'
1&
#240000
0!
03
0O
0F
0P
#245000
1!
13
1O
1F
1P
1^
1J
0R
1U
19
1(
#250000
0!
0"
03
02
0Q
0O
0F
1R
0U
0P
#255000
1!
13
1O
1F
1P
#260000
0!
03
0O
0F
0P
#265000
1!
13
1O
1F
1P
#270000
0!
03
0O
0F
0P
#275000
1!
13
1O
1F
1P
#280000
0!
03
0O
0F
0P
#285000
1!
13
1O
1F
1P
#290000
0!
1"
03
12
1Q
0O
0F
0R
1U
0P
#295000
1!
13
1O
1F
1P
0^
1]
1K
0J
1R
18
09
0(
1'
#300000
0!
03
0O
0F
0P
#305000
1!
13
1O
1F
1P
1^
1J
0R
0U
0V
1W
19
0X
1Y
1(
#310000
0!
0"
03
02
0Q
0O
0F
1R
1U
1V
0W
1X
0Y
0P
#315000
1!
13
1O
1F
1P
#320000
0!
03
0O
0F
0P
#325000
1!
13
1O
1F
1P
#330000
0!
1"
03
12
1Q
0O
0F
0R
0U
0V
1W
0X
1Y
0P
#335000
1!
13
1O
1F
1P
0^
0]
0\
0[
1Z
1N
0M
0L
0K
0J
1X
1R
0W
15
06
07
08
09
0X
0(
0'
0&
0%
1$
#340000
0!
0"
03
02
0Q
0O
0F
0R
0P
#345000
1!
13
1O
1F
1P
#350000
0!
1"
03
12
1Q
0O
0F
1R
0P
#355000
1!
13
1O
1F
1P
1^
1J
0R
1U
19
1(
#360000
0!
0"
03
02
0Q
0O
0F
1R
0U
0P
#365000
1!
13
1O
1F
1P
#370000
0!
03
0O
0F
0P
#375000
1!
13
1O
1F
1P
#380000
0!
03
0O
0F
0P
#385000
1!
13
1O
1F
1P
#390000
0!
1"
03
12
1Q
0O
0F
0R
1U
0P
#395000
1!
13
1O
1F
1P
0^
1]
1K
0J
1R
18
09
0(
1'
#400000
0!
0"
03
02
0Q
0O
0F
0R
0P
#405000
1!
13
1O
1F
1P
#410000
0!
1"
03
12
1Q
0O
0F
1R
0P
#415000
1!
13
1O
1F
1P
1^
1J
0R
0U
1V
19
1(
#420000
0!
03
0O
0F
0P
#425000
1!
13
1O
1F
1P
0^
0]
1\
1L
0K
0J
1R
17
08
09
0(
0'
1&
#430000
0!
03
0O
0F
0P
#435000
1!
13
1O
1F
1P
1^
1J
0R
1U
19
1(
#440000
0!
0"
03
02
0Q
0O
0F
1R
0U
0P
#445000
1!
13
1O
1F
1P
#450000
0!
03
0O
0F
0P
#455000
1!
13
1O
1F
1P
#460000
0!
1"
03
12
1Q
0O
0F
0R
1U
0P
#465000
1!
13
1O
1F
1P
0^
1]
1K
0J
1R
18
09
0(
1'
#470000
0!
0"
03
02
0Q
0O
0F
0R
0P
#475000
1!
13
1O
1F
1P
#480000
0!
1"
03
12
1Q
0O
0F
1R
0P
#485000
1!
13
1O
1F
1P
1^
1J
0R
0U
0V
1W
19
1X
1(
#490000
0!
03
0O
0F
0P
#495000
1!
13
1O
1F
1P
0^
0]
0\
1[
1M
0L
0K
0J
0X
0Y
1R
0W
16
07
08
09
1X
1Y
0(
0'
0&
1%
#500000
0!
03
0O
0F
0P
#505000
1!
13
1O
1F
1P
1^
1J
0R
1U
19
1(
#510000
0!
03
0O
0F
0P
#515000
1!
13
1O
1F
1P
0^
1]
1K
0J
1R
18
09
0(
1'
#520000
0!
0"
03
02
0Q
0O
0F
0R
0P
#525000
1!
13
1O
1F
1P
#530000
0!
1"
03
12
1Q
0O
0F
1R
0P
#535000
1!
13
1O
1F
1P
1^
1J
0R
0U
1V
19
1(
#540000
0!
03
0O
0F
0P
#545000
1!
13
1O
1F
1P
0^
0]
1\
1L
0K
0J
1R
17
08
09
0(
0'
1&
#550000
0!
0"
03
02
0Q
0O
0F
0R
0P
#555000
1!
13
1O
1F
1P
#560000
0!
03
0O
0F
0P
#565000
1!
13
1O
1F
1P
#570000
0!
1"
03
12
1Q
0O
0F
1R
0P
#575000
1!
13
1O
1F
1P
1^
1J
0R
1U
19
1(
#580000
0!
03
0O
0F
0P
#585000
1!
13
1O
1F
1P
0^
1]
1K
0J
1R
18
09
0(
1'
#590000
0!
03
0O
0F
0P
#595000
1!
13
1O
1F
1P
1^
1J
0R
0U
0V
1W
19
0X
0Y
1(
#600000
0!
03
0O
0F
0P
#605000
1!
13
1O
1F
1P
0^
0]
0\
0[
0Z
0N
0M
0L
0K
0J
1X
1R
0W
05
06
07
08
09
0X
0(
0'
0&
0%
0$
#610000
0!
03
0O
0F
0P
#615000
1!
13
1O
1F
1P
1^
1J
0R
1U
19
1(
#620000
0!
03
0O
0F
0P
#625000
1!
13
1O
1F
1P
0^
1]
1K
0J
1R
18
09
0(
1'
#630000
0!
0"
03
02
0Q
0O
0F
0R
0P
#635000
1!
13
1O
1F
1P
#640000
0!
1"
03
12
1Q
0O
0F
1R
0P
#645000
1!
13
1O
1F
1P
1^
1J
0R
0U
1V
19
1(
#650000
0!
03
0O
0F
0P
#655000
1!
13
1O
1F
1P
0^
0]
1\
1L
0K
0J
1R
17
08
09
0(
0'
1&
#660000
0!
0"
03
02
0Q
0O
0F
0R
0P
#665000
1!
13
1O
1F
1P
#670000
0!
03
0O
0F
0P
#675000
1!
13
1O
1F
1P
#680000
0!
1"
03
12
1Q
0O
0F
1R
0P
#685000
1!
13
1O
1F
1P
1^
1J
0R
1U
19
1(
#690000
0!
03
0O
0F
0P
#695000
1!
13
1O
1F
1P
0^
1]
1K
0J
1R
18
09
0(
1'
#700000
0!
03
0O
0F
0P
#705000
1!
13
1O
1F
1P
1^
1J
0R
0U
0V
1W
19
1X
1(
#710000
0!
03
0O
0F
0P
#715000
1!
13
1O
1F
1P
0^
0]
0\
1[
1M
0L
0K
0J
0X
1Y
1R
0W
16
07
08
09
1X
0Y
0(
0'
0&
1%
#720000
0!
0"
03
02
0Q
0O
0F
0R
0P
#725000
1!
13
1O
1F
1P
#730000
0!
03
0O
0F
0P
#735000
1!
13
1O
1F
1P
#740000
0!
1"
03
12
1Q
0O
0F
1R
0P
#745000
1!
13
1O
1F
1P
1^
1J
0R
1U
19
1(
#750000
0!
03
0O
0F
0P
#755000
1!
13
1O
1F
1P
0^
1]
1K
0J
1R
18
09
0(
1'
#760000
0!
03
0O
0F
0P
#765000
1!
13
1O
1F
1P
1^
1J
0R
0U
1V
19
1(
#770000
0!
03
0O
0F
0P
#775000
1!
13
1O
1F
1P
0^
0]
1\
1L
0K
0J
1R
17
08
09
0(
0'
1&
#780000
0!
03
0O
0F
0P
#785000
1!
13
1O
1F
1P
1^
1J
0R
1U
19
1(
#790000
0!
0"
03
02
0Q
0O
0F
1R
0U
0P
#795000
1!
13
1O
1F
1P
#800000
0!
03
0O
0F
0P
#805000
1!
13
1O
1F
1P
#810000
0!
03
0O
0F
0P
#815000
1!
13
1O
1F
1P
#820000
0!
03
0O
0F
0P
#825000
1!
13
1O
1F
1P
#830000
0!
1"
03
12
1Q
0O
0F
0R
1U
0P
#835000
1!
13
1O
1F
1P
0^
1]
1K
0J
1R
18
09
0(
1'
#840000
0!
0"
03
02
0Q
0O
0F
0R
0P
#845000
1!
13
1O
1F
1P
#850000
0!
1"
03
12
1Q
0O
0F
1R
0P
#855000
1!
13
1O
1F
1P
1^
1J
0R
0U
0V
1W
19
0X
1Y
1(
#860000
0!
03
0O
0F
0P
#865000
1!
13
1O
1F
1P
0^
0]
0\
0[
1Z
1N
0M
0L
0K
0J
1X
1R
0W
15
06
07
08
09
0X
0(
0'
0&
0%
1$
#870000
0!
0"
03
02
0Q
0O
0F
0R
0P
#875000
1!
13
1O
1F
1P
#880000
0!
03
0O
0F
0P
#885000
1!
13
1O
1F
1P
#890000
0!
1"
03
12
1Q
0O
0F
1R
0P
#895000
1!
13
1O
1F
1P
1^
1J
0R
1U
19
1(
#900000
0!
03
0O
0F
0P
#905000
1!
13
1O
1F
1P
0^
1]
1K
0J
1R
18
09
0(
1'
#910000
0!
03
0O
0F
0P
#915000
1!
13
1O
1F
1P
1^
1J
0R
0U
1V
19
1(
#920000
0!
03
0O
0F
0P
#925000
1!
13
1O
1F
1P
0^
0]
1\
1L
0K
0J
1R
17
08
09
0(
0'
1&
#930000
0!
03
0O
0F
0P
#935000
1!
13
1O
1F
1P
1^
1J
0R
1U
19
1(
#940000
0!
0"
03
02
0Q
0O
0F
1R
0U
0P
#945000
1!
13
1O
1F
1P
#950000
0!
1"
03
12
1Q
0O
0F
0R
1U
0P
#955000
1!
13
1O
1F
1P
0^
1]
1K
0J
1R
18
09
0(
1'
#960000
0!
03
0O
0F
0P
#965000
1!
13
1O
1F
1P
1^
1J
0R
0U
0V
1W
19
1X
1(
#970000
0!
03
0O
0F
0P
#975000
1!
13
1O
1F
1P
0^
0]
0\
1[
1M
0L
0K
0J
0X
0Y
1R
0W
16
07
08
09
1X
1Y
0(
0'
0&
1%
#980000
0!
03
0O
0F
0P
#985000
1!
13
1O
1F
1P
1^
1J
0R
1U
19
1(
#990000
0!
0"
03
02
0Q
0O
0F
1R
0U
0P
#995000
1!
13
1O
1F
1P
