MUX_HORA/simulation/qsim/MUX_HORA.msim.vcd
$comment
	File created using the following command:
		vcd file MUX_HORA.msim.vcd -direction
$end
$date
	Thu Feb 29 23:36:19 2024
$end
$version
	ModelSim Version 10.5b
$end
$timescale
	1ps
$end

$scope module mux_hora_vhd_vec_tst $end
$var wire 1 ! CASO [2] $end
$var wire 1 " CASO [1] $end
$var wire 1 # CASO [0] $end
$var wire 1 $ T0 [4] $end
$var wire 1 % T0 [3] $end
$var wire 1 & T0 [2] $end
$var wire 1 ' T0 [1] $end
$var wire 1 ( T0 [0] $end
$var wire 1 ) T1 [4] $end
$var wire 1 * T1 [3] $end
$var wire 1 + T1 [2] $end
$var wire 1 , T1 [1] $end
$var wire 1 - T1 [0] $end
$var wire 1 . T2 [4] $end
$var wire 1 / T2 [3] $end
$var wire 1 0 T2 [2] $end
$var wire 1 1 T2 [1] $end
$var wire 1 2 T2 [0] $end
$var wire 1 3 T3 [4] $end
$var wire 1 4 T3 [3] $end
$var wire 1 5 T3 [2] $end
$var wire 1 6 T3 [1] $end
$var wire 1 7 T3 [0] $end
$var wire 1 8 T4 [4] $end
$var wire 1 9 T4 [3] $end
$var wire 1 : T4 [2] $end
$var wire 1 ; T4 [1] $end
$var wire 1 < T4 [0] $end
$var wire 1 = T5 [4] $end
$var wire 1 > T5 [3] $end
$var wire 1 ? T5 [2] $end
$var wire 1 @ T5 [1] $end
$var wire 1 A T5 [0] $end

$scope module i1 $end
$var wire 1 B gnd $end
$var wire 1 C vcc $end
$var wire 1 D unknown $end
$var wire 1 E devoe $end
$var wire 1 F devclrn $end
$var wire 1 G devpor $end
$var wire 1 H ww_devoe $end
$var wire 1 I ww_devclrn $end
$var wire 1 J ww_devpor $end
$var wire 1 K ww_CASO [2] $end
$var wire 1 L ww_CASO [1] $end
$var wire 1 M ww_CASO [0] $end
$var wire 1 N ww_T0 [4] $end
$var wire 1 O ww_T0 [3] $end
$var wire 1 P ww_T0 [2] $end
$var wire 1 Q ww_T0 [1] $end
$var wire 1 R ww_T0 [0] $end
$var wire 1 S ww_T1 [4] $end
$var wire 1 T ww_T1 [3] $end
$var wire 1 U ww_T1 [2] $end
$var wire 1 V ww_T1 [1] $end
$var wire 1 W ww_T1 [0] $end
$var wire 1 X ww_T2 [4] $end
$var wire 1 Y ww_T2 [3] $end
$var wire 1 Z ww_T2 [2] $end
$var wire 1 [ ww_T2 [1] $end
$var wire 1 \ ww_T2 [0] $end
$var wire 1 ] ww_T3 [4] $end
$var wire 1 ^ ww_T3 [3] $end
$var wire 1 _ ww_T3 [2] $end
$var wire 1 ` ww_T3 [1] $end
$var wire 1 a ww_T3 [0] $end
$var wire 1 b ww_T4 [4] $end
$var wire 1 c ww_T4 [3] $end
$var wire 1 d ww_T4 [2] $end
$var wire 1 e ww_T4 [1] $end
$var wire 1 f ww_T4 [0] $end
$var wire 1 g ww_T5 [4] $end
$var wire 1 h ww_T5 [3] $end
$var wire 1 i ww_T5 [2] $end
$var wire 1 j ww_T5 [1] $end
$var wire 1 k ww_T5 [0] $end
$var wire 1 l \~QUARTUS_CREATED_ADC1~_CHSEL_bus\ [4] $end
$var wire 1 m \~QUARTUS_CREATED_ADC1~_CHSEL_bus\ [3] $end
$var wire 1 n \~QUARTUS_CREATED_ADC1~_CHSEL_bus\ [2] $end
$var wire 1 o \~QUARTUS_CREATED_ADC1~_CHSEL_bus\ [1] $end
$var wire 1 p \~QUARTUS_CREATED_ADC1~_CHSEL_bus\ [0] $end
$var wire 1 q \Mux11~0clkctrl_INCLK_bus\ [3] $end
$var wire 1 r \Mux11~0clkctrl_INCLK_bus\ [2] $end
$var wire 1 s \Mux11~0clkctrl_INCLK_bus\ [1] $end
$var wire 1 t \Mux11~0clkctrl_INCLK_bus\ [0] $end
$var wire 1 u \~QUARTUS_CREATED_GND~I_combout\ $end
$var wire 1 v \~QUARTUS_CREATED_UNVM~~busy\ $end
$var wire 1 w \~QUARTUS_CREATED_ADC1~~eoc\ $end
$var wire 1 x \T0[0]~output_o\ $end
$var wire 1 y \T0[1]~output_o\ $end
$var wire 1 z \T0[2]~output_o\ $end
$var wire 1 { \T0[3]~output_o\ $end
$var wire 1 | \T0[4]~output_o\ $end
$var wire 1 } \T1[0]~output_o\ $end
$var wire 1 ~ \T1[1]~output_o\ $end
$var wire 1 !! \T1[2]~output_o\ $end
$var wire 1 "! \T1[3]~output_o\ $end
$var wire 1 #! \T1[4]~output_o\ $end
$var wire 1 $! \T2[0]~output_o\ $end
$var wire 1 %! \T2[1]~output_o\ $end
$var wire 1 &! \T2[2]~output_o\ $end
$var wire 1 '! \T2[3]~output_o\ $end
$var wire 1 (! \T2[4]~output_o\ $end
$var wire 1 )! \T3[0]~output_o\ $end
$var wire 1 *! \T3[1]~output_o\ $end
$var wire 1 +! \T3[2]~output_o\ $end
$var wire 1 ,! \T3[3]~output_o\ $end
$var wire 1 -! \T3[4]~output_o\ $end
$var wire 1 .! \T4[0]~output_o\ $end
$var wire 1 /! \T4[1]~output_o\ $end
$var wire 1 0! \T4[2]~output_o\ $end
$var wire 1 1! \T4[3]~output_o\ $end
$var wire 1 2! \T4[4]~output_o\ $end
$var wire 1 3! \T5[0]~output_o\ $end
$var wire 1 4! \T5[1]~output_o\ $end
$var wire 1 5! \T5[2]~output_o\ $end
$var wire 1 6! \T5[3]~output_o\ $end
$var wire 1 7! \T5[4]~output_o\ $end
$var wire 1 8! \CASO[1]~input_o\ $end
$var wire 1 9! \CASO[0]~input_o\ $end
$var wire 1 :! \Mux7~0_combout\ $end
$var wire 1 ;! \CASO[2]~input_o\ $end
$var wire 1 <! \Mux11~0_combout\ $end
$var wire 1 =! \Mux11~0clkctrl_outclk\ $end
$var wire 1 >! \T0[0]$latch~combout\ $end
$var wire 1 ?! \Mux8~0_combout\ $end
$var wire 1 @! \T0[1]$latch~combout\ $end
$var wire 1 A! \Mux9~0_combout\ $end
$var wire 1 B! \T0[2]$latch~combout\ $end
$var wire 1 C! \T0[3]$latch~combout\ $end
$var wire 1 D! \T1[0]$latch~combout\ $end
$var wire 1 E! \Mux2~0_combout\ $end
$var wire 1 F! \T2[0]$latch~combout\ $end
$var wire 1 G! \T2[1]$latch~combout\ $end
$var wire 1 H! \Mux8~1_combout\ $end
$var wire 1 I! \T2[4]$latch~combout\ $end
$var wire 1 J! \T4[1]$latch~combout\ $end
$var wire 1 K! \T4[2]$latch~combout\ $end
$upscope $end
$upscope $end
$enddefinitions $end
#0
$dumpvars
0B
1C
xD
1E
1F
1G
1H
1I
1J
0u
zv
zw
1x
0y
1z
0{
0|
0}
1~
0!!
1"!
0#!
0$!
0%!
0&!
0'!
1(!
1)!
0*!
1+!
0,!
1-!
0.!
1/!
00!
11!
12!
13!
14!
15!
16!
17!
08!
09!
0:!
0;!
1<!
1=!
1>!
0?!
0@!
0A!
1B!
0C!
0D!
1E!
0F!
0G!
0H!
1I!
1J!
0K!
0!
0"
0#
0$
0%
1&
0'
1(
0)
1*
0+
1,
0-
1.
0/
00
01
02
13
04
15
06
17
18
19
0:
1;
0<
1=
1>
1?
1@
1A
0K
0L
0M
0N
0O
1P
0Q
1R
0S
1T
0U
1V
0W
1X
0Y
0Z
0[
0\
1]
0^
1_
0`
1a
1b
1c
0d
1e
0f
1g
1h
1i
1j
1k
1q
1r
1s
1t
0l
0m
0n
0o
0p
$end
#20000
1#
1M
19!
1A!
0E!
1G!
1%!
1F!
0B!
1C!
1[
1{
1!!
1,!
0z
0)!
0+!
1$!
11
1O
1U
1^
0P
0a
0_
1\
0&
1%
1+
07
05
14
12
#40000
0#
1"
0M
1L
18!
09!
0G!
1:!
1D!
1}
1.!
0%!
0>!
1W
1f
0[
0x
0~
1-
1<
01
0R
0V
0(
0,
#60000
1#
1M
19!
0:!
1?!
0A!
1G!
1H!
1%!
0I!
1B!
0C!
1@!
1>!
1[
1x
1~
1y
1&!
1'!
1*!
0{
0!!
0,!
1z
1)!
1+!
0(!
11
1R
1V
1Q
1Z
1Y
1`
0O
0U
0^
1P
1a
1_
0X
1(
1'
1&
0%
1,
0+
10
1/
0.
17
16
15
04
#80000
0#
0"
1!
0M
0L
1K
1;!
08!
09!
0G!
0D!
0H!
0J!
1K!
10!
0/!
0}
0.!
0%!
1I!
1d
0e
0W
0f
0[
1(!
0<
0;
1:
0-
01
1X
1.
#100000
1#
1M
19!
0<!
1A!
1G!
0t
1%!
0B!
1C!
1[
1{
1!!
1,!
0z
0)!
0+!
11
0=!
1O
1U
1^
0P
0a
0_
0&
1%
1+
07
05
14
#120000
0#
1"
0M
1L
18!
09!
1:!
#140000
1#
1M
19!
0:!
0A!
1H!
#160000
0#
0"
0!
0M
0L
0K
0;!
08!
09!
0H!
1<!
0?!
1E!
1t
1=!
0@!
1B!
0C!
0F!
0G!
1J!
0K!
00!
1/!
0%!
0$!
0{
0!!
0,!
1z
1)!
1+!
0y
0&!
0'!
0*!
0d
1e
0[
0\
0O
0U
0^
1P
1a
1_
0Q
0Z
0Y
0`
1;
0:
02
01
00
0/
0'
1&
0%
0+
17
06
15
04
#180000
1#
1M
19!
1A!
0E!
1G!
1%!
1F!
0B!
1C!
1[
1{
1!!
1,!
0z
0)!
0+!
1$!
11
1O
1U
1^
0P
0a
0_
1\
0&
1%
1+
07
05
14
12
#200000
0#
1"
0M
1L
18!
09!
0G!
1:!
1D!
1}
1.!
0%!
0>!
1W
1f
0[
0x
0~
1-
1<
01
0R
0V
0(
0,
#220000
1#
1M
19!
0:!
1?!
0A!
1G!
1H!
1%!
0I!
1B!
0C!
1@!
1>!
1[
1x
1~
1y
1&!
1'!
1*!
0{
0!!
0,!
1z
1)!
1+!
0(!
11
1R
1V
1Q
1Z
1Y
1`
0O
0U
0^
1P
1a
1_
0X
1(
1'
1&
0%
1,
0+
10
1/
0.
17
16
15
04
#240000
0#
0"
1!
0M
0L
1K
1;!
08!
09!
0G!
0D!
0H!
0J!
1K!
10!
0/!
0}
0.!
0%!
1I!
1d
0e
0W
0f
0[
1(!
0<
0;
1:
0-
01
1X
1.
#260000
1#
1M
19!
0<!
1A!
1G!
0t
1%!
0B!
1C!
1[
1{
1!!
1,!
0z
0)!
0+!
11
0=!
1O
1U
1^
0P
0a
0_
0&
1%
1+
07
05
14
#280000
0#
1"
0M
1L
18!
09!
1:!
#300000
1#
1M
19!
0:!
0A!
1H!
#320000
0#
0"
0!
0M
0L
0K
0;!
08!
09!
0H!
1<!
0?!
1E!
1t
1=!
0@!
1B!
0C!
0F!
0G!
1J!
0K!
00!
1/!
0%!
0$!
0{
0!!
0,!
1z
1)!
1+!
0y
0&!
0'!
0*!
0d
1e
0[
0\
0O
0U
0^
1P
1a
1_
0Q
0Z
0Y
0`
1;
0:
02
01
00
0/
0'
1&
0%
0+
17
06
15
04
#340000
1#
1M
19!
1A!
0E!
1G!
1%!
1F!
0B!
1C!
1[
1{
1!!
1,!
0z
0)!
0+!
1$!
11
1O
1U
1^
0P
0a
0_
1\
0&
1%
1+
07
05
14
12
#360000
0#
1"
0M
1L
18!
09!
0G!
1:!
1D!
1}
1.!
0%!
0>!
1W
1f
0[
0x
0~
1-
1<
01
0R
0V
0(
0,
#380000
1#
1M
19!
0:!
1?!
0A!
1G!
1H!
1%!
0I!
1B!
0C!
1@!
1>!
1[
1x
1~
1y
1&!
1'!
1*!
0{
0!!
0,!
1z
1)!
1+!
0(!
11
1R
1V
1Q
1Z
1Y
1`
0O
0U
0^
1P
1a
1_
0X
1(
1'
1&
0%
1,
0+
10
1/
0.
17
16
15
04
#400000
0#
0"
1!
0M
0L
1K
1;!
08!
09!
0G!
0D!
0H!
0J!
1K!
10!
0/!
0}
0.!
0%!
1I!
1d
0e
0W
0f
0[
1(!
0<
0;
1:
0-
01
1X
1.
#420000
1#
1M
19!
0<!
1A!
1G!
0t
1%!
0B!
1C!
1[
1{
1!!
1,!
0z
0)!
0+!
11
0=!
1O
1U
1^
0P
0a
0_
0&
1%
1+
07
05
14
#440000
0#
1"
0M
1L
18!
09!
1:!
#460000
1#
1M
19!
0:!
0A!
1H!
#480000
0#
0"
0!
0M
0L
0K
0;!
08!
09!
0H!
1<!
0?!
1E!
1t
1=!
0@!
1B!
0C!
0F!
0G!
1J!
0K!
00!
1/!
0%!
0$!
0{
0!!
0,!
1z
1)!
1+!
0y
0&!
0'!
0*!
0d
1e
0[
0\
0O
0U
0^
1P
1a
1_
0Q
0Z
0Y
0`
1;
0:
02
01
00
0/
0'
1&
0%
0+
17
06
15
04
#500000
1#
1M
19!
1A!
0E!
1G!
1%!
1F!
0B!
1C!
1[
1{
1!!
1,!
0z
0)!
0+!
1$!
11
1O
1U
1^
0P
0a
0_
1\
0&
1%
1+
07
05
14
12
#520000
0#
1"
0M
1L
18!
09!
0G!
1:!
1D!
1}
1.!
0%!
0>!
1W
1f
0[
0x
0~
1-
1<
01
0R
0V
0(
0,
#540000
1#
1M
19!
0:!
1?!
0A!
1G!
1H!
1%!
0I!
1B!
0C!
1@!
1>!
1[
1x
1~
1y
1&!
1'!
1*!
0{
0!!
0,!
1z
1)!
1+!
0(!
11
1R
1V
1Q
1Z
1Y
1`
0O
0U
0^
1P
1a
1_
0X
1(
1'
1&
0%
1,
0+
10
1/
0.
17
16
15
04
#560000
0#
0"
1!
0M
0L
1K
1;!
08!
09!
0G!
0D!
0H!
0J!
1K!
10!
0/!
0}
0.!
0%!
1I!
1d
0e
0W
0f
0[
1(!
0<
0;
1:
0-
01
1X
1.
#580000
1#
1M
19!
0<!
1A!
1G!
0t
1%!
0B!
1C!
1[
1{
1!!
1,!
0z
0)!
0+!
11
0=!
1O
1U
1^
0P
0a
0_
0&
1%
1+
07
05
14
#600000
0#
1"
0M
1L
18!
09!
1:!
#620000
1#
1M
19!
0:!
0A!
1H!
#640000
0#
0"
0!
0M
0L
0K
0;!
08!
09!
0H!
1<!
0?!
1E!
1t
1=!
0@!
1B!
0C!
0F!
0G!
1J!
0K!
00!
1/!
0%!
0$!
0{
0!!
0,!
1z
1)!
1+!
0y
0&!
0'!
0*!
0d
1e
0[
0\
0O
0U
0^
1P
1a
1_
0Q
0Z
0Y
0`
1;
0:
02
01
00
0/
0'
1&
0%
0+
17
06
15
04
#660000
1#
1M
19!
1A!
0E!
1G!
1%!
1F!
0B!
1C!
1[
1{
1!!
1,!
0z
0)!
0+!
1$!
11
1O
1U
1^
0P
0a
0_
1\
0&
1%
1+
07
05
14
12
#680000
0#
1"
0M
1L
18!
09!
0G!
1:!
1D!
1}
1.!
0%!
0>!
1W
1f
0[
0x
0~
1-
1<
01
0R
0V
0(
0,
#700000
1#
1M
19!
0:!
1?!
0A!
1G!
1H!
1%!
0I!
1B!
0C!
1@!
1>!
1[
1x
1~
1y
1&!
1'!
1*!
0{
0!!
0,!
1z
1)!
1+!
0(!
11
1R
1V
1Q
1Z
1Y
1`
0O
0U
0^
1P
1a
1_
0X
1(
1'
1&
0%
1,
0+
10
1/
0.
17
16
15
04
#720000
0#
0"
1!
0M
0L
1K
1;!
08!
09!
0G!
0D!
0H!
0J!
1K!
10!
0/!
0}
0.!
0%!
1I!
1d
0e
0W
0f
0[
1(!
0<
0;
1:
0-
01
1X
1.
#740000
1#
1M
19!
0<!
1A!
1G!
0t
1%!
0B!
1C!
1[
1{
1!!
1,!
0z
0)!
0+!
11
0=!
1O
1U
1^
0P
0a
0_
0&
1%
1+
07
05
14
#760000
0#
1"
0M
1L
18!
09!
1:!
#780000
1#
1M
19!
0:!
0A!
1H!
#800000
0#
0"
0!
0M
0L
0K
0;!
08!
09!
0H!
1<!
0?!
1E!
1t
1=!
0@!
1B!
0C!
0F!
0G!
1J!
0K!
00!
1/!
0%!
0$!
0{
0!!
0,!
1z
1)!
1+!
0y
0&!
0'!
0*!
0d
1e
0[
0\
0O
0U
0^
1P
1a
1_
0Q
0Z
0Y
0`
1;
0:
02
01
00
0/
0'
1&
0%
0+
17
06
15
04
#820000
1#
1M
19!
1A!
0E!
1G!
1%!
1F!
0B!
1C!
1[
1{
1!!
1,!
0z
0)!
0+!
1$!
11
1O
1U
1^
0P
0a
0_
1\
0&
1%
1+
07
05
14
12
#840000
0#
1"
0M
1L
18!
09!
0G!
1:!
1D!
1}
1.!
0%!
0>!
1W
1f
0[
0x
0~
1-
1<
01
0R
0V
0(
0,
#860000
1#
1M
19!
0:!
1?!
0A!
1G!
1H!
1%!
0I!
1B!
0C!
1@!
1>!
1[
1x
1~
1y
1&!
1'!
1*!
0{
0!!
0,!
1z
1)!
1+!
0(!
11
1R
1V
1Q
1Z
1Y
1`
0O
0U
0^
1P
1a
1_
0X
1(
1'
1&
0%
1,
0+
10
1/
0.
17
16
15
04
#880000
0#
0"
1!
0M
0L
1K
1;!
08!
09!
0G!
0D!
0H!
0J!
1K!
10!
0/!
0}
0.!
0%!
1I!
1d
0e
0W
0f
0[
1(!
0<
0;
1:
0-
01
1X
1.
#900000
1#
1M
19!
0<!
1A!
1G!
0t
1%!
0B!
1C!
1[
1{
1!!
1,!
0z
0)!
0+!
11
0=!
1O
1U
1^
0P
0a
0_
0&
1%
1+
07
05
14
#920000
0#
1"
0M
1L
18!
09!
1:!
#940000
1#
1M
19!
0:!
0A!
1H!
#960000
0#
0"
0!
0M
0L
0K
0;!
08!
09!
0H!
1<!
0?!
1E!
1t
1=!
0@!
1B!
0C!
0F!
0G!
1J!
0K!
00!
1/!
0%!
0$!
0{
0!!
0,!
1z
1)!
1+!
0y
0&!
0'!
0*!
0d
1e
0[
0\
0O
0U
0^
1P
1a
1_
0Q
0Z
0Y
0`
1;
0:
02
01
00
0/
0'
1&
0%
0+
17
06
15
04
#980000
1#
1M
19!
1A!
0E!
1G!
1%!
1F!
0B!
1C!
1[
1{
1!!
1,!
0z
0)!
0+!
1$!
11
1O
1U
1^
0P
0a
0_
1\
0&
1%
1+
07
05
14
12
