BIN2GR/simulation/qsim/BIN2GR.msim.vcd
$comment
	File created using the following command:
		vcd file BIN2GR.msim.vcd -direction
$end
$date
	Thu Feb 15 10:44:38 2024
$end
$version
	ModelSim Version 10.5b
$end
$timescale
	1ps
$end

$scope module bin2gr_vhd_vec_tst $end
$var wire 1 ! INP [2] $end
$var wire 1 " INP [1] $end
$var wire 1 # INP [0] $end
$var wire 1 $ S [2] $end
$var wire 1 % S [1] $end
$var wire 1 & S [0] $end
$var wire 1 ' SEL $end

$scope module i1 $end
$var wire 1 ( gnd $end
$var wire 1 ) vcc $end
$var wire 1 * unknown $end
$var wire 1 + devoe $end
$var wire 1 , devclrn $end
$var wire 1 - devpor $end
$var wire 1 . ww_devoe $end
$var wire 1 / ww_devclrn $end
$var wire 1 0 ww_devpor $end
$var wire 1 1 ww_INP [2] $end
$var wire 1 2 ww_INP [1] $end
$var wire 1 3 ww_INP [0] $end
$var wire 1 4 ww_SEL $end
$var wire 1 5 ww_S [2] $end
$var wire 1 6 ww_S [1] $end
$var wire 1 7 ww_S [0] $end
$var wire 1 8 \~QUARTUS_CREATED_ADC1~_CHSEL_bus\ [4] $end
$var wire 1 9 \~QUARTUS_CREATED_ADC1~_CHSEL_bus\ [3] $end
$var wire 1 : \~QUARTUS_CREATED_ADC1~_CHSEL_bus\ [2] $end
$var wire 1 ; \~QUARTUS_CREATED_ADC1~_CHSEL_bus\ [1] $end
$var wire 1 < \~QUARTUS_CREATED_ADC1~_CHSEL_bus\ [0] $end
$var wire 1 = \~QUARTUS_CREATED_GND~I_combout\ $end
$var wire 1 > \~QUARTUS_CREATED_UNVM~~busy\ $end
$var wire 1 ? \~QUARTUS_CREATED_ADC1~~eoc\ $end
$var wire 1 @ \S[0]~output_o\ $end
$var wire 1 A \S[1]~output_o\ $end
$var wire 1 B \S[2]~output_o\ $end
$var wire 1 C \INP[0]~input_o\ $end
$var wire 1 D \INP[1]~input_o\ $end
$var wire 1 E \INP[2]~input_o\ $end
$var wire 1 F \SEL~input_o\ $end
$var wire 1 G \S~0_combout\ $end
$var wire 1 H \S~1_combout\ $end
$upscope $end
$upscope $end
$enddefinitions $end
#0
$dumpvars
0'
0(
1)
x*
1+
1,
1-
1.
1/
10
04
0=
z>
z?
0@
0A
0B
0C
0D
0E
0F
0G
0H
0!
0"
0#
01
02
03
05
06
07
08
09
0:
0;
0<
0$
0%
0&
$end
#50000
1#
13
1C
1G
1@
17
1&
#100000
0#
1"
03
12
1D
0C
1H
1A
16
1%
#150000
1#
13
1C
0G
0@
07
0&
#200000
0#
0"
1!
03
02
11
1E
0D
0C
1B
15
1$
#250000
1#
13
1C
1G
1@
17
1&
#300000
0#
1"
03
12
1D
0C
0H
0A
06
0%
#350000
1#
13
1C
0G
0@
07
0&
#400000
0#
0"
0!
1'
03
02
01
14
1F
0E
0D
0C
0B
05
0$
#450000
1#
13
1C
1G
1@
17
1&
#500000
0#
1"
03
12
1D
0C
1H
1A
16
1%
#550000
1#
13
1C
0G
0@
07
0&
#600000
0#
0"
1!
03
02
11
1E
0D
0C
1B
1G
15
1@
1$
17
1&
#650000
1#
13
1C
0G
0@
07
0&
#700000
0#
1"
03
12
1D
0C
0H
0A
06
0%
#750000
1#
13
1C
1G
1@
17
1&
#800000
0#
0"
0!
0'
03
02
01
04
0F
0E
0D
0C
0B
0G
05
0@
0$
07
0&
#850000
1#
13
1C
1G
1@
17
1&
#900000
0#
1"
03
12
1D
0C
1H
1A
16
1%
#950000
1#
13
1C
0G
0@
07
0&
