VGA/simulation/qsim/VGA.msim.vcd
$comment
	File created using the following command:
		vcd file VGA.msim.vcd -direction
$end
$date
	Thu Mar 07 09:57:17 2024
$end
$version
	ModelSim Version 10.5b
$end
$timescale
	1ps
$end

$scope module vga_vhd_vec_tst $end
$var wire 1 ! B [3] $end
$var wire 1 " B [2] $end
$var wire 1 # B [1] $end
$var wire 1 $ B [0] $end
$var wire 1 % CLK $end
$var wire 1 & G [3] $end
$var wire 1 ' G [2] $end
$var wire 1 ( G [1] $end
$var wire 1 ) G [0] $end
$var wire 1 * HSYNC $end
$var wire 1 + R [3] $end
$var wire 1 , R [2] $end
$var wire 1 - R [1] $end
$var wire 1 . R [0] $end
$var wire 1 / RST $end
$var wire 1 0 START $end
$var wire 1 1 VSYNC $end

$scope module i1 $end
$var wire 1 2 gnd $end
$var wire 1 3 vcc $end
$var wire 1 4 unknown $end
$var wire 1 5 devoe $end
$var wire 1 6 devclrn $end
$var wire 1 7 devpor $end
$var wire 1 8 ww_devoe $end
$var wire 1 9 ww_devclrn $end
$var wire 1 : ww_devpor $end
$var wire 1 ; ww_CLK $end
$var wire 1 < ww_RST $end
$var wire 1 = ww_START $end
$var wire 1 > ww_HSYNC $end
$var wire 1 ? ww_VSYNC $end
$var wire 1 @ ww_R [3] $end
$var wire 1 A ww_R [2] $end
$var wire 1 B ww_R [1] $end
$var wire 1 C ww_R [0] $end
$var wire 1 D ww_G [3] $end
$var wire 1 E ww_G [2] $end
$var wire 1 F ww_G [1] $end
$var wire 1 G ww_G [0] $end
$var wire 1 H ww_B [3] $end
$var wire 1 I ww_B [2] $end
$var wire 1 J ww_B [1] $end
$var wire 1 K ww_B [0] $end
$var wire 1 L \~QUARTUS_CREATED_ADC1~_CHSEL_bus\ [4] $end
$var wire 1 M \~QUARTUS_CREATED_ADC1~_CHSEL_bus\ [3] $end
$var wire 1 N \~QUARTUS_CREATED_ADC1~_CHSEL_bus\ [2] $end
$var wire 1 O \~QUARTUS_CREATED_ADC1~_CHSEL_bus\ [1] $end
$var wire 1 P \~QUARTUS_CREATED_ADC1~_CHSEL_bus\ [0] $end
$var wire 1 Q \~QUARTUS_CREATED_ADC2~_CHSEL_bus\ [4] $end
$var wire 1 R \~QUARTUS_CREATED_ADC2~_CHSEL_bus\ [3] $end
$var wire 1 S \~QUARTUS_CREATED_ADC2~_CHSEL_bus\ [2] $end
$var wire 1 T \~QUARTUS_CREATED_ADC2~_CHSEL_bus\ [1] $end
$var wire 1 U \~QUARTUS_CREATED_ADC2~_CHSEL_bus\ [0] $end
$var wire 1 V \I1|ov~clkctrl_INCLK_bus\ [3] $end
$var wire 1 W \I1|ov~clkctrl_INCLK_bus\ [2] $end
$var wire 1 X \I1|ov~clkctrl_INCLK_bus\ [1] $end
$var wire 1 Y \I1|ov~clkctrl_INCLK_bus\ [0] $end
$var wire 1 Z \I0|I0|q~clkctrl_INCLK_bus\ [3] $end
$var wire 1 [ \I0|I0|q~clkctrl_INCLK_bus\ [2] $end
$var wire 1 \ \I0|I0|q~clkctrl_INCLK_bus\ [1] $end
$var wire 1 ] \I0|I0|q~clkctrl_INCLK_bus\ [0] $end
$var wire 1 ^ \~QUARTUS_CREATED_GND~I_combout\ $end
$var wire 1 _ \~QUARTUS_CREATED_UNVM~~busy\ $end
$var wire 1 ` \~QUARTUS_CREATED_ADC1~~eoc\ $end
$var wire 1 a \~QUARTUS_CREATED_ADC2~~eoc\ $end
$var wire 1 b \HSYNC~output_o\ $end
$var wire 1 c \VSYNC~output_o\ $end
$var wire 1 d \R[0]~output_o\ $end
$var wire 1 e \R[1]~output_o\ $end
$var wire 1 f \R[2]~output_o\ $end
$var wire 1 g \R[3]~output_o\ $end
$var wire 1 h \G[0]~output_o\ $end
$var wire 1 i \G[1]~output_o\ $end
$var wire 1 j \G[2]~output_o\ $end
$var wire 1 k \G[3]~output_o\ $end
$var wire 1 l \B[0]~output_o\ $end
$var wire 1 m \B[1]~output_o\ $end
$var wire 1 n \B[2]~output_o\ $end
$var wire 1 o \B[3]~output_o\ $end
$var wire 1 p \CLK~input_o\ $end
$var wire 1 q \I0|I0|q~0_combout\ $end
$var wire 1 r \I0|I0|q~feeder_combout\ $end
$var wire 1 s \RST~input_o\ $end
$var wire 1 t \I0|I0|q~q\ $end
$var wire 1 u \I0|I0|q~clkctrl_outclk\ $end
$var wire 1 v \I1|Q[0]~11_combout\ $end
$var wire 1 w \I1|Q[1]~5_combout\ $end
$var wire 1 x \I1|Q[2]~4_combout\ $end
$var wire 1 y \I1|Q[3]~3_combout\ $end
$var wire 1 z \I4|Equal3~0_combout\ $end
$var wire 1 { \I1|Q[4]~9_combout\ $end
$var wire 1 | \I1|Q~2_combout\ $end
$var wire 1 } \I1|Q[6]~6_combout\ $end
$var wire 1 ~ \I4|Equal3~1_combout\ $end
$var wire 1 !! \I1|I0|I6|Cout~combout\ $end
$var wire 1 "! \I1|Q[7]~8_combout\ $end
$var wire 1 #! \I1|I0|I9|s~0_combout\ $end
$var wire 1 $! \I1|Q~7_combout\ $end
$var wire 1 %! \I1|I0|I9|s~combout\ $end
$var wire 1 &! \I1|Q~10_combout\ $end
$var wire 1 '! \I4|Equal2~0_combout\ $end
$var wire 1 (! \I4|Equal3~2_combout\ $end
$var wire 1 )! \I4|Equal0~0_combout\ $end
$var wire 1 *! \I4|Equal2~1_combout\ $end
$var wire 1 +! \I4|Equal1~0_combout\ $end
$var wire 1 ,! \I4|Equal1~1_combout\ $end
$var wire 1 -! \I4|Equal0~1_combout\ $end
$var wire 1 .! \I4|Equal0~2_combout\ $end
$var wire 1 /! \I4|Selector2~0_combout\ $end
$var wire 1 0! \I4|EDO.S2~q\ $end
$var wire 1 1! \I4|Selector3~0_combout\ $end
$var wire 1 2! \I4|EDO.S3~q\ $end
$var wire 1 3! \I4|Selector4~0_combout\ $end
$var wire 1 4! \I4|EDO.S4~q\ $end
$var wire 1 5! \START~input_o\ $end
$var wire 1 6! \I4|Selector0~0_combout\ $end
$var wire 1 7! \I4|EDO.IDLE~q\ $end
$var wire 1 8! \I4|Selector1~0_combout\ $end
$var wire 1 9! \I4|EDO.S1~q\ $end
$var wire 1 :! \I4|HSYNC~0_combout\ $end
$var wire 1 ;! \I3|Selector0~0_combout\ $end
$var wire 1 <! \I1|ov~q\ $end
$var wire 1 =! \I1|ov~clkctrl_outclk\ $end
$var wire 1 >! \I2|I0|Q[0]~10_combout\ $end
$var wire 1 ?! \I2|I0|Q[1]~5_combout\ $end
$var wire 1 @! \I2|I0|Q[2]~8_combout\ $end
$var wire 1 A! \I2|I0|Q[3]~7_combout\ $end
$var wire 1 B! \I2|I0|I0|I3|Cout~combout\ $end
$var wire 1 C! \I2|I0|Q[4]~4_combout\ $end
$var wire 1 D! \I2|I0|Q[5]~9_combout\ $end
$var wire 1 E! \I2|I0|Q[6]~3_combout\ $end
$var wire 1 F! \I2|I0|Q[7]~1_combout\ $end
$var wire 1 G! \I2|I0|Q[7]~2_combout\ $end
$var wire 1 H! \I2|I0|I0|I6|Cout~combout\ $end
$var wire 1 I! \I2|I0|Q[8]~0_combout\ $end
$var wire 1 J! \I3|Equal0~0_combout\ $end
$var wire 1 K! \I2|I0|Q[9]~6_combout\ $end
$var wire 1 L! \I2|R~0_combout\ $end
$var wire 1 M! \I3|Equal3~0_combout\ $end
$var wire 1 N! \I2|R~1_combout\ $end
$var wire 1 O! \I3|Equal3~1_combout\ $end
$var wire 1 P! \I3|Equal0~1_combout\ $end
$var wire 1 Q! \I3|Equal1~0_combout\ $end
$var wire 1 R! \I3|Equal0~2_combout\ $end
$var wire 1 S! \I3|Selector2~0_combout\ $end
$var wire 1 T! \I3|EDO.S2~q\ $end
$var wire 1 U! \I3|Equal2~0_combout\ $end
$var wire 1 V! \I3|Equal2~1_combout\ $end
$var wire 1 W! \I3|Selector3~0_combout\ $end
$var wire 1 X! \I3|EDO.S3~q\ $end
$var wire 1 Y! \I3|Selector4~0_combout\ $end
$var wire 1 Z! \I3|Selector4~1_combout\ $end
$var wire 1 [! \I3|EDO.S4~q\ $end
$var wire 1 \! \I3|Selector0~1_combout\ $end
$var wire 1 ]! \I3|EDO.IDLE~q\ $end
$var wire 1 ^! \I3|Selector1~0_combout\ $end
$var wire 1 _! \I3|EDO.S1~q\ $end
$var wire 1 `! \I3|VSYNC~0_combout\ $end
$var wire 1 a! \I4|Selector6~0_combout\ $end
$var wire 1 b! \I1|Q\ [9] $end
$var wire 1 c! \I1|Q\ [8] $end
$var wire 1 d! \I1|Q\ [7] $end
$var wire 1 e! \I1|Q\ [6] $end
$var wire 1 f! \I1|Q\ [5] $end
$var wire 1 g! \I1|Q\ [4] $end
$var wire 1 h! \I1|Q\ [3] $end
$var wire 1 i! \I1|Q\ [2] $end
$var wire 1 j! \I1|Q\ [1] $end
$var wire 1 k! \I1|Q\ [0] $end
$var wire 1 l! \I2|I0|Q\ [9] $end
$var wire 1 m! \I2|I0|Q\ [8] $end
$var wire 1 n! \I2|I0|Q\ [7] $end
$var wire 1 o! \I2|I0|Q\ [6] $end
$var wire 1 p! \I2|I0|Q\ [5] $end
$var wire 1 q! \I2|I0|Q\ [4] $end
$var wire 1 r! \I2|I0|Q\ [3] $end
$var wire 1 s! \I2|I0|Q\ [2] $end
$var wire 1 t! \I2|I0|Q\ [1] $end
$var wire 1 u! \I2|I0|Q\ [0] $end
$var wire 1 v! \I4|R\ [3] $end
$var wire 1 w! \I4|R\ [2] $end
$var wire 1 x! \I4|R\ [1] $end
$var wire 1 y! \I4|R\ [0] $end
$var wire 1 z! \I2|ALT_INV_R~1_combout\ $end
$var wire 1 {! \I3|ALT_INV_VSYNC~0_combout\ $end
$var wire 1 |! \I4|ALT_INV_HSYNC~0_combout\ $end
$var wire 1 }! \ALT_INV_RST~input_o\ $end
$upscope $end
$upscope $end
$enddefinitions $end
#0
$dumpvars
0%
0*
0/
10
01
02
13
x4
15
16
17
18
19
1:
0;
0<
1=
0>
0?
0^
z_
z`
za
0b
0c
0d
0e
0f
0g
0h
0i
0j
0k
0l
0m
0n
0o
0p
1q
1r
0s
0t
0u
1v
0w
0x
0y
0z
0{
0|
0}
0~
0!!
0"!
1#!
0$!
0%!
0&!
0'!
0(!
1)!
0*!
0+!
0,!
0-!
0.!
0/!
00!
01!
02!
03!
04!
15!
16!
07!
18!
09!
1:!
0;!
0<!
0=!
1>!
0?!
0@!
0A!
0B!
0C!
0D!
0E!
1F!
0G!
0H!
0I!
1J!
0K!
0L!
0M!
0N!
0O!
0P!
0Q!
0R!
0S!
0T!
0U!
0V!
0W!
0X!
0Y!
0Z!
0[!
1\!
0]!
1^!
0_!
1`!
1a!
1z!
0{!
0|!
1}!
0+
0,
0-
0.
0&
0'
0(
0)
0!
0"
0#
0$
0@
0A
0B
0C
0D
0E
0F
0G
0H
0I
0J
0K
0b!
0c!
0d!
0e!
0f!
0g!
0h!
0i!
0j!
0k!
0l!
0m!
0n!
0o!
0p!
0q!
0r!
0s!
0t!
0u!
xv!
xw!
xx!
0y!
1Z
1[
1\
0]
1V
1W
1X
0Y
0L
0M
0N
0O
0P
0Q
0R
0S
0T
0U
$end
#1000
1%
1;
1p
1t
1]
0q
0r
1u
1k!
17!
19!
1]!
1_!
0v
1w
0)!
#2000
0%
0;
0p
#3000
1%
1;
1p
0t
0]
1q
1r
0u
#4000
0%
0;
0p
#5000
1%
1;
1p
1t
1]
0q
0r
1u
0k!
1j!
1v
#6000
0%
0;
0p
#7000
1%
1;
1p
0t
0]
1q
1r
0u
#8000
0%
0;
0p
#9000
1%
1;
1p
1t
1]
0q
0r
1u
1k!
0v
0w
1x
#10000
0%
0;
0p
#11000
1%
1;
1p
0t
0]
1q
1r
0u
#12000
0%
0;
0p
#13000
1%
1;
1p
1t
1]
0q
0r
1u
0k!
0j!
1i!
1v
#14000
0%
0;
0p
#15000
1%
1;
1p
0t
0]
1q
1r
0u
#16000
0%
0;
0p
#17000
1%
1;
1p
1t
1]
0q
0r
1u
1k!
0v
1w
#18000
0%
0;
0p
#19000
1%
1;
1p
0t
0]
1q
1r
0u
#20000
0%
0;
0p
#21000
1%
1;
1p
1t
1]
0q
0r
1u
0k!
1j!
1v
#22000
0%
0;
0p
#23000
1%
1;
1p
0t
0]
1q
1r
0u
#24000
0%
0;
0p
#25000
1%
1;
1p
1t
1]
0q
0r
1u
1k!
0v
0w
0x
1y
#26000
0%
0;
0p
#27000
1%
1;
1p
0t
0]
1q
1r
0u
#28000
0%
0;
0p
#29000
1%
1;
1p
1t
1]
0q
0r
1u
0k!
0j!
0i!
1h!
1v
#30000
0%
0;
0p
#31000
1%
1;
1p
0t
0]
1q
1r
0u
#32000
0%
0;
0p
#33000
1%
1;
1p
1t
1]
0q
0r
1u
1k!
0v
1w
#34000
0%
0;
0p
#35000
1%
1;
1p
0t
0]
1q
1r
0u
#36000
0%
0;
0p
#37000
1%
1;
1p
1t
1]
0q
0r
1u
0k!
1j!
1v
#38000
0%
0;
0p
#39000
1%
1;
1p
0t
0]
1q
1r
0u
#40000
0%
0;
0p
#41000
1%
1;
1p
1t
1]
0q
0r
1u
1k!
0v
0w
1x
#42000
0%
0;
0p
#43000
1%
1;
1p
0t
0]
1q
1r
0u
#44000
0%
0;
0p
#45000
1%
1;
1p
1t
1]
0q
0r
1u
0k!
0j!
1i!
1v
#46000
0%
0;
0p
#47000
1%
1;
1p
0t
0]
1q
1r
0u
#48000
0%
0;
0p
#49000
1%
1;
1p
1t
1]
0q
0r
1u
1k!
0v
1w
#50000
0%
0;
0p
#51000
1%
1;
1p
0t
0]
1q
1r
0u
#52000
0%
0;
0p
#53000
1%
1;
1p
1t
1]
0q
0r
1u
0k!
1j!
1v
#54000
0%
0;
0p
#55000
1%
1;
1p
0t
0]
1q
1r
0u
#56000
0%
0;
0p
#57000
1%
1;
1p
1t
1]
0q
0r
1u
1k!
0v
0w
0x
0y
1z
1{
#58000
0%
0;
0p
#59000
1%
1;
1p
0t
0]
1q
1r
0u
#60000
0%
0;
0p
#61000
1%
1;
1p
1t
1]
0q
0r
1u
0k!
0j!
0i!
0h!
1g!
0{
1|
1~
1v
0z
1)!
1{
0|
#62000
0%
0;
0p
#63000
1%
1;
1p
0t
0]
1q
1r
0u
#64000
0%
0;
0p
#65000
1%
1;
1p
1t
1]
0q
0r
1u
1k!
0v
1w
0)!
#66000
0%
0;
0p
#67000
1%
1;
1p
0t
0]
1q
1r
0u
#68000
0%
0;
0p
#69000
1%
1;
1p
1t
1]
0q
0r
1u
0k!
1j!
1v
#70000
0%
0;
0p
#71000
1%
1;
1p
0t
0]
1q
1r
0u
#72000
0%
0;
0p
#73000
1%
1;
1p
1t
1]
0q
0r
1u
1k!
0v
0w
1x
#74000
0%
0;
0p
#75000
1%
1;
1p
0t
0]
1q
1r
0u
#76000
0%
0;
0p
#77000
1%
1;
1p
1t
1]
0q
0r
1u
0k!
0j!
1i!
1v
#78000
0%
0;
0p
#79000
1%
1;
1p
0t
0]
1q
1r
0u
#80000
0%
0;
0p
#81000
1%
1;
1p
1t
1]
0q
0r
1u
1k!
0v
1w
#82000
0%
0;
0p
#83000
1%
1;
1p
0t
0]
1q
1r
0u
#84000
0%
0;
0p
#85000
1%
1;
1p
1t
1]
0q
0r
1u
0k!
1j!
1v
#86000
0%
0;
0p
#87000
1%
1;
1p
0t
0]
1q
1r
0u
#88000
0%
0;
0p
#89000
1%
1;
1p
1t
1]
0q
0r
1u
1k!
0v
0w
0x
1y
#90000
0%
0;
0p
#91000
1%
1;
1p
0t
0]
1q
1r
0u
#92000
0%
0;
0p
#93000
1%
1;
1p
1t
1]
0q
0r
1u
0k!
0j!
0i!
1h!
1v
#94000
0%
0;
0p
#95000
1%
1;
1p
0t
0]
1q
1r
0u
#96000
0%
0;
0p
#97000
1%
1;
1p
1t
1]
0q
0r
1u
1k!
0v
1w
#98000
0%
0;
0p
#99000
1%
1;
1p
0t
0]
1q
1r
0u
#100000
0%
0;
0p
#101000
1%
1;
1p
1t
1]
0q
0r
1u
0k!
1j!
1v
#102000
0%
0;
0p
#103000
1%
1;
1p
0t
0]
1q
1r
0u
#104000
0%
0;
0p
#105000
1%
1;
1p
1t
1]
0q
0r
1u
1k!
0v
0w
1x
#106000
0%
0;
0p
#107000
1%
1;
1p
0t
0]
1q
1r
0u
#108000
0%
0;
0p
#109000
1%
1;
1p
1t
1]
0q
0r
1u
0k!
0j!
1i!
1v
#110000
0%
0;
0p
#111000
1%
1;
1p
0t
0]
1q
1r
0u
#112000
0%
0;
0p
#113000
1%
1;
1p
1t
1]
0q
0r
1u
1k!
0v
1w
#114000
0%
0;
0p
#115000
1%
1;
1p
0t
0]
1q
1r
0u
#116000
0%
0;
0p
#117000
1%
1;
1p
1t
1]
0q
0r
1u
0k!
1j!
1v
#118000
0%
0;
0p
#119000
1%
1;
1p
0t
0]
1q
1r
0u
#120000
0%
0;
0p
#121000
1%
1;
1p
1t
1]
0q
0r
1u
1k!
0v
0w
0x
0y
1z
0{
1|
#122000
0%
0;
0p
#123000
1%
1;
1p
0t
0]
1q
1r
0u
#124000
0%
0;
0p
#125000
1%
1;
1p
1t
1]
0q
0r
1u
0k!
0j!
0i!
0h!
0g!
1f!
1{
0~
1v
0z
1)!
0{
#126000
0%
0;
0p
#127000
1%
1;
1p
0t
0]
1q
1r
0u
#128000
0%
0;
0p
#129000
1%
1;
1p
1t
1]
0q
0r
1u
1k!
0v
1w
0)!
#130000
0%
0;
0p
#131000
1%
1;
1p
0t
0]
1q
1r
0u
#132000
0%
0;
0p
#133000
1%
1;
1p
1t
1]
0q
0r
1u
0k!
1j!
1v
#134000
0%
0;
0p
#135000
1%
1;
1p
0t
0]
1q
1r
0u
#136000
0%
0;
0p
#137000
1%
1;
1p
1t
1]
0q
0r
1u
1k!
0v
0w
1x
#138000
0%
0;
0p
#139000
1%
1;
1p
0t
0]
1q
1r
0u
#140000
0%
0;
0p
#141000
1%
1;
1p
1t
1]
0q
0r
1u
0k!
0j!
1i!
1v
#142000
0%
0;
0p
#143000
1%
1;
1p
0t
0]
1q
1r
0u
#144000
0%
0;
0p
#145000
1%
1;
1p
1t
1]
0q
0r
1u
1k!
0v
1w
#146000
0%
0;
0p
#147000
1%
1;
1p
0t
0]
1q
1r
0u
#148000
0%
0;
0p
#149000
1%
1;
1p
1t
1]
0q
0r
1u
0k!
1j!
1v
#150000
0%
0;
0p
#151000
1%
1;
1p
0t
0]
1q
1r
0u
#152000
0%
0;
0p
#153000
1%
1;
1p
1t
1]
0q
0r
1u
1k!
0v
0w
0x
1y
#154000
0%
0;
0p
#155000
1%
1;
1p
0t
0]
1q
1r
0u
#156000
0%
0;
0p
#157000
1%
1;
1p
1t
1]
0q
0r
1u
0k!
0j!
0i!
1h!
1v
#158000
0%
0;
0p
#159000
1%
1;
1p
0t
0]
1q
1r
0u
#160000
0%
0;
0p
#161000
1%
1;
1p
1t
1]
0q
0r
1u
1k!
0v
1w
#162000
0%
0;
0p
#163000
1%
1;
1p
0t
0]
1q
1r
0u
#164000
0%
0;
0p
#165000
1%
1;
1p
1t
1]
0q
0r
1u
0k!
1j!
1v
#166000
0%
0;
0p
#167000
1%
1;
1p
0t
0]
1q
1r
0u
#168000
0%
0;
0p
#169000
1%
1;
1p
1t
1]
0q
0r
1u
1k!
0v
0w
1x
#170000
0%
0;
0p
#171000
1%
1;
1p
0t
0]
1q
1r
0u
#172000
0%
0;
0p
#173000
1%
1;
1p
1t
1]
0q
0r
1u
0k!
0j!
1i!
1v
#174000
0%
0;
0p
#175000
1%
1;
1p
0t
0]
1q
1r
0u
#176000
0%
0;
0p
#177000
1%
1;
1p
1t
1]
0q
0r
1u
1k!
0v
1w
#178000
0%
0;
0p
#179000
1%
1;
1p
0t
0]
1q
1r
0u
#180000
0%
0;
0p
#181000
1%
1;
1p
1t
1]
0q
0r
1u
0k!
1j!
1v
#182000
0%
0;
0p
#183000
1%
1;
1p
0t
0]
1q
1r
0u
#184000
0%
0;
0p
#185000
1%
1;
1p
1t
1]
0q
0r
1u
1k!
0v
0w
0x
0y
1z
1{
#186000
0%
0;
0p
#187000
1%
1;
1p
0t
0]
1q
1r
0u
#188000
0%
0;
0p
#189000
1%
1;
1p
1t
1]
0q
0r
1u
0k!
0j!
0i!
0h!
1g!
0{
0|
1}
1v
0z
1)!
1{
1|
0}
#190000
0%
0;
0p
#191000
1%
1;
1p
0t
0]
1q
1r
0u
#192000
0%
0;
0p
#193000
1%
1;
1p
1t
1]
0q
0r
1u
1k!
0v
1w
0)!
#194000
0%
0;
0p
#195000
1%
1;
1p
0t
0]
1q
1r
0u
#196000
0%
0;
0p
#197000
1%
1;
1p
1t
1]
0q
0r
1u
0k!
1j!
1v
#198000
0%
0;
0p
#199000
1%
1;
1p
0t
0]
1q
1r
0u
#200000
0%
0;
0p
#201000
1%
1;
1p
1t
1]
0q
0r
1u
1k!
0v
0w
1x
#202000
0%
0;
0p
#203000
1%
1;
1p
0t
0]
1q
1r
0u
#204000
0%
0;
0p
#205000
1%
1;
1p
1t
1]
0q
0r
1u
0k!
0j!
1i!
1v
#206000
0%
0;
0p
#207000
1%
1;
1p
0t
0]
1q
1r
0u
#208000
0%
0;
0p
#209000
1%
1;
1p
1t
1]
0q
0r
1u
1k!
0v
1w
#210000
0%
0;
0p
#211000
1%
1;
1p
0t
0]
1q
1r
0u
#212000
0%
0;
0p
#213000
1%
1;
1p
1t
1]
0q
0r
1u
0k!
1j!
1v
#214000
0%
0;
0p
#215000
1%
1;
1p
0t
0]
1q
1r
0u
#216000
0%
0;
0p
#217000
1%
1;
1p
1t
1]
0q
0r
1u
1k!
0v
0w
0x
1y
#218000
0%
0;
0p
#219000
1%
1;
1p
0t
0]
1q
1r
0u
#220000
0%
0;
0p
#221000
1%
1;
1p
1t
1]
0q
0r
1u
0k!
0j!
0i!
1h!
1v
#222000
0%
0;
0p
#223000
1%
1;
1p
0t
0]
1q
1r
0u
#224000
0%
0;
0p
#225000
1%
1;
1p
1t
1]
0q
0r
1u
1k!
0v
1w
#226000
0%
0;
0p
#227000
1%
1;
1p
0t
0]
1q
1r
0u
#228000
0%
0;
0p
#229000
1%
1;
1p
1t
1]
0q
0r
1u
0k!
1j!
1v
#230000
0%
0;
0p
#231000
1%
1;
1p
0t
0]
1q
1r
0u
#232000
0%
0;
0p
#233000
1%
1;
1p
1t
1]
0q
0r
1u
1k!
0v
0w
1x
#234000
0%
0;
0p
#235000
1%
1;
1p
0t
0]
1q
1r
0u
#236000
0%
0;
0p
#237000
1%
1;
1p
1t
1]
0q
0r
1u
0k!
0j!
1i!
1v
#238000
0%
0;
0p
#239000
1%
1;
1p
0t
0]
1q
1r
0u
#240000
0%
0;
0p
#241000
1%
1;
1p
1t
1]
0q
0r
1u
1k!
0v
1w
#242000
0%
0;
0p
#243000
1%
1;
1p
0t
0]
1q
1r
0u
#244000
0%
0;
0p
#245000
1%
1;
1p
1t
1]
0q
0r
1u
0k!
1j!
1v
#246000
0%
0;
0p
#247000
1%
1;
1p
0t
0]
1q
1r
0u
#248000
0%
0;
0p
#249000
1%
1;
1p
1t
1]
0q
0r
1u
1k!
0v
0w
0x
0y
1z
0{
0|
1}
#250000
0%
0;
0p
#251000
1%
1;
1p
0t
0]
1q
1r
0u
#252000
0%
0;
0p
#253000
1%
1;
1p
1t
1]
0q
0r
1u
0k!
0j!
0i!
0h!
0g!
0f!
1e!
1-!
1{
1v
0z
1)!
0{
#254000
0%
0;
0p
#255000
1%
1;
1p
0t
0]
1q
1r
0u
#256000
0%
0;
0p
#257000
1%
1;
1p
1t
1]
0q
0r
1u
1k!
0v
1w
0)!
#258000
0%
0;
0p
#259000
1%
1;
1p
0t
0]
1q
1r
0u
#260000
0%
0;
0p
#261000
1%
1;
1p
1t
1]
0q
0r
1u
0k!
1j!
1v
#262000
0%
0;
0p
#263000
1%
1;
1p
0t
0]
1q
1r
0u
#264000
0%
0;
0p
#265000
1%
1;
1p
1t
1]
0q
0r
1u
1k!
0v
0w
1x
#266000
0%
0;
0p
#267000
1%
1;
1p
0t
0]
1q
1r
0u
#268000
0%
0;
0p
#269000
1%
1;
1p
1t
1]
0q
0r
1u
0k!
0j!
1i!
1v
#270000
0%
0;
0p
#271000
1%
1;
1p
0t
0]
1q
1r
0u
#272000
0%
0;
0p
#273000
1%
1;
1p
1t
1]
0q
0r
1u
1k!
0v
1w
#274000
0%
0;
0p
#275000
1%
1;
1p
0t
0]
1q
1r
0u
#276000
0%
0;
0p
#277000
1%
1;
1p
1t
1]
0q
0r
1u
0k!
1j!
1v
#278000
0%
0;
0p
#279000
1%
1;
1p
0t
0]
1q
1r
0u
#280000
0%
0;
0p
#281000
1%
1;
1p
1t
1]
0q
0r
1u
1k!
0v
0w
0x
1y
#282000
0%
0;
0p
#283000
1%
1;
1p
0t
0]
1q
1r
0u
#284000
0%
0;
0p
#285000
1%
1;
1p
1t
1]
0q
0r
1u
0k!
0j!
0i!
1h!
1v
#286000
0%
0;
0p
#287000
1%
1;
1p
0t
0]
1q
1r
0u
#288000
0%
0;
0p
#289000
1%
1;
1p
1t
1]
0q
0r
1u
1k!
0v
1w
#290000
0%
0;
0p
#291000
1%
1;
1p
0t
0]
1q
1r
0u
#292000
0%
0;
0p
#293000
1%
1;
1p
1t
1]
0q
0r
1u
0k!
1j!
1v
#294000
0%
0;
0p
#295000
1%
1;
1p
0t
0]
1q
1r
0u
#296000
0%
0;
0p
#297000
1%
1;
1p
1t
1]
0q
0r
1u
1k!
0v
0w
1x
#298000
0%
0;
0p
#299000
1%
1;
1p
0t
0]
1q
1r
0u
#300000
0%
0;
0p
#301000
1%
1;
1p
1t
1]
0q
0r
1u
0k!
0j!
1i!
1v
#302000
0%
0;
0p
#303000
1%
1;
1p
0t
0]
1q
1r
0u
#304000
0%
0;
0p
#305000
1%
1;
1p
1t
1]
0q
0r
1u
1k!
0v
1w
#306000
0%
0;
0p
#307000
1%
1;
1p
0t
0]
1q
1r
0u
#308000
0%
0;
0p
#309000
1%
1;
1p
1t
1]
0q
0r
1u
0k!
1j!
1v
#310000
0%
0;
0p
#311000
1%
1;
1p
0t
0]
1q
1r
0u
#312000
0%
0;
0p
#313000
1%
1;
1p
1t
1]
0q
0r
1u
1k!
0v
0w
0x
0y
1z
1{
#314000
0%
0;
0p
#315000
1%
1;
1p
0t
0]
1q
1r
0u
#316000
0%
0;
0p
#317000
1%
1;
1p
1t
1]
0q
0r
1u
0k!
0j!
0i!
0h!
1g!
0{
1|
1v
0z
1)!
1{
0|
#318000
0%
0;
0p
#319000
1%
1;
1p
0t
0]
1q
1r
0u
#320000
0%
0;
0p
#321000
1%
1;
1p
1t
1]
0q
0r
1u
1k!
0v
1w
0)!
#322000
0%
0;
0p
#323000
1%
1;
1p
0t
0]
1q
1r
0u
#324000
0%
0;
0p
#325000
1%
1;
1p
1t
1]
0q
0r
1u
0k!
1j!
1v
#326000
0%
0;
0p
#327000
1%
1;
1p
0t
0]
1q
1r
0u
#328000
0%
0;
0p
#329000
1%
1;
1p
1t
1]
0q
0r
1u
1k!
0v
0w
1x
#330000
0%
0;
0p
#331000
1%
1;
1p
0t
0]
1q
1r
0u
#332000
0%
0;
0p
#333000
1%
1;
1p
1t
1]
0q
0r
1u
0k!
0j!
1i!
1v
#334000
0%
0;
0p
#335000
1%
1;
1p
0t
0]
1q
1r
0u
#336000
0%
0;
0p
#337000
1%
1;
1p
1t
1]
0q
0r
1u
1k!
0v
1w
#338000
0%
0;
0p
#339000
1%
1;
1p
0t
0]
1q
1r
0u
#340000
0%
0;
0p
#341000
1%
1;
1p
1t
1]
0q
0r
1u
0k!
1j!
1v
#342000
0%
0;
0p
#343000
1%
1;
1p
0t
0]
1q
1r
0u
#344000
0%
0;
0p
#345000
1%
1;
1p
1t
1]
0q
0r
1u
1k!
0v
0w
0x
1y
#346000
0%
0;
0p
#347000
1%
1;
1p
0t
0]
1q
1r
0u
#348000
0%
0;
0p
#349000
1%
1;
1p
1t
1]
0q
0r
1u
0k!
0j!
0i!
1h!
1v
#350000
0%
0;
0p
#351000
1%
1;
1p
0t
0]
1q
1r
0u
#352000
0%
0;
0p
#353000
1%
1;
1p
1t
1]
0q
0r
1u
1k!
0v
1w
#354000
0%
0;
0p
#355000
1%
1;
1p
0t
0]
1q
1r
0u
#356000
0%
0;
0p
#357000
1%
1;
1p
1t
1]
0q
0r
1u
0k!
1j!
1v
#358000
0%
0;
0p
#359000
1%
1;
1p
0t
0]
1q
1r
0u
#360000
0%
0;
0p
#361000
1%
1;
1p
1t
1]
0q
0r
1u
1k!
0v
0w
1x
#362000
0%
0;
0p
#363000
1%
1;
1p
0t
0]
1q
1r
0u
#364000
0%
0;
0p
#365000
1%
1;
1p
1t
1]
0q
0r
1u
0k!
0j!
1i!
1v
#366000
0%
0;
0p
#367000
1%
1;
1p
0t
0]
1q
1r
0u
#368000
0%
0;
0p
#369000
1%
1;
1p
1t
1]
0q
0r
1u
1k!
0v
1w
#370000
0%
0;
0p
#371000
1%
1;
1p
0t
0]
1q
1r
0u
#372000
0%
0;
0p
#373000
1%
1;
1p
1t
1]
0q
0r
1u
0k!
1j!
1v
#374000
0%
0;
0p
#375000
1%
1;
1p
0t
0]
1q
1r
0u
#376000
0%
0;
0p
#377000
1%
1;
1p
1t
1]
0q
0r
1u
1k!
0v
0w
0x
0y
1z
0{
1|
#378000
0%
0;
0p
#379000
1%
1;
1p
0t
0]
1q
1r
0u
#380000
0%
0;
0p
#381000
1%
1;
1p
1t
1]
0q
0r
1u
0k!
0j!
0i!
0h!
0g!
1f!
1{
1v
0z
1)!
1.!
0{
1/!
08!
#382000
0%
0;
0p
#383000
1%
1;
1p
0t
0]
1q
1r
0u
