SECUENCIA_3BITS/simulation/qsim/SECUENCIA_3BITS.msim.vcd
$comment
	File created using the following command:
		vcd file SECUENCIA_3BITS.msim.vcd -direction
$end
$date
	Mon Feb 19 10:43:18 2024
$end
$version
	ModelSim Version 10.5b
$end
$timescale
	1ps
$end

$scope module secuencia_3bits_vhd_vec_tst $end
$var wire 1 ! CLK $end
$var wire 1 " RST $end
$var wire 1 # SALIDA [2] $end
$var wire 1 $ SALIDA [1] $end
$var wire 1 % SALIDA [0] $end

$scope module i1 $end
$var wire 1 & gnd $end
$var wire 1 ' vcc $end
$var wire 1 ( unknown $end
$var wire 1 ) devoe $end
$var wire 1 * devclrn $end
$var wire 1 + devpor $end
$var wire 1 , ww_devoe $end
$var wire 1 - ww_devclrn $end
$var wire 1 . ww_devpor $end
$var wire 1 / ww_CLK $end
$var wire 1 0 ww_RST $end
$var wire 1 1 ww_SALIDA [2] $end
$var wire 1 2 ww_SALIDA [1] $end
$var wire 1 3 ww_SALIDA [0] $end
$var wire 1 4 \~QUARTUS_CREATED_ADC1~_CHSEL_bus\ [4] $end
$var wire 1 5 \~QUARTUS_CREATED_ADC1~_CHSEL_bus\ [3] $end
$var wire 1 6 \~QUARTUS_CREATED_ADC1~_CHSEL_bus\ [2] $end
$var wire 1 7 \~QUARTUS_CREATED_ADC1~_CHSEL_bus\ [1] $end
$var wire 1 8 \~QUARTUS_CREATED_ADC1~_CHSEL_bus\ [0] $end
$var wire 1 9 \RST~inputclkctrl_INCLK_bus\ [3] $end
$var wire 1 : \RST~inputclkctrl_INCLK_bus\ [2] $end
$var wire 1 ; \RST~inputclkctrl_INCLK_bus\ [1] $end
$var wire 1 < \RST~inputclkctrl_INCLK_bus\ [0] $end
$var wire 1 = \Mux1~0clkctrl_INCLK_bus\ [3] $end
$var wire 1 > \Mux1~0clkctrl_INCLK_bus\ [2] $end
$var wire 1 ? \Mux1~0clkctrl_INCLK_bus\ [1] $end
$var wire 1 @ \Mux1~0clkctrl_INCLK_bus\ [0] $end
$var wire 1 A \~QUARTUS_CREATED_GND~I_combout\ $end
$var wire 1 B \~QUARTUS_CREATED_UNVM~~busy\ $end
$var wire 1 C \~QUARTUS_CREATED_ADC1~~eoc\ $end
$var wire 1 D \SALIDA[0]~output_o\ $end
$var wire 1 E \SALIDA[1]~output_o\ $end
$var wire 1 F \SALIDA[2]~output_o\ $end
$var wire 1 G \CLK~input_o\ $end
$var wire 1 H \Mux2~0_combout\ $end
$var wire 1 I \Mux1~0_combout\ $end
$var wire 1 J \Mux1~0clkctrl_outclk\ $end
$var wire 1 K \EDO[1]~feeder_combout\ $end
$var wire 1 L \RST~input_o\ $end
$var wire 1 M \RST~inputclkctrl_outclk\ $end
$var wire 1 N \EDO[2]~feeder_combout\ $end
$var wire 1 O \Mux0~0_combout\ $end
$var wire 1 P \EDO[0]~feeder_combout\ $end
$var wire 1 Q EDO [2] $end
$var wire 1 R EDO [1] $end
$var wire 1 S EDO [0] $end
$var wire 1 T EDOF [2] $end
$var wire 1 U EDOF [1] $end
$var wire 1 V EDOF [0] $end
$upscope $end
$upscope $end
$enddefinitions $end
#0
$dumpvars
0!
1"
0&
1'
x(
1)
1*
1+
1,
1-
1.
0/
10
0A
zB
zC
0D
0E
0F
0G
0H
0I
0J
0K
1L
1M
1N
0O
0P
0#
0$
0%
01
02
03
0Q
0R
0S
1T
0U
0V
1=
1>
1?
0@
19
1:
1;
1<
04
05
06
07
08
$end
#20000
1!
1/
1G
1Q
1F
1H
1O
11
1V
1U
1#
1K
1P
#30000
0"
00
0L
0<
0M
0Q
0F
0H
0O
01
0V
0U
0#
0K
0P
#40000
0!
0/
0G
#60000
1!
1/
1G
#80000
0!
0/
0G
#100000
1!
1/
1G
#120000
0!
1"
0/
10
1L
0G
1<
1M
#140000
1!
1/
1G
1Q
1F
1H
1O
11
1V
1U
1#
1K
1P
#160000
0!
0/
0G
#180000
1!
1/
1G
1R
1S
1D
1E
0T
0O
13
12
0V
0N
1%
1$
0P
#200000
0!
0/
0G
#220000
1!
1/
1G
0Q
0S
0D
0F
1O
03
01
1V
0%
0#
1P
#240000
0!
0/
0G
#260000
1!
1/
1G
1S
1D
0H
0O
13
0V
0U
1%
0K
0P
#280000
0!
0/
0G
#300000
1!
1/
1G
0R
0S
0D
0E
1T
03
02
1N
0%
0$
#320000
0!
0/
0G
#340000
1!
1/
1G
1Q
1F
1H
1O
11
1V
1U
1#
1K
1P
#360000
0!
0/
0G
#380000
1!
1/
1G
1R
1S
1D
1E
0T
0O
13
12
0V
0N
1%
1$
0P
#400000
0!
0/
0G
#420000
1!
1/
1G
0Q
0S
0D
0F
1O
03
01
1V
0%
0#
1P
#440000
0!
0/
0G
#460000
1!
1/
1G
1S
1D
0H
0O
13
0V
0U
1%
0K
0P
#470000
0"
00
0L
0<
0M
0R
0S
0D
0E
1T
03
02
1N
0%
0$
#480000
0!
0/
0G
#500000
1!
1/
1G
#520000
0!
0/
0G
#540000
1!
1/
1G
#560000
0!
1"
0/
10
1L
0G
1<
1M
#580000
1!
1/
1G
1Q
1F
1H
1O
11
1V
1U
1#
1K
1P
#600000
0!
0/
0G
#620000
1!
1/
1G
1R
1S
1D
1E
0T
0O
13
12
0V
0N
1%
1$
0P
#640000
0!
0/
0G
#660000
1!
1/
1G
0Q
0S
0D
0F
1O
03
01
1V
0%
0#
1P
#680000
0!
0/
0G
#700000
1!
1/
1G
1S
1D
0H
0O
13
0V
0U
1%
0K
0P
#720000
0!
0/
0G
#740000
1!
1/
1G
0R
0S
0D
0E
1T
03
02
1N
0%
0$
#760000
0!
0/
0G
#780000
1!
1/
1G
1Q
1F
1H
1O
11
1V
1U
1#
1K
1P
#800000
0!
0/
0G
#820000
1!
1/
1G
1R
1S
1D
1E
0T
0O
13
12
0V
0N
1%
1$
0P
#840000
0!
0/
0G
#860000
1!
1/
1G
0Q
0S
0D
0F
1O
03
01
1V
0%
0#
1P
#880000
0!
0/
0G
#900000
1!
1/
1G
1S
1D
0H
0O
13
0V
0U
1%
0K
0P
#920000
0!
0/
0G
#940000
1!
1/
1G
0R
0S
0D
0E
1T
03
02
1N
0%
0$
#960000
0!
0/
0G
#980000
1!
1/
1G
1Q
1F
1H
1O
11
1V
1U
1#
1K
1P
