HA2/simulation/qsim/HA2.msim.vcd
$comment
	File created using the following command:
		vcd file HA2.msim.vcd -direction
$end
$date
	Fri Feb 16 09:45:22 2024
$end
$version
	ModelSim Version 10.5b
$end
$timescale
	1ps
$end

$scope module ha2_vhd_vec_tst $end
$var wire 1 ! a $end
$var wire 1 " b $end
$var wire 1 # Cout $end
$var wire 1 $ s $end

$scope module i1 $end
$var wire 1 % gnd $end
$var wire 1 & vcc $end
$var wire 1 ' unknown $end
$var wire 1 ( devoe $end
$var wire 1 ) devclrn $end
$var wire 1 * devpor $end
$var wire 1 + ww_devoe $end
$var wire 1 , ww_devclrn $end
$var wire 1 - ww_devpor $end
$var wire 1 . ww_a $end
$var wire 1 / ww_b $end
$var wire 1 0 ww_s $end
$var wire 1 1 ww_Cout $end
$var wire 1 2 \~QUARTUS_CREATED_ADC1~_CHSEL_bus\ [4] $end
$var wire 1 3 \~QUARTUS_CREATED_ADC1~_CHSEL_bus\ [3] $end
$var wire 1 4 \~QUARTUS_CREATED_ADC1~_CHSEL_bus\ [2] $end
$var wire 1 5 \~QUARTUS_CREATED_ADC1~_CHSEL_bus\ [1] $end
$var wire 1 6 \~QUARTUS_CREATED_ADC1~_CHSEL_bus\ [0] $end
$var wire 1 7 \~QUARTUS_CREATED_ADC2~_CHSEL_bus\ [4] $end
$var wire 1 8 \~QUARTUS_CREATED_ADC2~_CHSEL_bus\ [3] $end
$var wire 1 9 \~QUARTUS_CREATED_ADC2~_CHSEL_bus\ [2] $end
$var wire 1 : \~QUARTUS_CREATED_ADC2~_CHSEL_bus\ [1] $end
$var wire 1 ; \~QUARTUS_CREATED_ADC2~_CHSEL_bus\ [0] $end
$var wire 1 < \~QUARTUS_CREATED_GND~I_combout\ $end
$var wire 1 = \~QUARTUS_CREATED_UNVM~~busy\ $end
$var wire 1 > \~QUARTUS_CREATED_ADC1~~eoc\ $end
$var wire 1 ? \~QUARTUS_CREATED_ADC2~~eoc\ $end
$var wire 1 @ \s~output_o\ $end
$var wire 1 A \Cout~output_o\ $end
$var wire 1 B \a~input_o\ $end
$var wire 1 C \b~input_o\ $end
$var wire 1 D \s~0_combout\ $end
$var wire 1 E \Cout~0_combout\ $end
$upscope $end
$upscope $end
$enddefinitions $end
#0
$dumpvars
0!
0"
0#
0$
0%
1&
x'
1(
1)
1*
1+
1,
1-
0.
0/
00
01
0<
z=
z>
z?
0@
0A
0B
0C
0D
0E
02
03
04
05
06
07
08
09
0:
0;
$end
#20000
1"
1/
1C
1D
1@
10
1$
#40000
0"
1!
0/
1.
1B
0C
#60000
1"
1/
1C
0D
1E
1A
0@
11
00
1#
0$
#80000
0"
0!
0/
0.
0B
0C
0E
0A
01
0#
#100000
1"
1/
1C
1D
1@
10
1$
#120000
0"
1!
0/
1.
1B
0C
#140000
1"
1/
1C
0D
1E
1A
0@
11
00
1#
0$
#160000
0"
0!
0/
0.
0B
0C
0E
0A
01
0#
#180000
1"
1/
1C
1D
1@
10
1$
#200000
0"
1!
0/
1.
1B
0C
#220000
1"
1/
1C
0D
1E
1A
0@
11
00
1#
0$
#240000
0"
0!
0/
0.
0B
0C
0E
0A
01
0#
#260000
1"
1/
1C
1D
1@
10
1$
#280000
0"
1!
0/
1.
1B
0C
#300000
1"
1/
1C
0D
1E
1A
0@
11
00
1#
0$
#320000
0"
0!
0/
0.
0B
0C
0E
0A
01
0#
#340000
1"
1/
1C
1D
1@
10
1$
#360000
0"
1!
0/
1.
1B
0C
#380000
1"
1/
1C
0D
1E
1A
0@
11
00
1#
0$
#400000
0"
0!
0/
0.
0B
0C
0E
0A
01
0#
#420000
1"
1/
1C
1D
1@
10
1$
#440000
0"
1!
0/
1.
1B
0C
#460000
1"
1/
1C
0D
1E
1A
0@
11
00
1#
0$
#480000
0"
0!
0/
0.
0B
0C
0E
0A
01
0#
#500000
1"
1/
1C
1D
1@
10
1$
#520000
0"
1!
0/
1.
1B
0C
#540000
1"
1/
1C
0D
1E
1A
0@
11
00
1#
0$
#560000
0"
0!
0/
0.
0B
0C
0E
0A
01
0#
#580000
1"
1/
1C
1D
1@
10
1$
#600000
0"
1!
0/
1.
1B
0C
#620000
1"
1/
1C
0D
1E
1A
0@
11
00
1#
0$
#640000
0"
0!
0/
0.
0B
0C
0E
0A
01
0#
#660000
1"
1/
1C
1D
1@
10
1$
#680000
0"
1!
0/
1.
1B
0C
#700000
1"
1/
1C
0D
1E
1A
0@
11
00
1#
0$
#720000
0"
0!
0/
0.
0B
0C
0E
0A
01
0#
#740000
1"
1/
1C
1D
1@
10
1$
#760000
0"
1!
0/
1.
1B
0C
#780000
1"
1/
1C
0D
1E
1A
0@
11
00
1#
0$
#800000
0"
0!
0/
0.
0B
0C
0E
0A
01
0#
#820000
1"
1/
1C
1D
1@
10
1$
#840000
0"
1!
0/
1.
1B
0C
#860000
1"
1/
1C
0D
1E
1A
0@
11
00
1#
0$
#880000
0"
0!
0/
0.
0B
0C
0E
0A
01
0#
#900000
1"
1/
1C
1D
1@
10
1$
#920000
0"
1!
0/
1.
1B
0C
#940000
1"
1/
1C
0D
1E
1A
0@
11
00
1#
0$
#960000
0"
0!
0/
0.
0B
0C
0E
0A
01
0#
#980000
1"
1/
1C
1D
1@
10
1$
