SUMA8/simulation/qsim/SUMA8.msim.vcd
$comment
	File created using the following command:
		vcd file SUMA8.msim.vcd -direction
$end
$date
	Mon Feb 19 22:58:13 2024
$end
$version
	ModelSim Version 10.5b
$end
$timescale
	1ps
$end

$scope module suma8_vhd_vec_tst $end
$var wire 1 ! a [7] $end
$var wire 1 " a [6] $end
$var wire 1 # a [5] $end
$var wire 1 $ a [4] $end
$var wire 1 % a [3] $end
$var wire 1 & a [2] $end
$var wire 1 ' a [1] $end
$var wire 1 ( a [0] $end
$var wire 1 ) b [7] $end
$var wire 1 * b [6] $end
$var wire 1 + b [5] $end
$var wire 1 , b [4] $end
$var wire 1 - b [3] $end
$var wire 1 . b [2] $end
$var wire 1 / b [1] $end
$var wire 1 0 b [0] $end
$var wire 1 1 Cin $end
$var wire 1 2 Cout $end
$var wire 1 3 s [7] $end
$var wire 1 4 s [6] $end
$var wire 1 5 s [5] $end
$var wire 1 6 s [4] $end
$var wire 1 7 s [3] $end
$var wire 1 8 s [2] $end
$var wire 1 9 s [1] $end
$var wire 1 : s [0] $end

$scope module i1 $end
$var wire 1 ; gnd $end
$var wire 1 < vcc $end
$var wire 1 = unknown $end
$var wire 1 > devoe $end
$var wire 1 ? devclrn $end
$var wire 1 @ devpor $end
$var wire 1 A ww_devoe $end
$var wire 1 B ww_devclrn $end
$var wire 1 C ww_devpor $end
$var wire 1 D ww_a [7] $end
$var wire 1 E ww_a [6] $end
$var wire 1 F ww_a [5] $end
$var wire 1 G ww_a [4] $end
$var wire 1 H ww_a [3] $end
$var wire 1 I ww_a [2] $end
$var wire 1 J ww_a [1] $end
$var wire 1 K ww_a [0] $end
$var wire 1 L ww_b [7] $end
$var wire 1 M ww_b [6] $end
$var wire 1 N ww_b [5] $end
$var wire 1 O ww_b [4] $end
$var wire 1 P ww_b [3] $end
$var wire 1 Q ww_b [2] $end
$var wire 1 R ww_b [1] $end
$var wire 1 S ww_b [0] $end
$var wire 1 T ww_Cin $end
$var wire 1 U ww_s [7] $end
$var wire 1 V ww_s [6] $end
$var wire 1 W ww_s [5] $end
$var wire 1 X ww_s [4] $end
$var wire 1 Y ww_s [3] $end
$var wire 1 Z ww_s [2] $end
$var wire 1 [ ww_s [1] $end
$var wire 1 \ ww_s [0] $end
$var wire 1 ] ww_Cout $end
$var wire 1 ^ \~QUARTUS_CREATED_ADC1~_CHSEL_bus\ [4] $end
$var wire 1 _ \~QUARTUS_CREATED_ADC1~_CHSEL_bus\ [3] $end
$var wire 1 ` \~QUARTUS_CREATED_ADC1~_CHSEL_bus\ [2] $end
$var wire 1 a \~QUARTUS_CREATED_ADC1~_CHSEL_bus\ [1] $end
$var wire 1 b \~QUARTUS_CREATED_ADC1~_CHSEL_bus\ [0] $end
$var wire 1 c \~QUARTUS_CREATED_GND~I_combout\ $end
$var wire 1 d \~QUARTUS_CREATED_UNVM~~busy\ $end
$var wire 1 e \~QUARTUS_CREATED_ADC1~~eoc\ $end
$var wire 1 f \s[0]~output_o\ $end
$var wire 1 g \s[1]~output_o\ $end
$var wire 1 h \s[2]~output_o\ $end
$var wire 1 i \s[3]~output_o\ $end
$var wire 1 j \s[4]~output_o\ $end
$var wire 1 k \s[5]~output_o\ $end
$var wire 1 l \s[6]~output_o\ $end
$var wire 1 m \s[7]~output_o\ $end
$var wire 1 n \Cout~output_o\ $end
$var wire 1 o \Cin~input_o\ $end
$var wire 1 p \b[0]~input_o\ $end
$var wire 1 q \a[0]~input_o\ $end
$var wire 1 r \I0|I0|HA1|s~0_combout\ $end
$var wire 1 s \a[1]~input_o\ $end
$var wire 1 t \b[1]~input_o\ $end
$var wire 1 u \I0|I0|Cout~0_combout\ $end
$var wire 1 v \I0|I1|HA1|s~combout\ $end
$var wire 1 w \a[2]~input_o\ $end
$var wire 1 x \b[2]~input_o\ $end
$var wire 1 y \I0|I1|Cout~0_combout\ $end
$var wire 1 z \I0|I2|HA1|s~combout\ $end
$var wire 1 { \b[3]~input_o\ $end
$var wire 1 | \a[3]~input_o\ $end
$var wire 1 } \I0|I2|Cout~0_combout\ $end
$var wire 1 ~ \I0|I3|HA1|s~combout\ $end
$var wire 1 !! \a[4]~input_o\ $end
$var wire 1 "! \b[4]~input_o\ $end
$var wire 1 #! \I0|I3|Cout~0_combout\ $end
$var wire 1 $! \I1|I0|HA1|s~combout\ $end
$var wire 1 %! \I1|I0|Cout~0_combout\ $end
$var wire 1 &! \b[5]~input_o\ $end
$var wire 1 '! \a[5]~input_o\ $end
$var wire 1 (! \I1|I1|HA1|s~combout\ $end
$var wire 1 )! \a[6]~input_o\ $end
$var wire 1 *! \I1|I1|Cout~0_combout\ $end
$var wire 1 +! \b[6]~input_o\ $end
$var wire 1 ,! \I1|I2|HA1|s~combout\ $end
$var wire 1 -! \I1|I2|Cout~0_combout\ $end
$var wire 1 .! \a[7]~input_o\ $end
$var wire 1 /! \b[7]~input_o\ $end
$var wire 1 0! \I1|I3|HA1|s~combout\ $end
$var wire 1 1! \I1|I3|Cout~0_combout\ $end
$upscope $end
$upscope $end
$enddefinitions $end
#0
$dumpvars
11
02
0;
1<
x=
1>
1?
1@
1A
1B
1C
1T
0]
0c
zd
ze
1f
0g
0h
0i
0j
0k
0l
0m
0n
1o
0p
0q
1r
0s
0t
0u
0v
0w
0x
0y
0z
0{
0|
0}
0~
0!!
0"!
0#!
0$!
0%!
0&!
0'!
0(!
0)!
0*!
0+!
0,!
0-!
0.!
0/!
00!
01!
0!
0"
0#
0$
0%
0&
0'
0(
0)
0*
0+
0,
0-
0.
0/
00
03
04
05
06
07
08
09
1:
0D
0E
0F
0G
0H
0I
0J
0K
0L
0M
0N
0O
0P
0Q
0R
0S
0U
0V
0W
0X
0Y
0Z
0[
1\
0^
0_
0`
0a
0b
$end
#20000
1(
10
1K
1S
1p
1q
1u
1v
1g
1[
19
#40000
0(
00
1'
1/
0K
1J
0S
1R
1t
0p
1s
0q
0u
1y
1z
0v
0g
1h
0[
1Z
09
18
#60000
1(
10
01
1K
1S
0T
0o
1p
1q
0r
1u
0f
1v
0\
1g
0:
1[
19
#80000
0(
00
0'
0/
1&
1.
0K
0J
1I
0S
0R
1Q
1x
0t
0p
1w
0s
0q
0u
0y
1}
1~
0z
0v
0g
0h
1i
0[
0Z
1Y
09
08
17
#100000
1(
10
1K
1S
1p
1q
1u
1v
1g
1[
19
#120000
0(
00
1'
1/
11
0K
1J
0S
1R
1T
1o
1t
0p
1s
0q
1y
1r
0u
1f
0v
1z
1\
1h
0g
1:
1Z
0[
09
18
#140000
1(
10
1K
1S
1p
1q
1u
1v
1g
1[
19
#160000
0(
00
0'
0/
0&
0.
1%
1-
0K
0J
0I
1H
0S
0R
0Q
1P
1{
0x
0t
0p
1|
0w
0s
0q
0u
0y
0}
1#!
1$!
0~
0z
0v
0g
0h
0i
1j
0[
0Z
0Y
1X
09
08
07
16
#180000
1(
10
1K
1S
1p
1q
1u
1v
1g
1[
19
#200000
0(
00
1'
1/
0K
1J
0S
1R
1t
0p
1s
0q
0u
1y
1z
0v
0g
1h
0[
1Z
09
18
#220000
1(
10
1K
1S
1p
1q
1u
1v
1g
1[
19
#240000
0(
00
0'
0/
1&
1.
01
0K
0J
1I
0S
0R
1Q
0T
0o
1x
0t
0p
1w
0s
0q
0y
1}
0r
0u
0f
0v
1~
0z
0\
0h
1i
0g
0:
0Z
1Y
0[
09
08
17
#260000
1(
10
1K
1S
1p
1q
1u
1v
1g
1[
19
#280000
0(
00
1'
1/
0K
1J
0S
1R
1t
0p
1s
0q
0u
1y
1z
0v
0g
1h
0[
1Z
09
18
#300000
1(
10
11
1K
1S
1T
1o
1p
1q
1r
1u
1f
1v
1\
1g
1:
1[
19
#320000
0(
00
0'
0/
0&
0.
0%
0-
1$
1,
0K
0J
0I
0H
1G
0S
0R
0Q
0P
1O
1"!
0{
0x
0t
0p
1!!
0|
0w
0s
0q
0u
0y
0}
0#!
1%!
1(!
0$!
0~
0z
0v
0g
0h
0i
0j
1k
0[
0Z
0Y
0X
1W
09
08
07
06
15
#340000
1(
10
1K
1S
1p
1q
1u
1v
1g
1[
19
#360000
0(
00
1'
1/
01
0K
1J
0S
1R
0T
0o
1t
0p
1s
0q
1y
0r
0u
0f
0v
1z
0\
1h
0g
0:
1Z
0[
09
18
#380000
1(
10
1K
1S
1p
1q
1u
1v
1g
1[
19
#400000
0(
00
0'
0/
1&
1.
0K
0J
1I
0S
0R
1Q
1x
0t
0p
1w
0s
0q
0u
0y
1}
1~
0z
0v
0g
0h
1i
0[
0Z
1Y
09
08
17
#420000
1(
10
1K
1S
1p
1q
1u
1v
1g
1[
19
#440000
0(
00
1'
1/
0K
1J
0S
1R
1t
0p
1s
0q
0u
1y
1z
0v
0g
1h
0[
1Z
09
18
#460000
1(
10
1K
1S
1p
1q
1u
1v
1g
1[
19
#480000
0(
00
0'
0/
0&
0.
1%
1-
0K
0J
0I
1H
0S
0R
0Q
1P
1{
0x
0t
0p
1|
0w
0s
0q
0u
0y
0}
1#!
1$!
0~
0z
0v
0g
0h
0i
1j
0[
0Z
0Y
1X
09
08
07
16
#500000
1(
10
1K
1S
1p
1q
1u
1v
1g
1[
19
#520000
0(
00
1'
1/
0K
1J
0S
1R
1t
0p
1s
0q
0u
1y
1z
0v
0g
1h
0[
1Z
09
18
#540000
1(
10
1K
1S
1p
1q
1u
1v
1g
1[
19
#560000
0(
00
0'
0/
1&
1.
0K
0J
1I
0S
0R
1Q
1x
0t
0p
1w
0s
0q
0u
0y
1}
1~
0z
0v
0g
0h
1i
0[
0Z
1Y
09
08
17
#580000
1(
10
1K
1S
1p
1q
1u
1v
1g
1[
19
#600000
0(
00
1'
1/
11
0K
1J
0S
1R
1T
1o
1t
0p
1s
0q
1y
1r
0u
1f
0v
1z
1\
1h
0g
1:
1Z
0[
09
18
#620000
1(
10
1K
1S
1p
1q
1u
1v
1g
1[
19
#640000
0(
00
0'
0/
0&
0.
0%
0-
0$
0,
1#
1+
0K
0J
0I
0H
0G
1F
0S
0R
0Q
0P
0O
1N
1&!
0"!
0{
0x
0t
0p
1'!
0!!
0|
0w
0s
0q
0u
0y
0}
0#!
0%!
1*!
1,!
0(!
0$!
0~
0z
0v
0g
0h
0i
0j
0k
1l
0[
0Z
0Y
0X
0W
1V
09
08
07
06
05
14
#660000
1(
10
01
1K
1S
0T
0o
1p
1q
0r
1u
0f
1v
0\
1g
0:
1[
19
#680000
0(
00
1'
1/
0K
1J
0S
1R
1t
0p
1s
0q
0u
1y
1z
0v
0g
1h
0[
1Z
09
18
#700000
1(
10
1K
1S
1p
1q
1u
1v
1g
1[
19
#720000
0(
00
0'
0/
1&
1.
0K
0J
1I
0S
0R
1Q
1x
0t
0p
1w
0s
0q
0u
0y
1}
1~
0z
0v
0g
0h
1i
0[
0Z
1Y
09
08
17
#740000
1(
10
1K
1S
1p
1q
1u
1v
1g
1[
19
#760000
0(
00
1'
1/
0K
1J
0S
1R
1t
0p
1s
0q
0u
1y
1z
0v
0g
1h
0[
1Z
09
18
#780000
1(
10
11
1K
1S
1T
1o
1p
1q
1r
1u
1f
1v
1\
1g
1:
1[
19
#800000
0(
00
0'
0/
0&
0.
1%
1-
0K
0J
0I
1H
0S
0R
0Q
1P
1{
0x
0t
0p
1|
0w
0s
0q
0u
0y
0}
1#!
1$!
0~
0z
0v
0g
0h
0i
1j
0[
0Z
0Y
1X
09
08
07
16
#820000
1(
10
1K
1S
1p
1q
1u
1v
1g
1[
19
#840000
0(
00
1'
1/
01
0K
1J
0S
1R
0T
0o
1t
0p
1s
0q
1y
0r
0u
0f
0v
1z
0\
1h
0g
0:
1Z
0[
09
18
#860000
1(
10
1K
1S
1p
1q
1u
1v
1g
1[
19
#880000
0(
00
0'
0/
1&
1.
0K
0J
1I
0S
0R
1Q
1x
0t
0p
1w
0s
0q
0u
0y
1}
1~
0z
0v
0g
0h
1i
0[
0Z
1Y
09
08
17
#900000
1(
10
1K
1S
1p
1q
1u
1v
1g
1[
19
#920000
0(
00
1'
1/
0K
1J
0S
1R
1t
0p
1s
0q
0u
1y
1z
0v
0g
1h
0[
1Z
09
18
#940000
1(
10
1K
1S
1p
1q
1u
1v
1g
1[
19
#960000
0(
00
0'
0/
0&
0.
11
0%
0-
1$
1,
0K
0J
0I
0H
1G
0S
0R
0Q
0P
1O
1T
1o
1"!
0{
0x
0t
0p
1!!
0|
0w
0s
0q
0y
0}
0#!
1%!
1r
0u
1f
0v
1(!
0$!
0~
0z
1\
0h
0i
0j
1k
0g
1:
0Z
0Y
0X
1W
0[
09
08
07
06
15
#980000
1(
10
1K
1S
1p
1q
1u
1v
1g
1[
19
#1000000
0(
00
1'
1/
0K
1J
0S
1R
1t
0p
1s
0q
0u
1y
1z
0v
0g
1h
0[
1Z
09
18
#1020000
1(
10
1K
1S
1p
1q
1u
1v
1g
1[
19
#1040000
0(
00
0'
0/
1&
1.
0K
0J
1I
0S
0R
1Q
1x
0t
0p
1w
0s
0q
0u
0y
1}
1~
0z
0v
0g
0h
1i
0[
0Z
1Y
09
08
17
#1060000
1(
10
1K
1S
1p
1q
1u
1v
1g
1[
19
#1080000
0(
00
1'
1/
01
0K
1J
0S
1R
0T
0o
1t
0p
1s
0q
1y
0r
0u
0f
0v
1z
0\
1h
0g
0:
1Z
0[
09
18
#1100000
1(
10
1K
1S
1p
1q
1u
1v
1g
1[
19
#1120000
0(
00
0'
0/
0&
0.
1%
1-
0K
0J
0I
1H
0S
0R
0Q
1P
1{
0x
0t
0p
1|
0w
0s
0q
0u
0y
0}
1#!
1$!
0~
0z
0v
0g
0h
0i
1j
0[
0Z
0Y
1X
09
08
07
16
#1140000
1(
10
1K
1S
1p
1q
1u
1v
1g
1[
19
#1160000
0(
00
1'
1/
0K
1J
0S
1R
1t
0p
1s
0q
0u
1y
1z
0v
0g
1h
0[
1Z
09
18
#1180000
1(
10
1K
1S
1p
1q
1u
1v
1g
1[
19
#1200000
0(
00
0'
0/
1&
1.
11
0K
0J
1I
0S
0R
1Q
1T
1o
1x
0t
0p
1w
0s
0q
0y
1}
1r
0u
1f
0v
1~
0z
1\
0h
1i
0g
1:
0Z
1Y
0[
09
08
17
#1220000
1(
10
1K
1S
1p
1q
1u
1v
1g
1[
19
#1240000
0(
00
1'
1/
0K
1J
0S
1R
1t
0p
1s
0q
0u
1y
1z
0v
0g
1h
0[
1Z
09
18
#1260000
1(
10
1K
1S
1p
1q
1u
1v
1g
1[
19
#1280000
0(
00
0'
0/
0&
0.
0%
0-
0$
0,
0#
0+
1"
1*
0K
0J
0I
0H
0G
0F
1E
0S
0R
0Q
0P
0O
0N
1M
1+!
0&!
0"!
0{
0x
0t
0p
1)!
0'!
0!!
0|
0w
0s
0q
0u
0y
0}
0#!
0%!
0*!
1-!
10!
0,!
0(!
0$!
0~
0z
0v
0g
0h
0i
0j
0k
0l
1m
0[
0Z
0Y
0X
0W
0V
1U
09
08
07
06
05
04
13
#1300000
1(
10
1K
1S
1p
1q
1u
1v
1g
1[
19
#1320000
0(
00
1'
1/
01
0K
1J
0S
1R
0T
0o
1t
0p
1s
0q
1y
0r
0u
0f
0v
1z
0\
1h
0g
0:
1Z
0[
09
18
#1340000
1(
10
1K
1S
1p
1q
1u
1v
1g
1[
19
#1360000
0(
00
0'
0/
1&
1.
0K
0J
1I
0S
0R
1Q
1x
0t
0p
1w
0s
0q
0u
0y
1}
1~
0z
0v
0g
0h
1i
0[
0Z
1Y
09
08
17
#1380000
1(
10
1K
1S
1p
1q
1u
1v
1g
1[
19
#1400000
0(
00
1'
1/
0K
1J
0S
1R
1t
0p
1s
0q
0u
1y
1z
0v
0g
1h
0[
1Z
09
18
#1420000
1(
10
1K
1S
1p
1q
1u
1v
1g
1[
19
#1440000
0(
00
0'
0/
0&
0.
11
1%
1-
0K
0J
0I
1H
0S
0R
0Q
1P
1T
1o
1{
0x
0t
0p
1|
0w
0s
0q
0y
0}
1#!
1r
0u
1f
0v
1$!
0~
0z
1\
0h
0i
1j
0g
1:
0Z
0Y
1X
0[
09
08
07
16
#1460000
1(
10
1K
1S
1p
1q
1u
1v
1g
1[
19
#1480000
0(
00
1'
1/
0K
1J
0S
1R
1t
0p
1s
0q
0u
1y
1z
0v
0g
1h
0[
1Z
09
18
#1500000
1(
10
01
1K
1S
0T
0o
1p
1q
0r
1u
0f
1v
0\
1g
0:
1[
19
#1520000
0(
00
0'
0/
1&
1.
0K
0J
1I
0S
0R
1Q
1x
0t
0p
1w
0s
0q
0u
0y
1}
1~
0z
0v
0g
0h
1i
0[
0Z
1Y
09
08
17
#1540000
1(
10
1K
1S
1p
1q
1u
1v
1g
1[
19
#1560000
0(
00
1'
1/
11
0K
1J
0S
1R
1T
1o
1t
0p
1s
0q
1y
1r
0u
1f
0v
1z
1\
1h
0g
1:
1Z
0[
09
18
#1580000
1(
10
1K
1S
1p
1q
1u
1v
1g
1[
19
#1600000
0(
00
0'
0/
0&
0.
0%
0-
1$
1,
0K
0J
0I
0H
1G
0S
0R
0Q
0P
1O
1"!
0{
0x
0t
0p
1!!
0|
0w
0s
0q
0u
0y
0}
0#!
1%!
1(!
0$!
0~
0z
0v
0g
0h
0i
0j
1k
0[
0Z
0Y
0X
1W
09
08
07
06
15
#1620000
1(
10
01
1K
1S
0T
0o
1p
1q
0r
1u
0f
1v
0\
1g
0:
1[
19
#1640000
0(
00
1'
1/
0K
1J
0S
1R
1t
0p
1s
0q
0u
1y
1z
0v
0g
1h
0[
1Z
09
18
#1660000
1(
10
1K
1S
1p
1q
1u
1v
1g
1[
19
#1680000
0(
00
0'
0/
11
1&
1.
0K
0J
1I
0S
0R
1Q
1T
1o
1x
0t
0p
1w
0s
0q
0y
1}
1r
0u
1f
0v
1~
0z
1\
0h
1i
0g
1:
0Z
1Y
0[
09
08
17
#1700000
1(
10
1K
1S
1p
1q
1u
1v
1g
1[
19
#1720000
0(
00
1'
1/
0K
1J
0S
1R
1t
0p
1s
0q
0u
1y
1z
0v
0g
1h
0[
1Z
09
18
#1740000
1(
10
01
1K
1S
0T
0o
1p
1q
0r
1u
0f
1v
0\
1g
0:
1[
19
#1760000
0(
00
0'
0/
0&
0.
1%
1-
0K
0J
0I
1H
0S
0R
0Q
1P
1{
0x
0t
0p
1|
0w
0s
0q
0u
0y
0}
1#!
1$!
0~
0z
0v
0g
0h
0i
1j
0[
0Z
0Y
1X
09
08
07
16
#1780000
1(
10
1K
1S
1p
1q
1u
1v
1g
1[
19
#1800000
0(
00
1'
1/
0K
1J
0S
1R
1t
0p
1s
0q
0u
1y
1z
0v
0g
1h
0[
1Z
09
18
#1820000
1(
10
1K
1S
1p
1q
1u
1v
1g
1[
19
#1840000
0(
00
0'
0/
1&
1.
0K
0J
1I
0S
0R
1Q
1x
0t
0p
1w
0s
0q
0u
0y
1}
1~
0z
0v
0g
0h
1i
0[
0Z
1Y
09
08
17
#1860000
1(
10
1K
1S
1p
1q
1u
1v
1g
1[
19
#1880000
0(
00
1'
1/
0K
1J
0S
1R
1t
0p
1s
0q
0u
1y
1z
0v
0g
1h
0[
1Z
09
18
#1900000
1(
10
1K
1S
1p
1q
1u
1v
1g
1[
19
#1920000
0(
00
0'
0/
0&
0.
0%
0-
11
0$
0,
1#
1+
0K
0J
0I
0H
0G
1F
0S
0R
0Q
0P
0O
1N
1T
1o
1&!
0"!
0{
0x
0t
0p
1'!
0!!
0|
0w
0s
0q
0y
0}
0#!
0%!
1*!
1r
0u
1f
0v
1,!
0(!
0$!
0~
0z
1\
0h
0i
0j
0k
1l
0g
1:
0Z
0Y
0X
0W
1V
0[
09
08
07
06
05
14
#1940000
1(
10
1K
1S
1p
1q
1u
1v
1g
1[
19
#1960000
0(
00
1'
1/
0K
1J
0S
1R
1t
0p
1s
0q
0u
1y
1z
0v
0g
1h
0[
1Z
09
18
#1980000
1(
10
1K
1S
1p
1q
1u
1v
1g
1[
19
#2000000
0(
00
0'
0/
1&
1.
0K
0J
1I
0S
0R
1Q
1x
0t
0p
1w
0s
0q
0u
0y
1}
1~
0z
0v
0g
0h
1i
0[
0Z
1Y
09
08
17
#2020000
1(
10
1K
1S
1p
1q
1u
1v
1g
1[
19
#2040000
0(
00
1'
1/
01
0K
1J
0S
1R
0T
0o
1t
0p
1s
0q
1y
0r
0u
0f
0v
1z
0\
1h
0g
0:
1Z
0[
09
18
#2060000
1(
10
1K
1S
1p
1q
1u
1v
1g
1[
19
#2080000
0(
00
0'
0/
0&
0.
1%
1-
0K
0J
0I
1H
0S
0R
0Q
1P
1{
0x
0t
0p
1|
0w
0s
0q
0u
0y
0}
1#!
1$!
0~
0z
0v
0g
0h
0i
1j
0[
0Z
0Y
1X
09
08
07
16
#2100000
1(
10
1K
1S
1p
1q
1u
1v
1g
1[
19
#2120000
0(
00
1'
1/
0K
1J
0S
1R
1t
0p
1s
0q
0u
1y
1z
0v
0g
1h
0[
1Z
09
18
#2140000
1(
10
1K
1S
1p
1q
1u
1v
1g
1[
19
#2160000
0(
00
0'
0/
1&
1.
11
0K
0J
1I
0S
0R
1Q
1T
1o
1x
0t
0p
1w
0s
0q
0y
1}
1r
0u
1f
0v
1~
0z
1\
0h
1i
0g
1:
0Z
1Y
0[
09
08
17
#2180000
1(
10
1K
1S
1p
1q
1u
1v
1g
1[
19
#2200000
0(
00
1'
1/
0K
1J
0S
1R
1t
0p
1s
0q
0u
1y
1z
0v
0g
1h
0[
1Z
09
18
#2220000
1(
10
1K
1S
1p
1q
1u
1v
1g
1[
19
#2240000
0(
00
0'
0/
0&
0.
0%
0-
1$
1,
0K
0J
0I
0H
1G
0S
0R
0Q
0P
1O
1"!
0{
0x
0t
0p
1!!
0|
0w
0s
0q
0u
0y
0}
0#!
1%!
1(!
0$!
0~
0z
0v
0g
0h
0i
0j
1k
0[
0Z
0Y
0X
1W
09
08
07
06
15
#2260000
1(
10
1K
1S
1p
1q
1u
1v
1g
1[
19
#2280000
0(
00
1'
1/
01
0K
1J
0S
1R
0T
0o
1t
0p
1s
0q
1y
0r
0u
0f
0v
1z
0\
1h
0g
0:
1Z
0[
09
18
#2300000
1(
10
1K
1S
1p
1q
1u
1v
1g
1[
19
#2320000
0(
00
0'
0/
1&
1.
0K
0J
1I
0S
0R
1Q
1x
0t
0p
1w
0s
0q
0u
0y
1}
1~
0z
0v
0g
0h
1i
0[
0Z
1Y
09
08
17
#2340000
1(
10
11
1K
1S
1T
1o
1p
1q
1r
1u
1f
1v
1\
1g
1:
1[
19
#2360000
0(
00
1'
1/
0K
1J
0S
1R
1t
0p
1s
0q
0u
1y
1z
0v
0g
1h
0[
1Z
09
18
#2380000
1(
10
1K
1S
1p
1q
1u
1v
1g
1[
19
#2400000
0(
00
0'
0/
0&
0.
1%
1-
0K
0J
0I
1H
0S
0R
0Q
1P
1{
0x
0t
0p
1|
0w
0s
0q
0u
0y
0}
1#!
1$!
0~
0z
0v
0g
0h
0i
1j
0[
0Z
0Y
1X
09
08
07
16
#2420000
1(
10
1K
1S
1p
1q
1u
1v
1g
1[
19
#2440000
0(
00
1'
1/
0K
1J
0S
1R
1t
0p
1s
0q
0u
1y
1z
0v
0g
1h
0[
1Z
09
18
#2460000
1(
10
01
1K
1S
0T
0o
1p
1q
0r
1u
0f
1v
0\
1g
0:
1[
19
#2480000
0(
00
0'
0/
1&
1.
0K
0J
1I
0S
0R
1Q
1x
0t
0p
1w
0s
0q
0u
0y
1}
1~
0z
0v
0g
0h
1i
0[
0Z
1Y
09
08
17
#2500000
1(
10
1K
1S
1p
1q
1u
1v
1g
1[
19
#2520000
0(
00
1'
1/
11
0K
1J
0S
1R
1T
1o
1t
0p
1s
0q
1y
1r
0u
1f
0v
1z
1\
1h
0g
1:
1Z
0[
09
18
#2540000
1(
10
1K
1S
1p
1q
1u
1v
1g
1[
19
#2560000
0(
00
0'
0/
0&
0.
0%
0-
0$
0,
0#
0+
0"
0*
1!
1)
0K
0J
0I
0H
0G
0F
0E
1D
0S
0R
0Q
0P
0O
0N
0M
1L
1/!
0+!
0&!
0"!
0{
0x
0t
0p
1.!
0)!
0'!
0!!
0|
0w
0s
0q
0u
0y
0}
0#!
0%!
0*!
0-!
11!
1n
00!
0,!
0(!
0$!
0~
0z
0v
1]
0g
0h
0i
0j
0k
0l
0m
12
0[
0Z
0Y
0X
0W
0V
0U
09
08
07
06
05
04
03
#2580000
1(
10
1K
1S
1p
1q
1u
1v
1g
1[
19
#2600000
0(
00
1'
1/
0K
1J
0S
1R
1t
0p
1s
0q
0u
1y
1z
0v
0g
1h
0[
1Z
09
18
#2620000
1(
10
1K
1S
1p
1q
1u
1v
1g
1[
19
#2640000
0(
00
0'
0/
1&
1.
01
0K
0J
1I
0S
0R
1Q
0T
0o
1x
0t
0p
1w
0s
0q
0y
1}
0r
0u
0f
0v
1~
0z
0\
0h
1i
0g
0:
0Z
1Y
0[
09
08
17
#2660000
1(
10
1K
1S
1p
1q
1u
1v
1g
1[
19
#2680000
0(
00
1'
1/
0K
1J
0S
1R
1t
0p
1s
0q
0u
1y
1z
0v
0g
1h
0[
1Z
09
18
#2700000
1(
10
1K
1S
1p
1q
1u
1v
1g
1[
19
#2720000
0(
00
0'
0/
0&
0.
1%
1-
0K
0J
0I
1H
0S
0R
0Q
1P
1{
0x
0t
0p
1|
0w
0s
0q
0u
0y
0}
1#!
1$!
0~
0z
0v
0g
0h
0i
1j
0[
0Z
0Y
1X
09
08
07
16
#2740000
1(
10
1K
1S
1p
1q
1u
1v
1g
1[
19
#2760000
0(
00
1'
1/
0K
1J
0S
1R
1t
0p
1s
0q
0u
1y
1z
0v
0g
1h
0[
1Z
09
18
#2780000
1(
10
1K
1S
1p
1q
1u
1v
1g
1[
19
#2800000
0(
00
0'
0/
1&
1.
0K
0J
1I
0S
0R
1Q
1x
0t
0p
1w
0s
0q
0u
0y
1}
1~
0z
0v
0g
0h
1i
0[
0Z
1Y
09
08
17
#2820000
1(
10
1K
1S
1p
1q
1u
1v
1g
1[
19
#2840000
0(
00
1'
1/
0K
1J
0S
1R
1t
0p
1s
0q
0u
1y
1z
0v
0g
1h
0[
1Z
09
18
#2860000
1(
10
1K
1S
1p
1q
1u
1v
1g
1[
19
#2880000
0(
00
0'
0/
0&
0.
0%
0-
1$
1,
0K
0J
0I
0H
1G
0S
0R
0Q
0P
1O
1"!
0{
0x
0t
0p
1!!
0|
0w
0s
0q
0u
0y
0}
0#!
1%!
1(!
0$!
0~
0z
0v
0g
0h
0i
0j
1k
0[
0Z
0Y
0X
1W
09
08
07
06
15
#2900000
1(
10
1K
1S
1p
1q
1u
1v
1g
1[
19
#2920000
0(
00
1'
1/
0K
1J
0S
1R
1t
0p
1s
0q
0u
1y
1z
0v
0g
1h
0[
1Z
09
18
#2940000
1(
10
1K
1S
1p
1q
1u
1v
1g
1[
19
#2960000
0(
00
0'
0/
1&
1.
0K
0J
1I
0S
0R
1Q
1x
0t
0p
1w
0s
0q
0u
0y
1}
1~
0z
0v
0g
0h
1i
0[
0Z
1Y
09
08
17
#2980000
1(
10
1K
1S
1p
1q
1u
1v
1g
1[
19
#3000000
0(
00
1'
1/
0K
1J
0S
1R
1t
0p
1s
0q
0u
1y
1z
0v
0g
1h
0[
1Z
09
18
#3020000
1(
10
1K
1S
1p
1q
1u
1v
1g
1[
19
#3040000
0(
00
0'
0/
0&
0.
1%
1-
0K
0J
0I
1H
0S
0R
0Q
1P
1{
0x
0t
0p
1|
0w
0s
0q
0u
0y
0}
1#!
1$!
0~
0z
0v
0g
0h
0i
1j
0[
0Z
0Y
1X
09
08
07
16
#3060000
1(
10
1K
1S
1p
1q
1u
1v
1g
1[
19
#3080000
0(
00
1'
1/
0K
1J
0S
1R
1t
0p
1s
0q
0u
1y
1z
0v
0g
1h
0[
1Z
09
18
#3100000
1(
10
1K
1S
1p
1q
1u
1v
1g
1[
19
#3120000
0(
00
0'
0/
1&
1.
0K
0J
1I
0S
0R
1Q
1x
0t
0p
1w
0s
0q
0u
0y
1}
1~
0z
0v
0g
0h
1i
0[
0Z
1Y
09
08
17
#3140000
1(
10
1K
1S
1p
1q
1u
1v
1g
1[
19
#3160000
0(
00
1'
1/
0K
1J
0S
1R
1t
0p
1s
0q
0u
1y
1z
0v
0g
1h
0[
1Z
09
18
#3180000
1(
10
11
1K
1S
1T
1o
1p
1q
1r
1u
1f
1v
1\
1g
1:
1[
19
#3200000
0(
00
0'
0/
0&
0.
0%
0-
0$
0,
1#
1+
0K
0J
0I
0H
0G
1F
0S
0R
0Q
0P
0O
1N
1&!
0"!
0{
0x
0t
0p
1'!
0!!
0|
0w
0s
0q
0u
0y
0}
0#!
0%!
1*!
1,!
0(!
0$!
0~
0z
0v
0g
0h
0i
0j
0k
1l
0[
0Z
0Y
0X
0W
1V
09
08
07
06
05
14
#3220000
1(
10
1K
1S
1p
1q
1u
1v
1g
1[
19
#3240000
0(
00
1'
1/
01
0K
1J
0S
1R
0T
0o
1t
0p
1s
0q
1y
0r
0u
0f
0v
1z
0\
1h
0g
0:
1Z
0[
09
18
#3260000
1(
10
1K
1S
1p
1q
1u
1v
1g
1[
19
#3280000
0(
00
0'
0/
1&
1.
0K
0J
1I
0S
0R
1Q
1x
0t
0p
1w
0s
0q
0u
0y
1}
1~
0z
0v
0g
0h
1i
0[
0Z
1Y
09
08
17
#3300000
1(
10
11
1K
1S
1T
1o
1p
1q
1r
1u
1f
1v
1\
1g
1:
1[
19
#3320000
0(
00
1'
1/
0K
1J
0S
1R
1t
0p
1s
0q
0u
1y
1z
0v
0g
1h
0[
1Z
09
18
#3340000
1(
10
1K
1S
1p
1q
1u
1v
1g
1[
19
