SUMA_RESTA_8/simulation/qsim/SUMA_RESTA_8.msim.vcd
$comment
	File created using the following command:
		vcd file SUMA_RESTA_8.msim.vcd -direction
$end
$date
	Mon Feb 19 23:16:05 2024
$end
$version
	ModelSim Version 10.5b
$end
$timescale
	1ps
$end

$scope module suma_resta_8_vhd_vec_tst $end
$var wire 1 ! a [7] $end
$var wire 1 " a [6] $end
$var wire 1 # a [5] $end
$var wire 1 $ a [4] $end
$var wire 1 % a [3] $end
$var wire 1 & a [2] $end
$var wire 1 ' a [1] $end
$var wire 1 ( a [0] $end
$var wire 1 ) b [7] $end
$var wire 1 * b [6] $end
$var wire 1 + b [5] $end
$var wire 1 , b [4] $end
$var wire 1 - b [3] $end
$var wire 1 . b [2] $end
$var wire 1 / b [1] $end
$var wire 1 0 b [0] $end
$var wire 1 1 Cout $end
$var wire 1 2 s [7] $end
$var wire 1 3 s [6] $end
$var wire 1 4 s [5] $end
$var wire 1 5 s [4] $end
$var wire 1 6 s [3] $end
$var wire 1 7 s [2] $end
$var wire 1 8 s [1] $end
$var wire 1 9 s [0] $end
$var wire 1 : sel $end

$scope module i1 $end
$var wire 1 ; gnd $end
$var wire 1 < vcc $end
$var wire 1 = unknown $end
$var wire 1 > devoe $end
$var wire 1 ? devclrn $end
$var wire 1 @ devpor $end
$var wire 1 A ww_devoe $end
$var wire 1 B ww_devclrn $end
$var wire 1 C ww_devpor $end
$var wire 1 D ww_a [7] $end
$var wire 1 E ww_a [6] $end
$var wire 1 F ww_a [5] $end
$var wire 1 G ww_a [4] $end
$var wire 1 H ww_a [3] $end
$var wire 1 I ww_a [2] $end
$var wire 1 J ww_a [1] $end
$var wire 1 K ww_a [0] $end
$var wire 1 L ww_b [7] $end
$var wire 1 M ww_b [6] $end
$var wire 1 N ww_b [5] $end
$var wire 1 O ww_b [4] $end
$var wire 1 P ww_b [3] $end
$var wire 1 Q ww_b [2] $end
$var wire 1 R ww_b [1] $end
$var wire 1 S ww_b [0] $end
$var wire 1 T ww_sel $end
$var wire 1 U ww_s [7] $end
$var wire 1 V ww_s [6] $end
$var wire 1 W ww_s [5] $end
$var wire 1 X ww_s [4] $end
$var wire 1 Y ww_s [3] $end
$var wire 1 Z ww_s [2] $end
$var wire 1 [ ww_s [1] $end
$var wire 1 \ ww_s [0] $end
$var wire 1 ] ww_Cout $end
$var wire 1 ^ \~QUARTUS_CREATED_ADC1~_CHSEL_bus\ [4] $end
$var wire 1 _ \~QUARTUS_CREATED_ADC1~_CHSEL_bus\ [3] $end
$var wire 1 ` \~QUARTUS_CREATED_ADC1~_CHSEL_bus\ [2] $end
$var wire 1 a \~QUARTUS_CREATED_ADC1~_CHSEL_bus\ [1] $end
$var wire 1 b \~QUARTUS_CREATED_ADC1~_CHSEL_bus\ [0] $end
$var wire 1 c \~QUARTUS_CREATED_ADC2~_CHSEL_bus\ [4] $end
$var wire 1 d \~QUARTUS_CREATED_ADC2~_CHSEL_bus\ [3] $end
$var wire 1 e \~QUARTUS_CREATED_ADC2~_CHSEL_bus\ [2] $end
$var wire 1 f \~QUARTUS_CREATED_ADC2~_CHSEL_bus\ [1] $end
$var wire 1 g \~QUARTUS_CREATED_ADC2~_CHSEL_bus\ [0] $end
$var wire 1 h \~QUARTUS_CREATED_GND~I_combout\ $end
$var wire 1 i \~QUARTUS_CREATED_UNVM~~busy\ $end
$var wire 1 j \~QUARTUS_CREATED_ADC1~~eoc\ $end
$var wire 1 k \~QUARTUS_CREATED_ADC2~~eoc\ $end
$var wire 1 l \s[0]~output_o\ $end
$var wire 1 m \s[1]~output_o\ $end
$var wire 1 n \s[2]~output_o\ $end
$var wire 1 o \s[3]~output_o\ $end
$var wire 1 p \s[4]~output_o\ $end
$var wire 1 q \s[5]~output_o\ $end
$var wire 1 r \s[6]~output_o\ $end
$var wire 1 s \s[7]~output_o\ $end
$var wire 1 t \Cout~output_o\ $end
$var wire 1 u \a[0]~input_o\ $end
$var wire 1 v \b[0]~input_o\ $end
$var wire 1 w \I0|I0|I0|HA1|s~0_combout\ $end
$var wire 1 x \sel~input_o\ $end
$var wire 1 y \I0|I0|I0|HA1|Cout~combout\ $end
$var wire 1 z \b[1]~input_o\ $end
$var wire 1 { \I0|I0|I0|HA0|Cout~combout\ $end
$var wire 1 | \a[1]~input_o\ $end
$var wire 1 } \I0|I0|I1|HA1|s~combout\ $end
$var wire 1 ~ \I0|I0|I1|Cout~0_combout\ $end
$var wire 1 !! \b[2]~input_o\ $end
$var wire 1 "! \a[2]~input_o\ $end
$var wire 1 #! \I0|I0|I2|HA1|s~0_combout\ $end
$var wire 1 $! \I0|I0|I2|Cout~0_combout\ $end
$var wire 1 %! \a[3]~input_o\ $end
$var wire 1 &! \b[3]~input_o\ $end
$var wire 1 '! \I0|I0|I3|HA1|s~0_combout\ $end
$var wire 1 (! \I0|I0|I3|Cout~0_combout\ $end
$var wire 1 )! \a[4]~input_o\ $end
$var wire 1 *! \b[4]~input_o\ $end
$var wire 1 +! \I0|I1|I0|HA1|s~0_combout\ $end
$var wire 1 ,! \a[5]~input_o\ $end
$var wire 1 -! \I0|I1|I0|Cout~0_combout\ $end
$var wire 1 .! \b[5]~input_o\ $end
$var wire 1 /! \I0|I1|I1|HA1|s~0_combout\ $end
$var wire 1 0! \I0|I1|I1|Cout~0_combout\ $end
$var wire 1 1! \b[6]~input_o\ $end
$var wire 1 2! \a[6]~input_o\ $end
$var wire 1 3! \I0|I1|I2|HA1|s~0_combout\ $end
$var wire 1 4! \a[7]~input_o\ $end
$var wire 1 5! \b[7]~input_o\ $end
$var wire 1 6! \I0|I1|I2|Cout~0_combout\ $end
$var wire 1 7! \I0|I1|I3|HA1|s~0_combout\ $end
$var wire 1 8! \I0|I1|I3|Cout~0_combout\ $end
$var wire 1 9! C [7] $end
$var wire 1 :! C [6] $end
$var wire 1 ;! C [5] $end
$var wire 1 <! C [4] $end
$var wire 1 =! C [3] $end
$var wire 1 >! C [2] $end
$var wire 1 ?! C [1] $end
$var wire 1 @! C [0] $end
$upscope $end
$upscope $end
$enddefinitions $end
#0
$dumpvars
11
1:
0;
1<
x=
1>
1?
1@
1A
1B
1C
1T
1]
0h
zi
zj
zk
0l
0m
0n
0o
0p
0q
0r
0s
1t
0u
0v
0w
1x
1y
0z
0{
0|
0}
1~
0!!
0"!
0#!
1$!
0%!
0&!
0'!
1(!
0)!
0*!
0+!
0,!
1-!
0.!
0/!
10!
01!
02!
03!
04!
05!
16!
07!
18!
0!
0"
0#
0$
0%
0&
0'
0(
0)
0*
0+
0,
0-
0.
0/
00
02
03
04
05
06
07
08
09
0D
0E
0F
0G
0H
0I
0J
0K
0L
0M
0N
0O
0P
0Q
0R
0S
0U
0V
0W
0X
0Y
0Z
0[
0\
x9!
x:!
x;!
x<!
x=!
x>!
1?!
x@!
0^
0_
0`
0a
0b
0c
0d
0e
0f
0g
$end
#50000
1(
1.
10
1K
1S
1Q
1!!
1v
1u
1#!
0$!
1n
1'!
0(!
1Z
1o
1+!
0-!
17
1Y
1p
1/!
00!
16
1X
1q
13!
06!
15
1W
1r
17!
08!
14
1V
0t
1s
13
0]
1U
01
12
#100000
0(
0.
00
0:
1'
1-
1/
0K
1J
0S
1R
0Q
1P
0T
0x
1&!
0!!
1z
0v
1|
0u
1}
0y
0+!
0/!
03!
07!
0s
0r
0q
0p
1m
0}
0U
0V
0W
0X
1[
0m
18
05
04
03
02
0[
08
#150000
1(
1.
10
1:
1K
1S
1Q
1T
1x
1!!
1v
1u
1y
0?!
0'!
1+!
1/!
13!
17!
1s
1r
1q
1p
0o
1U
1V
1W
1X
0Y
06
15
14
13
12
#200000
0(
00
0'
0-
0/
1&
1,
0K
0J
1I
0S
0R
0P
1O
1*!
0&!
0z
0v
1"!
0|
0u
1}
0~
0#!
1$!
1?!
1'!
0+!
0p
1o
0n
1m
0}
1~
0'!
1(!
1#!
0$!
0X
1Y
0Z
1[
1n
0o
0m
1'!
0(!
1+!
0#!
1$!
18
07
16
05
1Z
0Y
0[
0n
1p
1o
0'!
1(!
0+!
08
17
06
0Z
1X
1Y
0p
0o
1+!
07
16
15
0X
0Y
1p
06
05
1X
15
#250000
1(
10
1-
0.
0:
1K
1S
0Q
1P
0T
0x
1&!
0!!
1v
1u
0y
0?!
1{
0+!
1-!
0/!
03!
07!
0s
0r
0q
0p
1/!
1}
0~
0U
0V
0W
0X
1m
1q
1#!
0$!
05
04
03
02
1[
1W
1n
1'!
0(!
18
14
1Z
1o
1+!
0-!
17
1Y
1p
0/!
16
1X
0q
15
0W
04
#300000
0(
00
1.
1:
1'
1/
0K
1J
0S
1R
1Q
1T
1x
1!!
1z
0v
1|
0u
0}
1~
1y
0{
0'!
0+!
1/!
13!
17!
1s
1r
1q
0p
0o
0m
0#!
1$!
1U
1V
1W
0X
0Y
0[
0n
1'!
08
06
05
14
13
12
0Z
1o
07
1Y
16
#350000
1(
10
0.
0:
0-
0,
1+
1K
1S
0Q
0P
0O
1N
0T
0x
1.!
0*!
0&!
0!!
1v
1u
0y
1?!
1{
03!
07!
0s
0r
1}
0U
0V
1m
03
02
1[
18
#400000
0(
00
1:
1-
0'
0/
0&
1%
0K
0J
0I
1H
0S
0R
1P
1T
1x
1&!
0z
0v
1%!
0"!
0|
0u
0}
1y
0{
0'!
1(!
1+!
0/!
13!
17!
1s
1r
0q
1p
0o
0m
0+!
1-!
1U
1V
0W
1X
0Y
0[
0p
1/!
08
06
15
04
13
12
0X
1q
05
1W
14
#450000
1(
10
0:
1.
1K
1S
1Q
0T
0x
1!!
1v
1u
0y
0?!
1{
1'!
1+!
0-!
0/!
10!
03!
07!
0s
0r
0q
1p
1o
13!
1/!
00!
1}
0~
0U
0V
0W
1X
1Y
1m
1q
1r
1#!
0$!
03!
16
15
04
03
02
1[
1W
1V
0r
1n
0'!
18
14
13
0V
1Z
0o
17
03
0Y
06
#500000
0(
00
1:
0.
0-
1'
1/
1,
0K
1J
0S
1R
0Q
0P
1O
1T
1x
1*!
0&!
0!!
1z
0v
1|
0u
0}
1~
1y
0{
0/!
13!
17!
1s
1r
0q
0m
0#!
1$!
1U
1V
0W
0[
0n
1'!
08
04
13
12
0Z
1o
07
1Y
16
#550000
1(
10
0:
1.
1K
1S
1Q
0T
0x
1!!
1v
1u
0y
1?!
1{
0'!
0+!
1-!
1/!
03!
07!
0s
0r
1q
0p
0o
0/!
10!
1}
0U
0V
1W
0X
0Y
1m
0q
13!
06
05
14
03
02
1[
0W
1r
18
04
1V
13
#600000
0(
00
1:
1-
0'
0/
1&
0K
0J
1I
0S
0R
1P
1T
1x
1&!
0z
0v
1"!
0|
0u
0}
1y
0{
1+!
0-!
1/!
00!
03!
16!
17!
1s
0r
1q
1p
0m
07!
18!
13!
06!
0/!
1U
0V
1W
1X
0[
0q
1r
1t
0s
17!
08!
08
15
14
03
12
0W
1V
1]
0U
0t
1s
04
13
02
11
0]
1U
01
12
#650000
1(
10
0:
0-
0.
0,
0+
1*
1K
1S
0Q
0P
0O
0N
1M
0T
0x
11!
0.!
0*!
0&!
0!!
1v
1u
0y
0?!
1{
07!
0s
1}
0~
0U
1m
1#!
0$!
02
1[
1n
1'!
0(!
18
1Z
1o
0+!
17
1Y
0p
16
0X
05
#700000
0(
00
1.
1'
1/
0K
1J
0S
1R
1Q
1!!
1z
0v
1|
0u
0}
1~
0{
1?!
0#!
1$!
0n
0m
0'!
1(!
1#!
0Z
0[
1n
0o
1+!
08
07
1Z
0Y
1p
17
06
1X
15
#750000
1(
10
0.
1-
1K
1S
0Q
1P
1&!
0!!
1v
1u
1{
0#!
1'!
1o
0n
1}
1Y
0Z
1m
07
16
1[
18
#800000
0(
00
0-
0'
0/
1,
0&
0%
1$
0K
0J
0I
0H
1G
0S
0R
0P
1O
1*!
0&!
0z
0v
1)!
0%!
0"!
0|
0u
0}
1#!
0$!
0{
0?!
0(!
1-!
1n
0m
1/!
0+!
0~
0'!
1Z
0[
0o
0p
1q
0#!
08
17
0Y
0X
1W
0n
06
05
14
0Z
07
#850000
1(
10
1.
1:
1K
1S
1Q
1T
1x
1!!
1v
1u
1y
1?!
1'!
1+!
0-!
0/!
10!
03!
17!
1s
0r
0q
1p
1o
13!
1/!
00!
1~
1U
0V
0W
1X
1Y
1q
1r
1#!
03!
16
15
04
03
12
1W
1V
0r
1n
14
13
0V
1Z
17
03
#900000
0(
00
0.
1-
1'
1/
0K
1J
0S
1R
0Q
1P
1&!
0!!
1z
0v
1|
0u
1}
0?!
0#!
1$!
0'!
0o
0n
1m
1'!
0}
0Y
0Z
1[
0m
1o
18
07
06
0[
1Y
08
16
#950000
1(
10
1.
1K
1S
1Q
1!!
1v
1u
1#!
0$!
1n
0'!
1Z
0o
17
0Y
06
