FA/simulation/qsim/FA.msim.vcd
$comment
	File created using the following command:
		vcd file FA.msim.vcd -direction
$end
$date
	Mon Feb 19 00:16:50 2024
$end
$version
	ModelSim Version 10.5b
$end
$timescale
	1ps
$end

$scope module fa_vhd_vec_tst $end
$var wire 1 ! a $end
$var wire 1 " b $end
$var wire 1 # Cin $end
$var wire 1 $ Cout $end
$var wire 1 % s $end

$scope module i1 $end
$var wire 1 & gnd $end
$var wire 1 ' vcc $end
$var wire 1 ( unknown $end
$var wire 1 ) devoe $end
$var wire 1 * devclrn $end
$var wire 1 + devpor $end
$var wire 1 , ww_devoe $end
$var wire 1 - ww_devclrn $end
$var wire 1 . ww_devpor $end
$var wire 1 / ww_a $end
$var wire 1 0 ww_b $end
$var wire 1 1 ww_Cin $end
$var wire 1 2 ww_s $end
$var wire 1 3 ww_Cout $end
$var wire 1 4 \~QUARTUS_CREATED_ADC1~_CHSEL_bus\ [4] $end
$var wire 1 5 \~QUARTUS_CREATED_ADC1~_CHSEL_bus\ [3] $end
$var wire 1 6 \~QUARTUS_CREATED_ADC1~_CHSEL_bus\ [2] $end
$var wire 1 7 \~QUARTUS_CREATED_ADC1~_CHSEL_bus\ [1] $end
$var wire 1 8 \~QUARTUS_CREATED_ADC1~_CHSEL_bus\ [0] $end
$var wire 1 9 \~QUARTUS_CREATED_GND~I_combout\ $end
$var wire 1 : \~QUARTUS_CREATED_UNVM~~busy\ $end
$var wire 1 ; \~QUARTUS_CREATED_ADC1~~eoc\ $end
$var wire 1 < \s~output_o\ $end
$var wire 1 = \Cout~output_o\ $end
$var wire 1 > \a~input_o\ $end
$var wire 1 ? \b~input_o\ $end
$var wire 1 @ \Cin~input_o\ $end
$var wire 1 A \HA1|s~0_combout\ $end
$var wire 1 B \Cout~0_combout\ $end
$upscope $end
$upscope $end
$enddefinitions $end
#0
$dumpvars
0!
0"
0#
0$
0%
0&
1'
x(
1)
1*
1+
1,
1-
1.
0/
00
01
02
03
09
z:
z;
0<
0=
0>
0?
0@
0A
0B
04
05
06
07
08
$end
#50000
1!
1/
1>
1A
1<
12
1%
#100000
0!
1"
0/
10
1?
0>
#150000
1!
1/
1>
0A
1B
1=
0<
13
02
1$
0%
#200000
0!
0"
1#
0/
00
11
1@
0?
0>
1A
0B
0=
1<
03
12
0$
1%
#250000
1!
1/
1>
0A
1B
1=
0<
13
02
1$
0%
#300000
0!
1"
0/
10
1?
0>
#350000
1!
1/
1>
1A
1<
12
1%
#400000
0!
0"
0#
0/
00
01
0@
0?
0>
0A
0B
0=
0<
03
02
0$
0%
#450000
1!
1/
1>
1A
1<
12
1%
#500000
0!
1"
0/
10
1?
0>
#550000
1!
1/
1>
0A
1B
1=
0<
13
02
1$
0%
#600000
0!
0"
1#
0/
00
11
1@
0?
0>
1A
0B
0=
1<
03
12
0$
1%
#650000
1!
1/
1>
0A
1B
1=
0<
13
02
1$
0%
#700000
0!
1"
0/
10
1?
0>
#750000
1!
1/
1>
1A
1<
12
1%
#800000
0!
0"
0#
0/
00
01
0@
0?
0>
0A
0B
0=
0<
03
02
0$
0%
#850000
1!
1/
1>
1A
1<
12
1%
#900000
0!
1"
0/
10
1?
0>
#950000
1!
1/
1>
0A
1B
1=
0<
13
02
1$
0%
