EXPARITH/simulation/qsim/EXPARITH.msim.vcd
$comment
	File created using the following command:
		vcd file EXPARITH.msim.vcd -direction
$end
$date
	Fri Mar 08 15:16:26 2024
$end
$version
	ModelSim Version 10.5b
$end
$timescale
	1ps
$end

$scope module exparith_vhd_vec_tst $end
$var wire 1 ! btn_dec $end
$var wire 1 " btn_inc $end
$var wire 1 # clk $end
$var wire 1 $ reset $end
$var wire 1 % valor [9] $end
$var wire 1 & valor [8] $end
$var wire 1 ' valor [7] $end
$var wire 1 ( valor [6] $end
$var wire 1 ) valor [5] $end
$var wire 1 * valor [4] $end
$var wire 1 + valor [3] $end
$var wire 1 , valor [2] $end
$var wire 1 - valor [1] $end
$var wire 1 . valor [0] $end
$var wire 1 / valor2 [9] $end
$var wire 1 0 valor2 [8] $end
$var wire 1 1 valor2 [7] $end
$var wire 1 2 valor2 [6] $end
$var wire 1 3 valor2 [5] $end
$var wire 1 4 valor2 [4] $end
$var wire 1 5 valor2 [3] $end
$var wire 1 6 valor2 [2] $end
$var wire 1 7 valor2 [1] $end
$var wire 1 8 valor2 [0] $end

$scope module i1 $end
$var wire 1 9 gnd $end
$var wire 1 : vcc $end
$var wire 1 ; unknown $end
$var wire 1 < devoe $end
$var wire 1 = devclrn $end
$var wire 1 > devpor $end
$var wire 1 ? ww_devoe $end
$var wire 1 @ ww_devclrn $end
$var wire 1 A ww_devpor $end
$var wire 1 B ww_clk $end
$var wire 1 C ww_reset $end
$var wire 1 D ww_btn_inc $end
$var wire 1 E ww_btn_dec $end
$var wire 1 F ww_valor [9] $end
$var wire 1 G ww_valor [8] $end
$var wire 1 H ww_valor [7] $end
$var wire 1 I ww_valor [6] $end
$var wire 1 J ww_valor [5] $end
$var wire 1 K ww_valor [4] $end
$var wire 1 L ww_valor [3] $end
$var wire 1 M ww_valor [2] $end
$var wire 1 N ww_valor [1] $end
$var wire 1 O ww_valor [0] $end
$var wire 1 P ww_valor2 [9] $end
$var wire 1 Q ww_valor2 [8] $end
$var wire 1 R ww_valor2 [7] $end
$var wire 1 S ww_valor2 [6] $end
$var wire 1 T ww_valor2 [5] $end
$var wire 1 U ww_valor2 [4] $end
$var wire 1 V ww_valor2 [3] $end
$var wire 1 W ww_valor2 [2] $end
$var wire 1 X ww_valor2 [1] $end
$var wire 1 Y ww_valor2 [0] $end
$var wire 1 Z \~QUARTUS_CREATED_ADC1~_CHSEL_bus\ [4] $end
$var wire 1 [ \~QUARTUS_CREATED_ADC1~_CHSEL_bus\ [3] $end
$var wire 1 \ \~QUARTUS_CREATED_ADC1~_CHSEL_bus\ [2] $end
$var wire 1 ] \~QUARTUS_CREATED_ADC1~_CHSEL_bus\ [1] $end
$var wire 1 ^ \~QUARTUS_CREATED_ADC1~_CHSEL_bus\ [0] $end
$var wire 1 _ \reset~inputclkctrl_INCLK_bus\ [3] $end
$var wire 1 ` \reset~inputclkctrl_INCLK_bus\ [2] $end
$var wire 1 a \reset~inputclkctrl_INCLK_bus\ [1] $end
$var wire 1 b \reset~inputclkctrl_INCLK_bus\ [0] $end
$var wire 1 c \clk~inputclkctrl_INCLK_bus\ [3] $end
$var wire 1 d \clk~inputclkctrl_INCLK_bus\ [2] $end
$var wire 1 e \clk~inputclkctrl_INCLK_bus\ [1] $end
$var wire 1 f \clk~inputclkctrl_INCLK_bus\ [0] $end
$var wire 1 g \~QUARTUS_CREATED_GND~I_combout\ $end
$var wire 1 h \~QUARTUS_CREATED_UNVM~~busy\ $end
$var wire 1 i \~QUARTUS_CREATED_ADC1~~eoc\ $end
$var wire 1 j \valor[0]~output_o\ $end
$var wire 1 k \valor[1]~output_o\ $end
$var wire 1 l \valor[2]~output_o\ $end
$var wire 1 m \valor[3]~output_o\ $end
$var wire 1 n \valor[4]~output_o\ $end
$var wire 1 o \valor[5]~output_o\ $end
$var wire 1 p \valor[6]~output_o\ $end
$var wire 1 q \valor[7]~output_o\ $end
$var wire 1 r \valor[8]~output_o\ $end
$var wire 1 s \valor[9]~output_o\ $end
$var wire 1 t \valor2[0]~output_o\ $end
$var wire 1 u \valor2[1]~output_o\ $end
$var wire 1 v \valor2[2]~output_o\ $end
$var wire 1 w \valor2[3]~output_o\ $end
$var wire 1 x \valor2[4]~output_o\ $end
$var wire 1 y \valor2[5]~output_o\ $end
$var wire 1 z \valor2[6]~output_o\ $end
$var wire 1 { \valor2[7]~output_o\ $end
$var wire 1 | \valor2[8]~output_o\ $end
$var wire 1 } \valor2[9]~output_o\ $end
$var wire 1 ~ \clk~input_o\ $end
$var wire 1 !! \clk~inputclkctrl_outclk\ $end
$var wire 1 "! \btn_inc~input_o\ $end
$var wire 1 #! \Add1~1\ $end
$var wire 1 $! \Add1~2_combout\ $end
$var wire 1 %! \Add0~1\ $end
$var wire 1 &! \Add0~2_combout\ $end
$var wire 1 '! \valor_int~8_combout\ $end
$var wire 1 (! \valor_int~9_combout\ $end
$var wire 1 )! \reset~input_o\ $end
$var wire 1 *! \reset~inputclkctrl_outclk\ $end
$var wire 1 +! \btn_dec~input_o\ $end
$var wire 1 ,! \valor_int[0]~7_combout\ $end
$var wire 1 -! \Add1~3\ $end
$var wire 1 .! \Add1~4_combout\ $end
$var wire 1 /! \Add0~3\ $end
$var wire 1 0! \Add0~4_combout\ $end
$var wire 1 1! \valor_int~10_combout\ $end
$var wire 1 2! \valor_int~11_combout\ $end
$var wire 1 3! \Add1~5\ $end
$var wire 1 4! \Add1~6_combout\ $end
$var wire 1 5! \Add0~5\ $end
$var wire 1 6! \Add0~6_combout\ $end
$var wire 1 7! \valor_int~12_combout\ $end
$var wire 1 8! \valor_int~13_combout\ $end
$var wire 1 9! \Add1~7\ $end
$var wire 1 :! \Add1~8_combout\ $end
$var wire 1 ;! \Add0~7\ $end
$var wire 1 <! \Add0~8_combout\ $end
$var wire 1 =! \valor_int~15_combout\ $end
$var wire 1 >! \Add0~9\ $end
$var wire 1 ?! \Add0~10_combout\ $end
$var wire 1 @! \Add1~9\ $end
$var wire 1 A! \Add1~10_combout\ $end
$var wire 1 B! \valor_int~16_combout\ $end
$var wire 1 C! \valor_int~26_combout\ $end
$var wire 1 D! \Add1~11\ $end
$var wire 1 E! \Add1~12_combout\ $end
$var wire 1 F! \Add0~11\ $end
$var wire 1 G! \Add0~12_combout\ $end
$var wire 1 H! \valor_int~17_combout\ $end
$var wire 1 I! \valor_int~27_combout\ $end
$var wire 1 J! \Add0~13\ $end
$var wire 1 K! \Add0~15\ $end
$var wire 1 L! \Add0~16_combout\ $end
$var wire 1 M! \Add1~13\ $end
$var wire 1 N! \Add1~15\ $end
$var wire 1 O! \Add1~16_combout\ $end
$var wire 1 P! \valor_int[8]~20_combout\ $end
$var wire 1 Q! \valor_int[8]~21_combout\ $end
$var wire 1 R! \Add0~17\ $end
$var wire 1 S! \Add0~18_combout\ $end
$var wire 1 T! \valor_int[9]~22_combout\ $end
$var wire 1 U! \Add1~17\ $end
$var wire 1 V! \Add1~18_combout\ $end
$var wire 1 W! \valor_int[9]~23_combout\ $end
$var wire 1 X! \valor_int[8]~24_combout\ $end
$var wire 1 Y! \LessThan0~0_combout\ $end
$var wire 1 Z! \LessThan0~1_combout\ $end
$var wire 1 [! \LessThan0~2_combout\ $end
$var wire 1 \! \valor_int~14_combout\ $end
$var wire 1 ]! \Add1~14_combout\ $end
$var wire 1 ^! \Add0~14_combout\ $end
$var wire 1 _! \valor_int[7]~18_combout\ $end
$var wire 1 `! \valor_int[7]~19_combout\ $end
$var wire 1 a! \LessThan2~0_combout\ $end
$var wire 1 b! \LessThan2~1_combout\ $end
$var wire 1 c! \LessThan2~2_combout\ $end
$var wire 1 d! \Add0~0_combout\ $end
$var wire 1 e! \Add1~0_combout\ $end
$var wire 1 f! \valor_int~6_combout\ $end
$var wire 1 g! \valor_int~25_combout\ $end
$var wire 1 h! \Add2~2_combout\ $end
$var wire 1 i! \LessThan3~0_combout\ $end
$var wire 1 j! \Add2~4_combout\ $end
$var wire 1 k! \Add2~3\ $end
$var wire 1 l! \Add2~6_combout\ $end
$var wire 1 m! \Add3~1\ $end
$var wire 1 n! \Add3~2_combout\ $end
$var wire 1 o! \Add2~5_combout\ $end
$var wire 1 p! \Add2~8_combout\ $end
$var wire 1 q! \valor_int2[0]~4_combout\ $end
$var wire 1 r! \Add2~7\ $end
$var wire 1 s! \Add2~9_combout\ $end
$var wire 1 t! \Add3~3\ $end
$var wire 1 u! \Add3~4_combout\ $end
$var wire 1 v! \valor_int2~5_combout\ $end
$var wire 1 w! \valor_int2~6_combout\ $end
$var wire 1 x! \Add2~10\ $end
$var wire 1 y! \Add2~11_combout\ $end
$var wire 1 z! \Add3~5\ $end
$var wire 1 {! \Add3~6_combout\ $end
$var wire 1 |! \valor_int2~7_combout\ $end
$var wire 1 }! \valor_int2~8_combout\ $end
$var wire 1 ~! \Add2~12\ $end
$var wire 1 !" \Add2~13_combout\ $end
$var wire 1 "" \Add3~7\ $end
$var wire 1 #" \Add3~8_combout\ $end
$var wire 1 $" \valor_int2~9_combout\ $end
$var wire 1 %" \valor_int2~10_combout\ $end
$var wire 1 &" \Add2~14\ $end
$var wire 1 '" \Add2~15_combout\ $end
$var wire 1 (" \Add3~9\ $end
$var wire 1 )" \Add3~10_combout\ $end
$var wire 1 *" \valor_int2~11_combout\ $end
$var wire 1 +" \valor_int2~12_combout\ $end
$var wire 1 ," \Add2~16\ $end
$var wire 1 -" \Add2~18\ $end
$var wire 1 ." \Add2~19_combout\ $end
$var wire 1 /" \valor_int2[7]~16_combout\ $end
$var wire 1 0" \Add3~11\ $end
$var wire 1 1" \Add3~13\ $end
$var wire 1 2" \Add3~14_combout\ $end
$var wire 1 3" \LessThan5~4_combout\ $end
$var wire 1 4" \valor_int2[7]~17_combout\ $end
$var wire 1 5" \valor_int2[7]~18_combout\ $end
$var wire 1 6" \Add3~15\ $end
$var wire 1 7" \Add3~17\ $end
$var wire 1 8" \Add3~18_combout\ $end
$var wire 1 9" \Add2~20\ $end
$var wire 1 :" \Add2~22\ $end
$var wire 1 ;" \Add2~25_combout\ $end
$var wire 1 <" \Add2~27_combout\ $end
$var wire 1 =" \Add2~28_combout\ $end
$var wire 1 >" \LessThan3~1_combout\ $end
$var wire 1 ?" \Add2~21_combout\ $end
$var wire 1 @" \Add3~16_combout\ $end
$var wire 1 A" \Add2~23_combout\ $end
$var wire 1 B" \Add2~24_combout\ $end
$var wire 1 C" \Add2~29_combout\ $end
$var wire 1 D" \LessThan5~3_combout\ $end
$var wire 1 E" \Add3~12_combout\ $end
$var wire 1 F" \valor_int2[6]~13_combout\ $end
$var wire 1 G" \Add2~17_combout\ $end
$var wire 1 H" \valor_int2[6]~14_combout\ $end
$var wire 1 I" \valor_int2[6]~15_combout\ $end
$var wire 1 J" \LessThan5~0_combout\ $end
$var wire 1 K" \LessThan5~1_combout\ $end
$var wire 1 L" \LessThan5~2_combout\ $end
$var wire 1 M" \valor_int2[0]~19_combout\ $end
$var wire 1 N" \Add3~0_combout\ $end
$var wire 1 O" \valor_int2~2_combout\ $end
$var wire 1 P" \valor_int2~3_combout\ $end
$var wire 1 Q" valor_int [9] $end
$var wire 1 R" valor_int [8] $end
$var wire 1 S" valor_int [7] $end
$var wire 1 T" valor_int [6] $end
$var wire 1 U" valor_int [5] $end
$var wire 1 V" valor_int [4] $end
$var wire 1 W" valor_int [3] $end
$var wire 1 X" valor_int [2] $end
$var wire 1 Y" valor_int [1] $end
$var wire 1 Z" valor_int [0] $end
$var wire 1 [" valor_int2 [9] $end
$var wire 1 \" valor_int2 [8] $end
$var wire 1 ]" valor_int2 [7] $end
$var wire 1 ^" valor_int2 [6] $end
$var wire 1 _" valor_int2 [5] $end
$var wire 1 `" valor_int2 [4] $end
$var wire 1 a" valor_int2 [3] $end
$var wire 1 b" valor_int2 [2] $end
$var wire 1 c" valor_int2 [1] $end
$var wire 1 d" valor_int2 [0] $end
$var wire 1 e" \ALT_INV_reset~inputclkctrl_outclk\ $end
$var wire 1 f" ALT_INV_valor_int2 [7] $end
$var wire 1 g" ALT_INV_valor_int2 [6] $end
$var wire 1 h" ALT_INV_valor_int2 [5] $end
$var wire 1 i" ALT_INV_valor_int2 [4] $end
$var wire 1 j" ALT_INV_valor_int2 [3] $end
$var wire 1 k" ALT_INV_valor_int2 [2] $end
$var wire 1 l" ALT_INV_valor_int2 [1] $end
$var wire 1 m" ALT_INV_valor_int [7] $end
$var wire 1 n" ALT_INV_valor_int [6] $end
$var wire 1 o" ALT_INV_valor_int [5] $end
$var wire 1 p" ALT_INV_valor_int [4] $end
$upscope $end
$upscope $end
$enddefinitions $end
#0
$dumpvars
0!
1"
0#
0$
09
1:
x;
1<
1=
1>
1?
1@
1A
0B
0C
1D
0E
0g
zh
zi
0j
0k
0l
0m
1n
0o
0p
1q
0r
0s
0t
1u
0v
0w
0x
0y
1z
1{
0|
0}
0~
0!!
1"!
0#!
1$!
0%!
0&!
0'!
0(!
0)!
0*!
0+!
1,!
1-!
1.!
1/!
00!
01!
02!
03!
14!
05!
06!
07!
08!
19!
0:!
1;!
1<!
0=!
0>!
0?!
1@!
0A!
0B!
0C!
0D!
0E!
1F!
0G!
0H!
0I!
0J!
1K!
0L!
1M!
0N!
0O!
0P!
0Q!
0R!
0S!
0T!
1U!
0V!
0W!
1X!
1Y!
1Z!
1[!
1\!
1]!
1^!
1_!
0`!
0a!
0b!
0c!
1d!
1e!
1f!
1g!
1h!
0i!
1j!
0k!
1l!
0m!
0n!
0o!
0p!
1q!
1r!
0s!
0t!
0u!
0v!
0w!
0x!
0y!
1z!
0{!
0|!
0}!
1~!
0!"
0""
0#"
0$"
0%"
0&"
0'"
1("
0)"
0*"
0+"
1,"
0-"
1."
0/"
00"
11"
12"
03"
14"
05"
06"
17"
08"
19"
0:"
0;"
0<"
0="
1>"
0?"
0@"
0A"
0B"
0C"
0D"
1E"
0F"
1G"
0H"
0I"
0J"
0K"
0L"
1M"
1N"
0O"
1P"
1e"
0F
0G
1H
0I
0J
1K
0L
0M
0N
0O
0P
0Q
1R
1S
0T
0U
0V
0W
1X
0Y
0Q"
0R"
0S"
0T"
0U"
0V"
0W"
0X"
0Y"
0Z"
0["
0\"
0]"
0^"
0_"
0`"
0a"
0b"
0c"
0d"
1f"
1g"
xh"
xi"
xj"
xk"
1l"
1m"
xn"
xo"
1p"
1c
1d
1e
0f
1_
1`
1a
0b
0Z
0[
0\
0]
0^
0%
0&
1'
0(
0)
1*
0+
0,
0-
0.
0/
00
11
12
03
04
05
06
17
08
$end
#500
1#
1B
1~
1f
1!!
1Z"
1d"
1t
1j
0h!
1k!
0N"
1m!
1J"
0e!
1#!
0d!
1%!
1a!
1Y
1O
1b!
1&!
0$!
0-!
0f!
1L"
1n!
0l!
0r!
0P"
18
1.
1s!
1p!
13"
0g!
0.!
13!
1'!
1c!
1(!
04!
09!
1w!
1:!
#1000
0#
0B
0~
0f
0!!
#1500
1#
1B
1~
1f
1!!
1Y"
0Z"
1c"
1b"
0d"
0l"
0t
1v
0j
1k
1h!
0k!
1N"
0m!
0s!
1x!
1u!
1K"
1l!
1r!
0n!
0J"
1e!
0#!
1d!
0%!
1$!
0&!
0/!
0u
0Y
1W
0O
1N
10!
0'!
1&!
1/!
0$!
1f!
1s!
0x!
0p!
1y!
0w!
1n!
1t!
0l!
1P"
0X
08
16
0.
1-
07
1p!
0u!
1}!
0y!
1w!
1g!
00!
1'!
0(!
11!
12!
1(!
01!
0}!
02!
#2000
0#
0B
0~
0f
0!!
#2500
1#
1B
1~
1f
1!!
1Z"
1d"
1t
1j
0h!
1k!
0N"
1m!
0e!
1#!
0d!
1%!
1Y
1O
0&!
0/!
1$!
0f!
0n!
0t!
1l!
0P"
18
1.
0p!
1u!
0g!
10!
0'!
0(!
11!
12!
#3000
0#
0B
0~
0f
0!!
#3500
1#
1B
1~
1f
1!!
0Y"
1X"
0Z"
0c"
0d"
1l"
0t
0j
1l
0k
1h!
0k!
1N"
0m!
0l!
0r!
1n!
1e!
0#!
1d!
0%!
1.!
00!
15!
0$!
1&!
1/!
1u
0Y
0O
1M
0N
10!
05!
1'!
16!
01!
0&!
1$!
1-!
1f!
0s!
1x!
1p!
0n!
1l!
1r!
1P"
1X
08
0.
0-
1,
17
1s!
0x!
0p!
1y!
0w!
1g!
0.!
0'!
02!
17!
1(!
06!
11!
12!
07!
18!
0(!
1}!
0y!
1w!
0}!
08!
#4000
0#
0B
0~
0f
0!!
#4500
1#
1B
1~
1f
1!!
1Z"
1d"
1t
1j
0h!
1k!
0N"
1m!
1J"
0e!
1#!
0d!
1%!
1Y
1O
1&!
0$!
0-!
0f!
1n!
0l!
0r!
0P"
18
1.
0s!
1x!
1p!
0g!
1.!
1'!
1(!
1y!
0w!
1}!
#5000
0#
0B
0~
0f
0!!
#5500
1#
1B
1~
1f
1!!
1Y"
0Z"
1c"
0b"
1a"
0d"
0l"
0t
1w
0v
0j
1k
1h!
0k!
1N"
0m!
0y!
0~!
1{!
1s!
0x!
0u!
1l!
1r!
0n!
0J"
1e!
0#!
1d!
0%!
1$!
0&!
0/!
0u
0Y
1V
0W
0O
1N
00!
15!
0'!
1&!
1/!
0$!
1f!
0s!
0p!
1y!
1~!
1w!
1!"
0}!
1n!
1t!
0l!
1P"
0X
08
06
15
0.
1-
07
1p!
1u!
0z!
1$"
0!"
1}!
0w!
1g!
10!
05!
1'!
0(!
16!
01!
02!
17!
1(!
06!
11!
0$"
1%"
0{!
0%"
12!
07!
18!
08!
#6000
0#
0B
0~
0f
0!!
#6500
1#
1B
1~
1f
1!!
1Z"
1d"
1t
1j
0h!
1k!
0N"
1m!
0e!
1#!
0d!
1%!
1Y
1O
0&!
0/!
1$!
0f!
0n!
0t!
1l!
0P"
18
1.
0p!
0u!
1z!
0g!
00!
15!
0'!
0(!
16!
01!
1{!
02!
17!
18!
#7000
0#
0B
0~
0f
0!!
#7500
1#
1B
1~
1f
1!!
0Y"
0X"
1W"
0Z"
0c"
0d"
1l"
0t
0j
1m
0l
0k
1h!
0k!
1N"
0m!
0l!
0r!
1n!
1e!
0#!
1d!
0%!
14!
06!
0;!
0.!
10!
05!
0$!
1&!
1/!
1u
0Y
0O
1L
0M
0N
00!
1'!
16!
1;!
11!
0<!
1>!
07!
0&!
1$!
1-!
1f!
1s!
1p!
0n!
1l!
1r!
1P"
1X
08
0.
0-
0,
1+
17
0s!
0p!
1w!
1g!
1.!
03!
0'!
08!
1?!
1=!
12!
1<!
0>!
17!
1(!
01!
02!
18!
0?!
0=!
1B!
0(!
04!
0w!
1C!
0B!
0C!
#8000
0#
0B
0~
0f
0!!
#8500
1#
1B
1~
1f
1!!
1Z"
1d"
1t
1j
0h!
1k!
0N"
1m!
1J"
0e!
1#!
0d!
1%!
1Y
1O
1&!
0$!
0-!
0f!
1n!
0l!
0r!
0P"
18
1.
1s!
1p!
0g!
0.!
13!
1'!
1(!
14!
1w!
#9000
0#
0B
0~
0f
0!!
#9500
1#
1B
1~
1f
1!!
1Y"
0Z"
1c"
1b"
0d"
0l"
0t
1v
0j
1k
1h!
0k!
1N"
0m!
0s!
1x!
1u!
1l!
1r!
0n!
0J"
1e!
0#!
1d!
0%!
1$!
0&!
0/!
0u
0Y
1W
0O
1N
10!
0'!
1&!
1/!
0$!
1f!
1s!
0x!
0p!
0y!
0~!
0w!
1n!
1t!
0l!
1P"
0X
08
16
0.
1-
07
1p!
0u!
1!"
0}!
1y!
1~!
1w!
1g!
00!
1'!
0(!
11!
12!
1(!
01!
0!"
1}!
1$"
1%"
0$"
02!
0%"
#10000
0#
0B
0~
0f
0!!
#10500
1#
1B
1~
1f
1!!
1Z"
1d"
1t
1j
0h!
1k!
0N"
1m!
0e!
1#!
0d!
1%!
1Y
1O
0&!
0/!
1$!
0f!
0n!
0t!
1l!
0P"
18
1.
0p!
1u!
0g!
10!
0'!
0(!
11!
12!
#11000
0#
0B
0~
0f
0!!
#11500
1#
1B
1~
1f
1!!
0Y"
1X"
0Z"
0c"
0d"
1l"
0t
0j
1l
0k
1h!
0k!
1N"
0m!
0l!
0r!
1n!
1e!
0#!
1d!
0%!
1.!
00!
15!
0$!
1&!
1/!
1u
0Y
0O
1M
0N
10!
05!
1'!
06!
0;!
01!
0&!
1$!
1-!
1f!
0s!
1x!
1p!
0n!
1l!
1r!
1P"
1X
08
0.
0-
1,
17
1s!
0x!
0p!
0y!
0~!
0w!
1g!
0.!
0'!
02!
0<!
1>!
07!
1(!
16!
1;!
11!
12!
1<!
0>!
17!
08!
1?!
1=!
0(!
1!"
0}!
1y!
1~!
1w!
0!"
1}!
1$"
1B!
18!
0?!
0=!
0B!
1C!
1%"
0$"
0%"
0C!
#12000
0#
0B
0~
0f
0!!
#12500
1#
1B
1~
1f
1!!
1Z"
1d"
1t
1j
0h!
1k!
0N"
1m!
1J"
0e!
1#!
0d!
1%!
1Y
1O
1&!
0$!
0-!
0f!
1n!
0l!
0r!
0P"
18
1.
0s!
1x!
1p!
0g!
1.!
1'!
1(!
0y!
0~!
0w!
1!"
0}!
1$"
1%"
#13000
0#
0B
0~
0f
0!!
#13500
1#
1B
1~
1f
1!!
1Y"
0Z"
1c"
0b"
0a"
1`"
0d"
0l"
0t
1x
0w
0v
0j
1k
1h!
0k!
1N"
0m!
0!"
1&"
1#"
1y!
1~!
0{!
1s!
0x!
0u!
0K"
1l!
1r!
0n!
1e!
0#!
1d!
0%!
1$!
0&!
0/!
0Z!
0u
0Y
1U
0V
0W
0O
1N
00!
15!
0'!
1&!
1/!
0$!
1f!
0s!
0p!
0y!
1w!
1!"
0&"
1}!
1'"
0$"
1n!
1t!
0l!
1P"
0X
08
06
05
14
0.
1-
07
1p!
1u!
0z!
0%"
1+"
0'"
1$"
0}!
0w!
1g!
10!
05!
1'!
0(!
06!
0;!
01!
02!
0<!
1>!
07!
1(!
16!
1;!
11!
1%"
0+"
1{!
1""
0#"
12!
1<!
0>!
17!
08!
1?!
1=!
1B!
18!
0?!
0=!
0B!
1C!
0C!
#14000
0#
0B
0~
0f
0!!
#14500
1#
1B
1~
1f
1!!
1Z"
1d"
1t
1j
0h!
1k!
0N"
1m!
0e!
1#!
0d!
1%!
1Y
1O
0&!
0/!
1$!
0f!
0n!
0t!
1l!
0P"
18
1.
0p!
0u!
1z!
0g!
00!
15!
0'!
0(!
06!
0;!
01!
0{!
0""
1#"
02!
0<!
1>!
07!
08!
1?!
1=!
1B!
1C!
#15000
0#
0B
0~
0f
0!!
#15500
1#
1B
1~
1f
1!!
0Y"
0X"
0W"
1V"
1U"
0Z"
0c"
0d"
1l"
0p"
0t
0j
1o
0m
0l
0k
1h!
0k!
1N"
0m!
0l!
0r!
1n!
1e!
0#!
1d!
0%!
0?!
0F!
1A!
0:!
1<!
0>!
04!
16!
1;!
0.!
10!
05!
0$!
1&!
1/!
1Z!
0a!
0n
1u
0Y
0O
1J
0L
0M
0N
00!
1'!
06!
11!
0<!
17!
1?!
1F!
0=!
1G!
0B!
0&!
1$!
1-!
1f!
1s!
1p!
0n!
1l!
1r!
1P"
0K
1X
08
0.
0-
0,
0+
1)
0*
17
0s!
0p!
1w!
1g!
1.!
03!
0'!
0C!
1H!
0G!
1B!
18!
1=!
12!
07!
1(!
01!
02!
08!
1C!
0H!
1I!
0(!
14!
19!
0w!
1:!
0@!
0I!
0A!
#16000
0#
0B
0~
0f
0!!
#16500
1#
1B
1~
1f
1!!
1Z"
1d"
1t
1j
0h!
1k!
0N"
1m!
0e!
1#!
0d!
1%!
1a!
1Y
1O
1&!
0$!
0-!
0f!
1n!
0l!
0r!
0P"
18
1.
1s!
1p!
0g!
0.!
13!
1'!
1(!
04!
09!
1w!
0:!
1@!
1A!
#17000
0#
0B
0~
0f
0!!
#17500
1#
1B
1~
1f
1!!
1Y"
0Z"
1c"
1b"
0d"
0l"
0t
1v
0j
1k
1h!
0k!
1N"
0m!
0s!
1x!
1u!
1K"
1l!
1r!
0n!
1e!
0#!
1d!
0%!
1$!
0&!
0/!
0u
0Y
1W
0O
1N
10!
0'!
1&!
1/!
0$!
1f!
1s!
0x!
0p!
1y!
0w!
1n!
1t!
0l!
1P"
0X
08
16
0.
1-
07
1p!
0u!
1}!
0y!
1w!
1g!
00!
1'!
0(!
11!
12!
1(!
01!
0}!
02!
#18000
0#
0B
0~
0f
0!!
#18500
1#
1B
1~
1f
1!!
1Z"
1d"
1t
1j
0h!
1k!
0N"
1m!
0e!
1#!
0d!
1%!
1Y
1O
0&!
0/!
1$!
0f!
0n!
0t!
1l!
0P"
18
1.
0p!
1u!
0g!
10!
0'!
0(!
11!
12!
#19000
0#
0B
0~
0f
0!!
#19500
1#
1B
1~
1f
1!!
0Y"
1X"
0Z"
0c"
0d"
1l"
0t
0j
1l
0k
1h!
0k!
1N"
0m!
0l!
0r!
1n!
1e!
0#!
1d!
0%!
1.!
00!
15!
0$!
1&!
1/!
1u
0Y
0O
1M
0N
10!
05!
1'!
16!
01!
0&!
1$!
1-!
1f!
0s!
1x!
1p!
0n!
1l!
1r!
1P"
1X
08
0.
0-
1,
17
1s!
0x!
0p!
1y!
0w!
1g!
0.!
0'!
02!
17!
1(!
06!
11!
12!
07!
18!
0(!
1}!
0y!
1w!
0}!
08!
#20000
0#
0B
0~
0f
0!!
#20500
1#
1B
1~
1f
1!!
1Z"
1d"
1t
1j
0h!
1k!
0N"
1m!
0e!
1#!
0d!
1%!
1Y
1O
1&!
0$!
0-!
0f!
1n!
0l!
0r!
0P"
18
1.
0s!
1x!
1p!
0g!
1.!
1'!
1(!
1y!
0w!
1}!
#21000
0#
0B
0~
0f
0!!
#21500
1#
1B
1~
1f
1!!
1Y"
0Z"
1c"
0b"
1a"
0d"
0l"
0t
1w
0v
0j
1k
1h!
0k!
1N"
0m!
0y!
0~!
1{!
1s!
0x!
0u!
1l!
1r!
0n!
1e!
0#!
1d!
0%!
1$!
0&!
0/!
0u
0Y
1V
0W
0O
1N
00!
15!
0'!
1&!
1/!
0$!
1f!
0s!
0p!
1y!
1~!
1w!
0!"
1&"
0}!
1n!
1t!
0l!
1P"
0X
08
06
15
0.
1-
07
1p!
1u!
0z!
1'"
0$"
1!"
0&"
1}!
0w!
1g!
10!
05!
1'!
0(!
16!
01!
02!
17!
1(!
06!
11!
0'"
1$"
0%"
1+"
0{!
1%"
0+"
12!
07!
18!
08!
#22000
0#
0B
0~
0f
0!!
#22500
1#
1B
1~
1f
1!!
1Z"
1d"
1t
1j
0h!
1k!
0N"
1m!
0e!
1#!
0d!
1%!
1Y
1O
0&!
0/!
1$!
0f!
0n!
0t!
1l!
0P"
18
1.
0p!
0u!
1z!
0g!
00!
15!
0'!
0(!
16!
01!
1{!
02!
17!
18!
#23000
0#
0B
0~
0f
0!!
#23500
1#
1B
1~
1f
1!!
0Y"
0X"
1W"
0Z"
0c"
0d"
1l"
0t
0j
1m
0l
0k
1h!
0k!
1N"
0m!
0l!
0r!
1n!
1e!
0#!
1d!
0%!
14!
06!
0;!
0.!
10!
05!
0$!
1&!
1/!
1u
0Y
0O
1L
0M
0N
00!
1'!
16!
1;!
11!
1<!
07!
0&!
1$!
1-!
1f!
1s!
1p!
0n!
1l!
1r!
1P"
1X
08
0.
0-
0,
1+
17
0s!
0p!
1w!
1g!
1.!
03!
0'!
08!
0=!
12!
0<!
17!
1(!
01!
02!
18!
1=!
0(!
04!
0w!
#24000
0#
0B
0~
0f
0!!
#24500
1#
1B
1~
1f
1!!
1Z"
1d"
1t
1j
0h!
1k!
0N"
1m!
0e!
1#!
0d!
1%!
1Y
1O
1&!
0$!
0-!
0f!
1n!
0l!
0r!
0P"
18
1.
1s!
1p!
0g!
0.!
13!
1'!
1(!
14!
1w!
#25000
0#
0B
0~
0f
0!!
#25500
1#
1B
1~
1f
1!!
1Y"
0Z"
1c"
1b"
0d"
0l"
0t
1v
0j
1k
1h!
0k!
1N"
0m!
0s!
1x!
1u!
1l!
1r!
0n!
1e!
0#!
1d!
0%!
1$!
0&!
0/!
0u
0Y
1W
0O
1N
10!
0'!
1&!
1/!
0$!
1f!
1s!
0x!
0p!
0y!
0~!
0w!
1n!
1t!
0l!
1P"
0X
08
16
0.
1-
07
1p!
0u!
0!"
1&"
0}!
1y!
1~!
1w!
1g!
00!
1'!
0(!
11!
12!
1(!
01!
1!"
0&"
1}!
1'"
0$"
0%"
1+"
0'"
1$"
02!
1%"
0+"
#26000
0#
0B
0~
0f
0!!
#26500
1#
1B
1~
1f
1!!
1Z"
1d"
1t
1j
0h!
1k!
0N"
1m!
0e!
1#!
0d!
1%!
1Y
1O
0&!
0/!
1$!
0f!
0n!
0t!
1l!
0P"
18
1.
0p!
1u!
0g!
10!
0'!
0(!
11!
12!
#27000
0#
0B
0~
0f
0!!
#27500
1#
1B
1~
1f
1!!
0Y"
1X"
0Z"
0c"
0d"
1l"
0t
0j
1l
0k
1h!
0k!
1N"
0m!
0l!
0r!
1n!
1e!
0#!
1d!
0%!
1.!
00!
15!
0$!
1&!
1/!
1u
0Y
0O
1M
0N
10!
05!
1'!
06!
0;!
01!
0&!
1$!
1-!
1f!
0s!
1x!
1p!
0n!
1l!
1r!
1P"
1X
08
0.
0-
1,
17
1s!
0x!
0p!
0y!
0~!
0w!
1g!
0.!
0'!
02!
1<!
07!
1(!
16!
1;!
11!
12!
0<!
17!
08!
0=!
0(!
0!"
1&"
0}!
1y!
1~!
1w!
1!"
0&"
1}!
1'"
0$"
18!
1=!
0%"
1+"
0'"
1$"
1%"
0+"
#28000
0#
0B
0~
0f
0!!
