CONTADOR8BITS/simulation/qsim/CONTADOR8BITS.msim.vcd
$comment
	File created using the following command:
		vcd file CONTADOR8BITS.msim.vcd -direction
$end
$date
	Mon Mar 11 18:21:06 2024
$end
$version
	ModelSim Version 10.5b
$end
$timescale
	1ps
$end

$scope module contador8bits_vhd_vec_tst $end
$var wire 1 ! CLK $end
$var wire 1 " O [7] $end
$var wire 1 # O [6] $end
$var wire 1 $ O [5] $end
$var wire 1 % O [4] $end
$var wire 1 & O [3] $end
$var wire 1 ' O [2] $end
$var wire 1 ( O [1] $end
$var wire 1 ) O [0] $end
$var wire 1 * RST $end
$var wire 1 + START $end

$scope module i1 $end
$var wire 1 , gnd $end
$var wire 1 - vcc $end
$var wire 1 . unknown $end
$var wire 1 / devoe $end
$var wire 1 0 devclrn $end
$var wire 1 1 devpor $end
$var wire 1 2 ww_devoe $end
$var wire 1 3 ww_devclrn $end
$var wire 1 4 ww_devpor $end
$var wire 1 5 ww_CLK $end
$var wire 1 6 ww_RST $end
$var wire 1 7 ww_START $end
$var wire 1 8 ww_O [7] $end
$var wire 1 9 ww_O [6] $end
$var wire 1 : ww_O [5] $end
$var wire 1 ; ww_O [4] $end
$var wire 1 < ww_O [3] $end
$var wire 1 = ww_O [2] $end
$var wire 1 > ww_O [1] $end
$var wire 1 ? ww_O [0] $end
$var wire 1 @ \~QUARTUS_CREATED_ADC1~_CHSEL_bus\ [4] $end
$var wire 1 A \~QUARTUS_CREATED_ADC1~_CHSEL_bus\ [3] $end
$var wire 1 B \~QUARTUS_CREATED_ADC1~_CHSEL_bus\ [2] $end
$var wire 1 C \~QUARTUS_CREATED_ADC1~_CHSEL_bus\ [1] $end
$var wire 1 D \~QUARTUS_CREATED_ADC1~_CHSEL_bus\ [0] $end
$var wire 1 E \Q[7]~1clkctrl_INCLK_bus\ [3] $end
$var wire 1 F \Q[7]~1clkctrl_INCLK_bus\ [2] $end
$var wire 1 G \Q[7]~1clkctrl_INCLK_bus\ [1] $end
$var wire 1 H \Q[7]~1clkctrl_INCLK_bus\ [0] $end
$var wire 1 I \CLK~inputclkctrl_INCLK_bus\ [3] $end
$var wire 1 J \CLK~inputclkctrl_INCLK_bus\ [2] $end
$var wire 1 K \CLK~inputclkctrl_INCLK_bus\ [1] $end
$var wire 1 L \CLK~inputclkctrl_INCLK_bus\ [0] $end
$var wire 1 M \~QUARTUS_CREATED_GND~I_combout\ $end
$var wire 1 N \~QUARTUS_CREATED_UNVM~~busy\ $end
$var wire 1 O \~QUARTUS_CREATED_ADC1~~eoc\ $end
$var wire 1 P \O[0]~output_o\ $end
$var wire 1 Q \O[1]~output_o\ $end
$var wire 1 R \O[2]~output_o\ $end
$var wire 1 S \O[3]~output_o\ $end
$var wire 1 T \O[4]~output_o\ $end
$var wire 1 U \O[5]~output_o\ $end
$var wire 1 V \O[6]~output_o\ $end
$var wire 1 W \O[7]~output_o\ $end
$var wire 1 X \CLK~input_o\ $end
$var wire 1 Y \CLK~inputclkctrl_outclk\ $end
$var wire 1 Z \START~input_o\ $end
$var wire 1 [ \Q[0]~0_combout\ $end
$var wire 1 \ \RST~input_o\ $end
$var wire 1 ] \Q[7]~1_combout\ $end
$var wire 1 ^ \Q[7]~1clkctrl_outclk\ $end
$var wire 1 _ \Q[1]~2_combout\ $end
$var wire 1 ` \Q[2]~3_combout\ $end
$var wire 1 a \Q[3]~4_combout\ $end
$var wire 1 b \Q[3]~5_combout\ $end
$var wire 1 c \Q[4]~6_combout\ $end
$var wire 1 d \Q[5]~7_combout\ $end
$var wire 1 e \Q[6]~8_combout\ $end
$var wire 1 f \Q[6]~9_combout\ $end
$var wire 1 g \Q[7]~10_combout\ $end
$var wire 1 h \Q[7]~11_combout\ $end
$var wire 1 i Q [7] $end
$var wire 1 j Q [6] $end
$var wire 1 k Q [5] $end
$var wire 1 l Q [4] $end
$var wire 1 m Q [3] $end
$var wire 1 n Q [2] $end
$var wire 1 o Q [1] $end
$var wire 1 p Q [0] $end
$var wire 1 q \ALT_INV_Q[7]~1clkctrl_outclk\ $end
$upscope $end
$upscope $end
$enddefinitions $end
#0
$dumpvars
0!
0*
1+
0,
1-
x.
1/
10
11
12
13
14
05
06
17
0M
zN
zO
0P
0Q
0R
0S
0T
0U
0V
0W
0X
0Y
1Z
1[
0\
0]
0^
0_
0`
0a
0b
0c
0d
0e
0f
1g
0h
1q
08
09
0:
0;
0<
0=
0>
0?
0i
0j
0k
0l
0m
0n
0o
0p
1I
1J
1K
0L
1E
1F
1G
0H
0@
0A
0B
0C
0D
0"
0#
0$
0%
0&
0'
0(
0)
$end
#1000
1!
15
1X
1L
1Y
1p
1P
0[
1_
1?
1)
#2000
0!
05
0X
0L
0Y
#3000
1!
15
1X
1L
1Y
0p
1o
1Q
0P
1[
1>
0?
0)
1(
#4000
0!
05
0X
0L
0Y
#5000
1!
15
1X
1L
1Y
1p
1P
0[
0_
1`
1?
1)
#6000
0!
05
0X
0L
0Y
#7000
1!
15
1X
1L
1Y
0p
0o
1n
1R
0Q
0P
1[
1=
0>
0?
0)
0(
1'
#8000
0!
05
0X
0L
0Y
#9000
1!
15
1X
1L
1Y
1p
1P
0[
1_
1?
1)
#10000
0!
05
0X
0L
0Y
#11000
1!
15
1X
1L
1Y
0p
1o
1Q
0P
1[
1>
0?
0)
1(
#12000
0!
05
0X
0L
0Y
#13000
1!
15
1X
1L
1Y
1p
1P
0[
0_
0`
1a
1?
1b
1)
#14000
0!
05
0X
0L
0Y
#15000
1!
15
1X
1L
1Y
0p
0o
0n
1m
1S
0R
0Q
0P
0b
1c
1[
0a
1<
0=
0>
0?
1b
0c
0)
0(
0'
1&
#16000
0!
05
0X
0L
0Y
#17000
1!
15
1X
1L
1Y
1p
1P
0[
1_
1?
1)
#18000
0!
05
0X
0L
0Y
#19000
1!
15
1X
1L
1Y
0p
1o
1Q
0P
1[
1>
0?
0)
1(
#20000
0!
05
0X
0L
0Y
#21000
1!
15
1X
1L
1Y
1p
1P
0[
0_
1`
1?
1)
#22000
0!
05
0X
0L
0Y
#23000
1!
15
1X
1L
1Y
0p
0o
1n
1R
0Q
0P
1[
1=
0>
0?
0)
0(
1'
#24000
0!
05
0X
0L
0Y
#25000
1!
15
1X
1L
1Y
1p
1P
0[
1_
1?
1)
#26000
0!
05
0X
0L
0Y
#27000
1!
15
1X
1L
1Y
0p
1o
1Q
0P
1[
1>
0?
0)
1(
#28000
0!
05
0X
0L
0Y
#29000
1!
15
1X
1L
1Y
1p
1P
0[
0_
0`
1a
1?
0b
1c
1)
#30000
0!
05
0X
0L
0Y
#31000
1!
15
1X
1L
1Y
0p
0o
0n
0m
1l
1T
0S
0R
0Q
0P
1b
1[
0a
1;
0<
0=
0>
0?
0b
0)
0(
0'
0&
1%
#32000
0!
05
0X
0L
0Y
#33000
1!
15
1X
1L
1Y
1p
1P
0[
1_
1?
1)
#34000
0!
05
0X
0L
0Y
#35000
1!
15
1X
1L
1Y
0p
1o
1Q
0P
1[
1>
0?
0)
1(
#36000
0!
05
0X
0L
0Y
#37000
1!
15
1X
1L
1Y
1p
1P
0[
0_
1`
1?
1)
#38000
0!
05
0X
0L
0Y
#39000
1!
15
1X
1L
1Y
0p
0o
1n
1R
0Q
0P
1[
1=
0>
0?
0)
0(
1'
#40000
0!
05
0X
0L
0Y
#41000
1!
15
1X
1L
1Y
1p
1P
0[
1_
1?
1)
#42000
0!
05
0X
0L
0Y
#43000
1!
15
1X
1L
1Y
0p
1o
1Q
0P
1[
1>
0?
0)
1(
#44000
0!
05
0X
0L
0Y
#45000
1!
15
1X
1L
1Y
1p
1P
0[
0_
0`
1a
1?
1b
1)
#46000
0!
05
0X
0L
0Y
#47000
1!
15
1X
1L
1Y
0p
0o
0n
1m
1S
0R
0Q
0P
0b
0c
1d
1[
0a
1<
0=
0>
0?
1b
1c
0d
0)
0(
0'
1&
#48000
0!
05
0X
0L
0Y
#49000
1!
15
1X
1L
1Y
1p
1P
0[
1_
1?
1)
#50000
0!
05
0X
0L
0Y
#51000
1!
15
1X
1L
1Y
0p
1o
1Q
0P
1[
1>
0?
0)
1(
#52000
0!
05
0X
0L
0Y
#53000
1!
15
1X
1L
1Y
1p
1P
0[
0_
1`
1?
1)
#54000
0!
05
0X
0L
0Y
#55000
1!
15
1X
1L
1Y
0p
0o
1n
1R
0Q
0P
1[
1=
0>
0?
0)
0(
1'
#56000
0!
05
0X
0L
0Y
#57000
1!
15
1X
1L
1Y
1p
1P
0[
1_
1?
1)
#58000
0!
05
0X
0L
0Y
#59000
1!
15
1X
1L
1Y
0p
1o
1Q
0P
1[
1>
0?
0)
1(
#60000
0!
05
0X
0L
0Y
#61000
1!
15
1X
1L
1Y
1p
1P
0[
0_
0`
1a
1?
0b
0c
1d
1)
#62000
0!
05
0X
0L
0Y
#63000
1!
15
1X
1L
1Y
0p
0o
0n
0m
0l
1k
1U
0T
0S
0R
0Q
0P
1b
1[
0a
1:
0;
0<
0=
0>
0?
0b
0)
0(
0'
0&
0%
1$
#64000
0!
05
0X
0L
0Y
#65000
1!
15
1X
1L
1Y
1p
1P
0[
1_
1?
1)
#66000
0!
05
0X
0L
0Y
#67000
1!
15
1X
1L
1Y
0p
1o
1Q
0P
1[
1>
0?
0)
1(
#68000
0!
05
0X
0L
0Y
#69000
1!
15
1X
1L
1Y
1p
1P
0[
0_
1`
1?
1)
#70000
0!
05
0X
0L
0Y
#71000
1!
15
1X
1L
1Y
0p
0o
1n
1R
0Q
0P
1[
1=
0>
0?
0)
0(
1'
#72000
0!
05
0X
0L
0Y
#73000
1!
15
1X
1L
1Y
1p
1P
0[
1_
1?
1)
#74000
0!
05
0X
0L
0Y
#75000
1!
15
1X
1L
1Y
0p
1o
1Q
0P
1[
1>
0?
0)
1(
#76000
0!
05
0X
0L
0Y
#77000
1!
15
1X
1L
1Y
1p
1P
0[
0_
0`
1a
1?
1b
1)
#78000
0!
05
0X
0L
0Y
#79000
1!
15
1X
1L
1Y
0p
0o
0n
1m
1S
0R
0Q
0P
0b
1c
1[
0a
1<
0=
0>
0?
1b
0c
0)
0(
0'
1&
#80000
0!
05
0X
0L
0Y
#81000
1!
15
1X
1L
1Y
1p
1P
0[
1_
1?
1)
#82000
0!
05
0X
0L
0Y
#83000
1!
15
1X
1L
1Y
0p
1o
1Q
0P
1[
1>
0?
0)
1(
#84000
0!
05
0X
0L
0Y
#85000
1!
15
1X
1L
1Y
1p
1P
0[
0_
1`
1?
1)
#86000
0!
05
0X
0L
0Y
#87000
1!
15
1X
1L
1Y
0p
0o
1n
1R
0Q
0P
1[
1=
0>
0?
0)
0(
1'
#88000
0!
05
0X
0L
0Y
#89000
1!
15
1X
1L
1Y
1p
1P
0[
1_
1?
1)
#90000
0!
05
0X
0L
0Y
#91000
1!
15
1X
1L
1Y
0p
1o
1Q
0P
1[
1>
0?
0)
1(
#92000
0!
05
0X
0L
0Y
#93000
1!
15
1X
1L
1Y
1p
1P
0[
0_
0`
1a
1?
0b
1c
1)
#94000
0!
05
0X
0L
0Y
#95000
1!
15
1X
1L
1Y
0p
0o
0n
0m
1l
1T
0S
0R
0Q
0P
1b
1[
0a
1;
0<
0=
0>
0?
0b
0)
0(
0'
0&
1%
#96000
0!
05
0X
0L
0Y
#97000
1!
15
1X
1L
1Y
1p
1P
0[
1_
1?
1)
#98000
0!
05
0X
0L
0Y
#99000
1!
15
1X
1L
1Y
0p
1o
1Q
0P
1[
1>
0?
0)
1(
#100000
0!
05
0X
0L
0Y
#101000
1!
15
1X
1L
1Y
1p
1P
0[
0_
1`
1?
1)
#102000
0!
05
0X
0L
0Y
#103000
1!
15
1X
1L
1Y
0p
0o
1n
1R
0Q
0P
1[
1=
0>
0?
0)
0(
1'
#104000
0!
05
0X
0L
0Y
#105000
1!
15
1X
1L
1Y
1p
1P
0[
1_
1?
1)
#106000
0!
05
0X
0L
0Y
#107000
1!
15
1X
1L
1Y
0p
1o
1Q
0P
1[
1>
0?
0)
1(
#108000
0!
05
0X
0L
0Y
#109000
1!
15
1X
1L
1Y
1p
1P
0[
0_
0`
1a
1?
1b
1)
#110000
0!
05
0X
0L
0Y
#111000
1!
15
1X
1L
1Y
0p
0o
0n
1m
1S
0R
0Q
0P
0b
0c
0d
1e
0g
1[
0a
1<
0=
0>
0?
1b
1c
1d
0e
1f
0)
0(
0'
1&
0f
#112000
0!
05
0X
0L
0Y
#113000
1!
15
1X
1L
1Y
1p
1P
0[
1_
1?
1)
#114000
0!
05
0X
0L
0Y
#115000
1!
15
1X
1L
1Y
0p
1o
1Q
0P
1[
1>
0?
0)
1(
#116000
0!
05
0X
0L
0Y
#117000
1!
15
1X
1L
1Y
1p
1P
0[
0_
1`
1?
1)
#118000
0!
05
0X
0L
0Y
#119000
1!
15
1X
1L
1Y
0p
0o
1n
1R
0Q
0P
1[
1=
0>
0?
0)
0(
1'
#120000
0!
05
0X
0L
0Y
#121000
1!
15
1X
1L
1Y
1p
1P
0[
1_
1?
1)
#122000
0!
05
0X
0L
0Y
#123000
1!
15
1X
1L
1Y
0p
1o
1Q
0P
1[
1>
0?
0)
1(
#124000
0!
05
0X
0L
0Y
#125000
1!
15
1X
1L
1Y
1p
1P
0[
0_
0`
1a
1?
0b
0c
0d
1e
1)
1f
#126000
0!
05
0X
0L
0Y
#127000
1!
15
1X
1L
1Y
0p
0o
0n
0m
0l
0k
1j
1V
0U
0T
0S
0R
0Q
0P
0f
1h
1b
0e
1g
1[
0a
19
0:
0;
0<
0=
0>
0?
0b
0h
1f
0)
0(
0'
0&
0%
0$
1#
#128000
0!
05
0X
0L
0Y
#129000
1!
15
1X
1L
1Y
1p
1P
0[
1_
1?
1)
#130000
0!
05
0X
0L
0Y
#131000
1!
15
1X
1L
1Y
0p
1o
1Q
0P
1[
1>
0?
0)
1(
#132000
0!
05
0X
0L
0Y
#133000
1!
15
1X
1L
1Y
1p
1P
0[
0_
1`
1?
1)
#134000
0!
05
0X
0L
0Y
#135000
1!
15
1X
1L
1Y
0p
0o
1n
1R
0Q
0P
1[
1=
0>
0?
0)
0(
1'
#136000
0!
05
0X
0L
0Y
#137000
1!
15
1X
1L
1Y
1p
1P
0[
1_
1?
1)
#138000
0!
05
0X
0L
0Y
#139000
1!
15
1X
1L
1Y
0p
1o
1Q
0P
1[
1>
0?
0)
1(
#140000
0!
05
0X
0L
0Y
#141000
1!
15
1X
1L
1Y
1p
1P
0[
0_
0`
1a
1?
1b
1)
#142000
0!
05
0X
0L
0Y
#143000
1!
15
1X
1L
1Y
0p
0o
0n
1m
1S
0R
0Q
0P
0b
1c
1[
0a
1<
0=
0>
0?
1b
0c
0)
0(
0'
1&
#144000
0!
05
0X
0L
0Y
#145000
1!
15
1X
1L
1Y
1p
1P
0[
1_
1?
1)
#146000
0!
05
0X
0L
0Y
#147000
1!
15
1X
1L
1Y
0p
1o
1Q
0P
1[
1>
0?
0)
1(
#148000
0!
05
0X
0L
0Y
#149000
1!
15
1X
1L
1Y
1p
1P
0[
0_
1`
1?
1)
#150000
0!
05
0X
0L
0Y
#151000
1!
15
1X
1L
1Y
0p
0o
1n
1R
0Q
0P
1[
1=
0>
0?
0)
0(
1'
#152000
0!
05
0X
0L
0Y
#153000
1!
15
1X
1L
1Y
1p
1P
0[
1_
1?
1)
#154000
0!
05
0X
0L
0Y
#155000
1!
15
1X
1L
1Y
0p
1o
1Q
0P
1[
1>
0?
0)
1(
#156000
0!
05
0X
0L
0Y
#157000
1!
15
1X
1L
1Y
1p
1P
0[
0_
0`
1a
1?
0b
1c
1)
#158000
0!
05
0X
0L
0Y
#159000
1!
15
1X
1L
1Y
0p
0o
0n
0m
1l
1T
0S
0R
0Q
0P
1b
1[
0a
1;
0<
0=
0>
0?
0b
0)
0(
0'
0&
1%
#160000
0!
05
0X
0L
0Y
#161000
1!
15
1X
1L
1Y
1p
1P
0[
1_
1?
1)
#162000
0!
05
0X
0L
0Y
#163000
1!
15
1X
1L
1Y
0p
1o
1Q
0P
1[
1>
0?
0)
1(
#164000
0!
05
0X
0L
0Y
#165000
1!
15
1X
1L
1Y
1p
1P
0[
0_
1`
1?
1)
#166000
0!
05
0X
0L
0Y
#167000
1!
15
1X
1L
1Y
0p
0o
1n
1R
0Q
0P
1[
1=
0>
0?
0)
0(
1'
#168000
0!
05
0X
0L
0Y
#169000
1!
15
1X
1L
1Y
1p
1P
0[
1_
1?
1)
#170000
0!
05
0X
0L
0Y
#171000
1!
15
1X
1L
1Y
0p
1o
1Q
0P
1[
1>
0?
0)
1(
#172000
0!
05
0X
0L
0Y
#173000
1!
15
1X
1L
1Y
1p
1P
0[
0_
0`
1a
1?
1b
1)
#174000
0!
05
0X
0L
0Y
#175000
1!
15
1X
1L
1Y
0p
0o
0n
1m
1S
0R
0Q
0P
0b
0c
1d
1[
0a
1<
0=
0>
0?
1b
1c
0d
0)
0(
0'
1&
#176000
0!
05
0X
0L
0Y
#177000
1!
15
1X
1L
1Y
1p
1P
0[
1_
1?
1)
#178000
0!
05
0X
0L
0Y
#179000
1!
15
1X
1L
1Y
0p
1o
1Q
0P
1[
1>
0?
0)
1(
#180000
0!
05
0X
0L
0Y
#181000
1!
15
1X
1L
1Y
1p
1P
0[
0_
1`
1?
1)
#182000
0!
05
0X
0L
0Y
#183000
1!
15
1X
1L
1Y
0p
0o
1n
1R
0Q
0P
1[
1=
0>
0?
0)
0(
1'
#184000
0!
05
0X
0L
0Y
#185000
1!
15
1X
1L
1Y
1p
1P
0[
1_
1?
1)
#186000
0!
05
0X
0L
0Y
#187000
1!
15
1X
1L
1Y
0p
1o
1Q
0P
1[
1>
0?
0)
1(
#188000
0!
05
0X
0L
0Y
#189000
1!
15
1X
1L
1Y
1p
1P
0[
0_
0`
1a
1?
0b
0c
1d
1)
#190000
0!
05
0X
0L
0Y
#191000
1!
15
1X
1L
1Y
0p
0o
0n
0m
0l
1k
1U
0T
0S
0R
0Q
0P
1b
1[
0a
1:
0;
0<
0=
0>
0?
0b
0)
0(
0'
0&
0%
1$
#192000
0!
05
0X
0L
0Y
#193000
1!
15
1X
1L
1Y
1p
1P
0[
1_
1?
1)
#194000
0!
05
0X
0L
0Y
#195000
1!
15
1X
1L
1Y
0p
1o
1Q
0P
1[
1>
0?
0)
1(
#196000
0!
05
0X
0L
0Y
#197000
1!
15
1X
1L
1Y
1p
1P
0[
0_
1`
1?
1)
#198000
0!
05
0X
0L
0Y
#199000
1!
15
1X
1L
1Y
0p
0o
1n
1R
0Q
0P
1[
1=
0>
0?
0)
0(
1'
#200000
0!
05
0X
0L
0Y
#201000
1!
15
1X
1L
1Y
1p
1P
0[
1_
1?
1)
#202000
0!
05
0X
0L
0Y
#203000
1!
15
1X
1L
1Y
0p
1o
1Q
0P
1[
1>
0?
0)
1(
#204000
0!
05
0X
0L
0Y
#205000
1!
15
1X
1L
1Y
1p
1P
0[
0_
0`
1a
1?
1b
1)
#206000
0!
05
0X
0L
0Y
#207000
1!
15
1X
1L
1Y
0p
0o
0n
1m
1S
0R
0Q
0P
0b
1c
1[
0a
1<
0=
0>
0?
1b
0c
0)
0(
0'
1&
#208000
0!
05
0X
0L
0Y
#209000
1!
15
1X
1L
1Y
1p
1P
0[
1_
1?
1)
#210000
0!
05
0X
0L
0Y
#211000
1!
15
1X
1L
1Y
0p
1o
1Q
0P
1[
1>
0?
0)
1(
#212000
0!
05
0X
0L
0Y
#213000
1!
15
1X
1L
1Y
1p
1P
0[
0_
1`
1?
1)
#214000
0!
05
0X
0L
0Y
#215000
1!
15
1X
1L
1Y
0p
0o
1n
1R
0Q
0P
1[
1=
0>
0?
0)
0(
1'
#216000
0!
05
0X
0L
0Y
#217000
1!
15
1X
1L
1Y
1p
1P
0[
1_
1?
1)
#218000
0!
05
0X
0L
0Y
#219000
1!
15
1X
1L
1Y
0p
1o
1Q
0P
1[
1>
0?
0)
1(
#220000
0!
05
0X
0L
0Y
#221000
1!
15
1X
1L
1Y
1p
1P
0[
0_
0`
1a
1?
0b
1c
1)
#222000
0!
05
0X
0L
0Y
#223000
1!
15
1X
1L
1Y
0p
0o
0n
0m
1l
1T
0S
0R
0Q
0P
1b
1[
0a
1;
0<
0=
0>
0?
0b
0)
0(
0'
0&
1%
#224000
0!
05
0X
0L
0Y
#225000
1!
15
1X
1L
1Y
1p
1P
0[
1_
1?
1)
#226000
0!
05
0X
0L
0Y
#227000
1!
15
1X
1L
1Y
0p
1o
1Q
0P
1[
1>
0?
0)
1(
#228000
0!
05
0X
0L
0Y
#229000
1!
15
1X
1L
1Y
1p
1P
0[
0_
1`
1?
1)
#230000
0!
05
0X
0L
0Y
#231000
1!
15
1X
1L
1Y
0p
0o
1n
1R
0Q
0P
1[
1=
0>
0?
0)
0(
1'
#232000
0!
05
0X
0L
0Y
#233000
1!
15
1X
1L
1Y
1p
1P
0[
1_
1?
1)
#234000
0!
05
0X
0L
0Y
#235000
1!
15
1X
1L
1Y
0p
1o
1Q
0P
1[
1>
0?
0)
1(
#236000
0!
05
0X
0L
0Y
#237000
1!
15
1X
1L
1Y
1p
1P
0[
0_
0`
1a
1?
1b
1)
#238000
0!
05
0X
0L
0Y
#239000
1!
15
1X
1L
1Y
0p
0o
0n
1m
1S
0R
0Q
0P
0b
0c
0d
1e
0g
1[
0a
1<
0=
0>
0?
1b
1c
1d
0e
0f
0)
0(
0'
1&
1f
#240000
0!
05
0X
0L
0Y
#241000
1!
15
1X
1L
1Y
1p
1P
0[
1_
1?
1)
#242000
0!
05
0X
0L
0Y
#243000
1!
15
1X
1L
1Y
0p
1o
1Q
0P
1[
1>
0?
0)
1(
#244000
0!
05
0X
0L
0Y
#245000
1!
15
1X
1L
1Y
1p
1P
0[
0_
1`
1?
1)
#246000
0!
05
0X
0L
0Y
#247000
1!
15
1X
1L
1Y
0p
0o
1n
1R
0Q
0P
1[
1=
0>
0?
0)
0(
1'
#248000
0!
05
0X
0L
0Y
#249000
1!
15
1X
1L
1Y
1p
1P
0[
1_
1?
1)
#250000
0!
05
0X
0L
0Y
#251000
1!
15
1X
1L
1Y
0p
1o
1Q
0P
1[
1>
0?
0)
1(
#252000
0!
05
0X
0L
0Y
#253000
1!
15
1X
1L
1Y
1p
1P
0[
0_
0`
1a
1?
0b
0c
0d
1e
1h
1)
0f
#254000
0!
05
0X
0L
0Y
#255000
1!
15
1X
1L
1Y
0p
0o
0n
0m
0l
0k
0j
1i
1W
0V
0U
0T
0S
0R
0Q
0P
1f
1b
0e
1g
1[
0a
18
09
0:
0;
0<
0=
0>
0?
0b
0f
0)
0(
0'
0&
0%
0$
0#
1"
#256000
0!
05
0X
0L
0Y
#257000
1!
15
1X
1L
1Y
1p
1P
0[
1_
1?
1)
#258000
0!
05
0X
0L
0Y
#259000
1!
15
1X
1L
1Y
0p
1o
1Q
0P
1[
1>
0?
0)
1(
#260000
0!
05
0X
0L
0Y
#261000
1!
15
1X
1L
1Y
1p
1P
0[
0_
1`
1?
1)
#262000
0!
05
0X
0L
0Y
#263000
1!
15
1X
1L
1Y
0p
0o
1n
1R
0Q
0P
1[
1=
0>
0?
0)
0(
1'
#264000
0!
05
0X
0L
0Y
#265000
1!
15
1X
1L
1Y
1p
1P
0[
1_
1?
1)
#266000
0!
05
0X
0L
0Y
#267000
1!
15
1X
1L
1Y
0p
1o
1Q
0P
1[
1>
0?
0)
1(
#268000
0!
05
0X
0L
0Y
#269000
1!
15
1X
1L
1Y
1p
1P
0[
0_
0`
1a
1?
1b
1)
#270000
0!
05
0X
0L
0Y
#271000
1!
15
1X
1L
1Y
0p
0o
0n
1m
1S
0R
0Q
0P
0b
1c
1[
0a
1<
0=
0>
0?
1b
0c
0)
0(
0'
1&
#272000
0!
05
0X
0L
0Y
#273000
1!
15
1X
1L
1Y
1p
1P
0[
1_
1?
1)
#274000
0!
05
0X
0L
0Y
#275000
1!
15
1X
1L
1Y
0p
1o
1Q
0P
1[
1>
0?
0)
1(
#276000
0!
05
0X
0L
0Y
#277000
1!
15
1X
1L
1Y
1p
1P
0[
0_
1`
1?
1)
#278000
0!
05
0X
0L
0Y
#279000
1!
15
1X
1L
1Y
0p
0o
1n
1R
0Q
0P
1[
1=
0>
0?
0)
0(
1'
#280000
0!
05
0X
0L
0Y
#281000
1!
15
1X
1L
1Y
1p
1P
0[
1_
1?
1)
#282000
0!
05
0X
0L
0Y
#283000
1!
15
1X
1L
1Y
0p
1o
1Q
0P
1[
1>
0?
0)
1(
#284000
0!
05
0X
0L
0Y
#285000
1!
15
1X
1L
1Y
1p
1P
0[
0_
0`
1a
1?
0b
1c
1)
#286000
0!
05
0X
0L
0Y
#287000
1!
15
1X
1L
1Y
0p
0o
0n
0m
1l
1T
0S
0R
0Q
0P
1b
1[
0a
1;
0<
0=
0>
0?
0b
0)
0(
0'
0&
1%
#288000
0!
05
0X
0L
0Y
#289000
1!
15
1X
1L
1Y
1p
1P
0[
1_
1?
1)
#290000
0!
05
0X
0L
0Y
#291000
1!
15
1X
1L
1Y
0p
1o
1Q
0P
1[
1>
0?
0)
1(
#292000
0!
05
0X
0L
0Y
#293000
1!
15
1X
1L
1Y
1p
1P
0[
0_
1`
1?
1)
#294000
0!
05
0X
0L
0Y
#295000
1!
15
1X
1L
1Y
0p
0o
1n
1R
0Q
0P
1[
1=
0>
0?
0)
0(
1'
#296000
0!
05
0X
0L
0Y
#297000
1!
15
1X
1L
1Y
1p
1P
0[
1_
1?
1)
#298000
0!
05
0X
0L
0Y
#299000
1!
15
1X
1L
1Y
0p
1o
1Q
0P
1[
1>
0?
0)
1(
#300000
0!
05
0X
0L
0Y
#301000
1!
15
1X
1L
1Y
1p
1P
0[
0_
0`
1a
1?
1b
1)
#302000
0!
05
0X
0L
0Y
#303000
1!
15
1X
1L
1Y
0p
0o
0n
1m
1S
0R
0Q
0P
0b
0c
1d
1[
0a
1<
0=
0>
0?
1b
1c
0d
0)
0(
0'
1&
#304000
0!
05
0X
0L
0Y
#305000
1!
15
1X
1L
1Y
1p
1P
0[
1_
1?
1)
#306000
0!
05
0X
0L
0Y
#307000
1!
15
1X
1L
1Y
0p
1o
1Q
0P
1[
1>
0?
0)
1(
#308000
0!
05
0X
0L
0Y
#309000
1!
15
1X
1L
1Y
1p
1P
0[
0_
1`
1?
1)
#310000
0!
05
0X
0L
0Y
#311000
1!
15
1X
1L
1Y
0p
0o
1n
1R
0Q
0P
1[
1=
0>
0?
0)
0(
1'
#312000
0!
05
0X
0L
0Y
#313000
1!
15
1X
1L
1Y
1p
1P
0[
1_
1?
1)
#314000
0!
05
0X
0L
0Y
#315000
1!
15
1X
1L
1Y
0p
1o
1Q
0P
1[
1>
0?
0)
1(
#316000
0!
05
0X
0L
0Y
#317000
1!
15
1X
1L
1Y
1p
1P
0[
0_
0`
1a
1?
0b
0c
1d
1)
#318000
0!
05
0X
0L
0Y
#319000
1!
15
1X
1L
1Y
0p
0o
0n
0m
0l
1k
1U
0T
0S
0R
0Q
0P
1b
1[
0a
1:
0;
0<
0=
0>
0?
0b
0)
0(
0'
0&
0%
1$
#320000
0!
05
0X
0L
0Y
#321000
1!
15
1X
1L
1Y
1p
1P
0[
1_
1?
1)
#322000
0!
05
0X
0L
0Y
#323000
1!
15
1X
1L
1Y
0p
1o
1Q
0P
1[
1>
0?
0)
1(
#324000
0!
05
0X
0L
0Y
#325000
1!
15
1X
1L
1Y
1p
1P
0[
0_
1`
1?
1)
#326000
0!
05
0X
0L
0Y
#327000
1!
15
1X
1L
1Y
0p
0o
1n
1R
0Q
0P
1[
1=
0>
0?
0)
0(
1'
#328000
0!
05
0X
0L
0Y
#329000
1!
15
1X
1L
1Y
1p
1P
0[
1_
1?
1)
#330000
0!
05
0X
0L
0Y
#331000
1!
15
1X
1L
1Y
0p
1o
1Q
0P
1[
1>
0?
0)
1(
#332000
0!
05
0X
0L
0Y
#333000
1!
15
1X
1L
1Y
1p
1P
0[
0_
0`
1a
1?
1b
1)
#334000
0!
05
0X
0L
0Y
#335000
1!
15
1X
1L
1Y
0p
0o
0n
1m
1S
0R
0Q
0P
0b
1c
1[
0a
1<
0=
0>
0?
1b
0c
0)
0(
0'
1&
#336000
0!
05
0X
0L
0Y
#337000
1!
15
1X
1L
1Y
1p
1P
0[
1_
1?
1)
#338000
0!
05
0X
0L
0Y
#339000
1!
15
1X
1L
1Y
0p
1o
1Q
0P
1[
1>
0?
0)
1(
#340000
0!
05
0X
0L
0Y
#341000
1!
15
1X
1L
1Y
1p
1P
0[
0_
1`
1?
1)
#342000
0!
05
0X
0L
0Y
#343000
1!
15
1X
1L
1Y
0p
0o
1n
1R
0Q
0P
1[
1=
0>
0?
0)
0(
1'
#344000
0!
05
0X
0L
0Y
#345000
1!
15
1X
1L
1Y
1p
1P
0[
1_
1?
1)
#346000
0!
05
0X
0L
0Y
#347000
1!
15
1X
1L
1Y
0p
1o
1Q
0P
1[
1>
0?
0)
1(
#348000
0!
05
0X
0L
0Y
#349000
1!
15
1X
1L
1Y
1p
1P
0[
0_
0`
1a
1?
0b
1c
1)
#350000
0!
05
0X
0L
0Y
#351000
1!
15
1X
1L
1Y
0p
0o
0n
0m
1l
1T
0S
0R
0Q
0P
1b
1[
0a
1;
0<
0=
0>
0?
0b
0)
0(
0'
0&
1%
#352000
0!
05
0X
0L
0Y
#353000
1!
15
1X
1L
1Y
1p
1P
0[
1_
1?
1)
#354000
0!
05
0X
0L
0Y
#355000
1!
15
1X
1L
1Y
0p
1o
1Q
0P
1[
1>
0?
0)
1(
#356000
0!
05
0X
0L
0Y
#357000
1!
15
1X
1L
1Y
1p
1P
0[
0_
1`
1?
1)
#358000
0!
05
0X
0L
0Y
#359000
1!
15
1X
1L
1Y
0p
0o
1n
1R
0Q
0P
1[
1=
0>
0?
0)
0(
1'
