MESTADOS/simulation/qsim/MESTADOS.msim.vcd
$comment
	File created using the following command:
		vcd file MESTADOS.msim.vcd -direction
$end
$date
	Fri Mar 01 00:07:08 2024
$end
$version
	ModelSim Version 10.5b
$end
$timescale
	1ps
$end

$scope module mestados_vhd_vec_tst $end
$var wire 1 ! CLK $end
$var wire 1 " cuenta [4] $end
$var wire 1 # cuenta [3] $end
$var wire 1 $ cuenta [2] $end
$var wire 1 % cuenta [1] $end
$var wire 1 & cuenta [0] $end
$var wire 1 ' E_O [3] $end
$var wire 1 ( E_O [2] $end
$var wire 1 ) E_O [1] $end
$var wire 1 * E_O [0] $end
$var wire 1 + HORARIO $end
$var wire 1 , N_S [2] $end
$var wire 1 - N_S [1] $end
$var wire 1 . N_S [0] $end
$var wire 1 / O_E [3] $end
$var wire 1 0 O_E [2] $end
$var wire 1 1 O_E [1] $end
$var wire 1 2 O_E [0] $end
$var wire 1 3 RST $end
$var wire 1 4 S_N [2] $end
$var wire 1 5 S_N [1] $end
$var wire 1 6 S_N [0] $end
$var wire 1 7 START $end
$var wire 1 8 T0 [4] $end
$var wire 1 9 T0 [3] $end
$var wire 1 : T0 [2] $end
$var wire 1 ; T0 [1] $end
$var wire 1 < T0 [0] $end
$var wire 1 = T1 [4] $end
$var wire 1 > T1 [3] $end
$var wire 1 ? T1 [2] $end
$var wire 1 @ T1 [1] $end
$var wire 1 A T1 [0] $end
$var wire 1 B T2 [4] $end
$var wire 1 C T2 [3] $end
$var wire 1 D T2 [2] $end
$var wire 1 E T2 [1] $end
$var wire 1 F T2 [0] $end
$var wire 1 G T3 [4] $end
$var wire 1 H T3 [3] $end
$var wire 1 I T3 [2] $end
$var wire 1 J T3 [1] $end
$var wire 1 K T3 [0] $end
$var wire 1 L T4 [4] $end
$var wire 1 M T4 [3] $end
$var wire 1 N T4 [2] $end
$var wire 1 O T4 [1] $end
$var wire 1 P T4 [0] $end
$var wire 1 Q T5 [4] $end
$var wire 1 R T5 [3] $end
$var wire 1 S T5 [2] $end
$var wire 1 T T5 [1] $end
$var wire 1 U T5 [0] $end

$scope module i1 $end
$var wire 1 V gnd $end
$var wire 1 W vcc $end
$var wire 1 X unknown $end
$var wire 1 Y devoe $end
$var wire 1 Z devclrn $end
$var wire 1 [ devpor $end
$var wire 1 \ ww_devoe $end
$var wire 1 ] ww_devclrn $end
$var wire 1 ^ ww_devpor $end
$var wire 1 _ ww_RST $end
$var wire 1 ` ww_CLK $end
$var wire 1 a ww_START $end
$var wire 1 b ww_HORARIO $end
$var wire 1 c ww_T0 [4] $end
$var wire 1 d ww_T0 [3] $end
$var wire 1 e ww_T0 [2] $end
$var wire 1 f ww_T0 [1] $end
$var wire 1 g ww_T0 [0] $end
$var wire 1 h ww_T1 [4] $end
$var wire 1 i ww_T1 [3] $end
$var wire 1 j ww_T1 [2] $end
$var wire 1 k ww_T1 [1] $end
$var wire 1 l ww_T1 [0] $end
$var wire 1 m ww_T2 [4] $end
$var wire 1 n ww_T2 [3] $end
$var wire 1 o ww_T2 [2] $end
$var wire 1 p ww_T2 [1] $end
$var wire 1 q ww_T2 [0] $end
$var wire 1 r ww_T3 [4] $end
$var wire 1 s ww_T3 [3] $end
$var wire 1 t ww_T3 [2] $end
$var wire 1 u ww_T3 [1] $end
$var wire 1 v ww_T3 [0] $end
$var wire 1 w ww_T4 [4] $end
$var wire 1 x ww_T4 [3] $end
$var wire 1 y ww_T4 [2] $end
$var wire 1 z ww_T4 [1] $end
$var wire 1 { ww_T4 [0] $end
$var wire 1 | ww_T5 [4] $end
$var wire 1 } ww_T5 [3] $end
$var wire 1 ~ ww_T5 [2] $end
$var wire 1 !! ww_T5 [1] $end
$var wire 1 "! ww_T5 [0] $end
$var wire 1 #! ww_E_O [3] $end
$var wire 1 $! ww_E_O [2] $end
$var wire 1 %! ww_E_O [1] $end
$var wire 1 &! ww_E_O [0] $end
$var wire 1 '! ww_O_E [3] $end
$var wire 1 (! ww_O_E [2] $end
$var wire 1 )! ww_O_E [1] $end
$var wire 1 *! ww_O_E [0] $end
$var wire 1 +! ww_N_S [2] $end
$var wire 1 ,! ww_N_S [1] $end
$var wire 1 -! ww_N_S [0] $end
$var wire 1 .! ww_S_N [2] $end
$var wire 1 /! ww_S_N [1] $end
$var wire 1 0! ww_S_N [0] $end
$var wire 1 1! ww_cuenta [4] $end
$var wire 1 2! ww_cuenta [3] $end
$var wire 1 3! ww_cuenta [2] $end
$var wire 1 4! ww_cuenta [1] $end
$var wire 1 5! ww_cuenta [0] $end
$var wire 1 6! \~QUARTUS_CREATED_ADC1~_CHSEL_bus\ [4] $end
$var wire 1 7! \~QUARTUS_CREATED_ADC1~_CHSEL_bus\ [3] $end
$var wire 1 8! \~QUARTUS_CREATED_ADC1~_CHSEL_bus\ [2] $end
$var wire 1 9! \~QUARTUS_CREATED_ADC1~_CHSEL_bus\ [1] $end
$var wire 1 :! \~QUARTUS_CREATED_ADC1~_CHSEL_bus\ [0] $end
$var wire 1 ;! \RST~inputclkctrl_INCLK_bus\ [3] $end
$var wire 1 <! \RST~inputclkctrl_INCLK_bus\ [2] $end
$var wire 1 =! \RST~inputclkctrl_INCLK_bus\ [1] $end
$var wire 1 >! \RST~inputclkctrl_INCLK_bus\ [0] $end
$var wire 1 ?! \CLK~inputclkctrl_INCLK_bus\ [3] $end
$var wire 1 @! \CLK~inputclkctrl_INCLK_bus\ [2] $end
$var wire 1 A! \CLK~inputclkctrl_INCLK_bus\ [1] $end
$var wire 1 B! \CLK~inputclkctrl_INCLK_bus\ [0] $end
$var wire 1 C! \~QUARTUS_CREATED_GND~I_combout\ $end
$var wire 1 D! \~QUARTUS_CREATED_UNVM~~busy\ $end
$var wire 1 E! \~QUARTUS_CREATED_ADC1~~eoc\ $end
$var wire 1 F! \E_O[0]~output_o\ $end
$var wire 1 G! \E_O[1]~output_o\ $end
$var wire 1 H! \E_O[2]~output_o\ $end
$var wire 1 I! \E_O[3]~output_o\ $end
$var wire 1 J! \O_E[0]~output_o\ $end
$var wire 1 K! \O_E[1]~output_o\ $end
$var wire 1 L! \O_E[2]~output_o\ $end
$var wire 1 M! \O_E[3]~output_o\ $end
$var wire 1 N! \N_S[0]~output_o\ $end
$var wire 1 O! \N_S[1]~output_o\ $end
$var wire 1 P! \N_S[2]~output_o\ $end
$var wire 1 Q! \S_N[0]~output_o\ $end
$var wire 1 R! \S_N[1]~output_o\ $end
$var wire 1 S! \S_N[2]~output_o\ $end
$var wire 1 T! \CLK~input_o\ $end
$var wire 1 U! \CLK~inputclkctrl_outclk\ $end
$var wire 1 V! \T2[3]~input_o\ $end
$var wire 1 W! \T2[2]~input_o\ $end
$var wire 1 X! \cuenta[2]~input_o\ $end
$var wire 1 Y! \cuenta[3]~input_o\ $end
$var wire 1 Z! \Equal2~1_combout\ $end
$var wire 1 [! \T2[1]~input_o\ $end
$var wire 1 \! \cuenta[0]~input_o\ $end
$var wire 1 ]! \T2[0]~input_o\ $end
$var wire 1 ^! \cuenta[1]~input_o\ $end
$var wire 1 _! \Equal2~0_combout\ $end
$var wire 1 `! \T2[4]~input_o\ $end
$var wire 1 a! \cuenta[4]~input_o\ $end
$var wire 1 b! \Equal2~2_combout\ $end
$var wire 1 c! \T1[1]~input_o\ $end
$var wire 1 d! \T1[0]~input_o\ $end
$var wire 1 e! \Equal1~0_combout\ $end
$var wire 1 f! \T1[4]~input_o\ $end
$var wire 1 g! \T1[3]~input_o\ $end
$var wire 1 h! \T1[2]~input_o\ $end
$var wire 1 i! \Equal1~1_combout\ $end
$var wire 1 j! \Equal1~2_combout\ $end
$var wire 1 k! \T0[0]~input_o\ $end
$var wire 1 l! \T0[1]~input_o\ $end
$var wire 1 m! \Equal0~0_combout\ $end
$var wire 1 n! \T0[3]~input_o\ $end
$var wire 1 o! \T0[2]~input_o\ $end
$var wire 1 p! \Equal0~1_combout\ $end
$var wire 1 q! \T0[4]~input_o\ $end
$var wire 1 r! \Equal0~2_combout\ $end
$var wire 1 s! \START~input_o\ $end
$var wire 1 t! \T5[0]~input_o\ $end
$var wire 1 u! \T5[1]~input_o\ $end
$var wire 1 v! \Equal5~0_combout\ $end
$var wire 1 w! \T5[4]~input_o\ $end
$var wire 1 x! \T5[3]~input_o\ $end
$var wire 1 y! \T5[2]~input_o\ $end
$var wire 1 z! \Equal5~1_combout\ $end
$var wire 1 {! \Equal5~2_combout\ $end
$var wire 1 |! \T4[4]~input_o\ $end
$var wire 1 }! \T4[1]~input_o\ $end
$var wire 1 ~! \T4[0]~input_o\ $end
$var wire 1 !" \Equal4~0_combout\ $end
$var wire 1 "" \T4[3]~input_o\ $end
$var wire 1 #" \T4[2]~input_o\ $end
$var wire 1 $" \Equal4~1_combout\ $end
$var wire 1 %" \Equal4~2_combout\ $end
$var wire 1 &" \T3[2]~input_o\ $end
$var wire 1 '" \T3[3]~input_o\ $end
$var wire 1 (" \Equal3~1_combout\ $end
$var wire 1 )" \T3[0]~input_o\ $end
$var wire 1 *" \T3[1]~input_o\ $end
$var wire 1 +" \Equal3~0_combout\ $end
$var wire 1 ," \T3[4]~input_o\ $end
$var wire 1 -" \Equal3~2_combout\ $end
$var wire 1 ." \Selector4~0_combout\ $end
$var wire 1 /" \RST~input_o\ $end
$var wire 1 0" \RST~inputclkctrl_outclk\ $end
$var wire 1 1" \EDO.S4~q\ $end
$var wire 1 2" \Selector5~0_combout\ $end
$var wire 1 3" \EDO.S5~q\ $end
$var wire 1 4" \Selector6~0_combout\ $end
$var wire 1 5" \EDO.S6~q\ $end
$var wire 1 6" \Selector0~0_combout\ $end
$var wire 1 7" \EDO.IDLE~q\ $end
$var wire 1 8" \Selector1~0_combout\ $end
$var wire 1 9" \EDO.S1~q\ $end
$var wire 1 :" \Selector2~0_combout\ $end
$var wire 1 ;" \EDO.S2~q\ $end
$var wire 1 <" \Selector3~0_combout\ $end
$var wire 1 =" \EDO.S3~q\ $end
$var wire 1 >" \HORARIO~input_o\ $end
$var wire 1 ?" \E_O~0_combout\ $end
$var wire 1 @" \Selector7~0_combout\ $end
$var wire 1 A" \Selector7~1_combout\ $end
$var wire 1 B" \E_O~1_combout\ $end
$var wire 1 C" \E_O~2_combout\ $end
$var wire 1 D" \O_E~0_combout\ $end
$var wire 1 E" \O_E~1_combout\ $end
$var wire 1 F" \N_S~0_combout\ $end
$var wire 1 G" \Selector9~0_combout\ $end
$var wire 1 H" \N_S~1_combout\ $end
$upscope $end
$upscope $end
$enddefinitions $end
#0
$dumpvars
0!
0+
13
17
0V
1W
xX
1Y
1Z
1[
1\
1]
1^
1_
0`
1a
0b
0C!
zD!
zE!
0F!
0G!
0H!
0I!
0J!
0K!
0L!
0M!
0N!
0O!
0P!
0Q!
0R!
0S!
0T!
0U!
1V!
0W!
0X!
0Y!
0Z!
0[!
0\!
0]!
0^!
1_!
1`!
0a!
0b!
0c!
0d!
1e!
0f!
1g!
0h!
0i!
0j!
0k!
1l!
0m!
1n!
1o!
0p!
1q!
0r!
1s!
1t!
1u!
0v!
0w!
1x!
0y!
0z!
0{!
0|!
0}!
1~!
0!"
1""
1#"
0$"
0%"
1&"
0'"
0("
0)"
1*"
0+"
1,"
0-"
0."
1/"
10"
01"
02"
03"
04"
05"
16"
07"
18"
09"
0:"
0;"
0<"
0="
0>"
0?"
0@"
0A"
0B"
0C"
0D"
0E"
0F"
0G"
0H"
0"
0#
0$
0%
0&
18
19
1:
1;
0<
0=
1>
0?
0@
0A
1B
1C
0D
0E
0F
1G
0H
1I
1J
0K
0L
1M
1N
0O
1P
0Q
1R
0S
1T
1U
0'
0(
0)
0*
0/
00
01
02
0,
0-
0.
04
05
06
1c
1d
1e
1f
0g
0h
1i
0j
0k
0l
1m
1n
0o
0p
0q
1r
0s
1t
1u
0v
0w
1x
1y
0z
1{
0|
1}
0~
1!!
1"!
0#!
0$!
0%!
0&!
0'!
0(!
0)!
0*!
0+!
0,!
0-!
0.!
0/!
00!
01!
02!
03!
04!
05!
1?!
1@!
1A!
0B!
1;!
1<!
1=!
1>!
06!
07!
08!
09!
0:!
$end
#5000
1!
09
1=
0>
1?
1@
1A
0B
0C
1D
1E
1F
0G
1H
0I
0J
0M
1O
0P
1Q
1S
0T
1`
0d
1l
1k
1j
0i
1h
1q
1p
1o
0n
0m
0u
0t
1s
0r
0{
1z
0x
0!!
1~
1|
1w!
1y!
0u!
0""
1}!
0~!
0,"
1'"
0&"
0*"
0`!
0V!
1W!
1[!
1]!
1f!
0g!
1h!
1c!
1d!
0n!
1T!
1B!
0e!
0_!
1+"
1U!
17"
19"
1A"
1G"
1O!
1R!
1G!
1K!
1,!
1/!
1%!
1)!
1-
15
1)
11
#10000
0!
0?
0@
0A
1C
0D
0E
1G
0H
1I
1J
1P
0Q
0S
1T
1&
0;
1<
0`
0l
0k
0j
0p
0o
1n
1u
1t
0s
1r
1{
1!!
0~
0|
15!
1g
0f
0l!
1k!
1\!
0w!
0y!
1u!
1~!
1,"
0'"
1&"
1*"
1V!
0W!
0[!
0h!
0c!
0d!
0T!
0B!
1i!
1_!
0+"
1m!
0U!
#15000
1!
1A
1E
1H
0J
0P
1S
0T
0<
19
0=
1>
1B
0F
1M
0:
0R
0U
1`
1l
1i
0h
0q
1p
1m
0u
1s
0{
1x
0"!
0!!
1~
0}
0g
0e
1d
1n!
0o!
0k!
0x!
1y!
0u!
0t!
1""
0~!
1'"
0*"
1`!
1[!
0]!
0f!
1g!
1d!
1T!
1B!
1e!
0i!
0_!
0m!
1U!
#20000
0!
0A
0E
1J
1<
1=
0B
0M
1R
1U
1@
0C
0G
1Q
0&
1%
1L
0`
0l
1k
1h
0p
0n
0m
1u
0r
1g
0x
1w
1"!
1}
1|
05!
14!
1^!
0\!
1w!
1x!
1t!
1|!
0""
1k!
0,"
1*"
0`!
0V!
0[!
1f!
1c!
0d!
0T!
0B!
1Z!
1!"
1+"
0U!
#25000
1!
1A
0J
0<
0=
1M
0U
0@
1C
0Q
0H
1P
09
0>
1F
1:
1?
1D
0N
1`
1l
0k
1j
0i
0h
0u
0s
0g
1e
0d
1{
0y
1x
0"!
0|
1q
1o
1n
1V!
1W!
1]!
0w!
0t!
1""
0#"
1~!
0n!
1o!
0k!
0'"
0*"
0f!
0g!
1h!
0c!
1d!
1T!
1B!
0e!
0+"
0!"
0Z!
1U!
#30000
0!
0A
1J
1<
1=
1@
0C
1Q
1H
0P
19
1>
0:
0?
0D
1N
1B
1G
1&
0L
0S
1T
0I
0O
0`
0l
1k
0j
1i
1h
1u
0t
1s
1r
1g
0e
1d
0o
0n
1m
1!!
0~
1|
0{
0z
1y
0w
15!
1\!
0|!
1#"
0}!
0~!
1w!
0y!
1u!
1`!
0V!
0W!
1n!
0o!
1k!
1,"
1'"
0&"
1*"
1f!
1g!
0h!
1c!
0d!
0T!
0B!
1Z!
0U!
#35000
1!
1A
0@
1C
0H
09
1:
1?
1S
0T
1I
0R
08
1`
1l
0k
1j
1n
1t
0s
1e
0d
0c
0!!
1~
0}
0x!
1y!
0u!
0q!
0n!
1o!
0'"
1&"
1V!
1h!
0c!
1d!
1T!
1B!
0Z!
1U!
#40000
0!
0C
1H
0:
0S
1T
0I
1R
0J
0G
0&
1L
1O
1U
1E
0%
1$
1K
0`
1p
0n
1v
0u
0t
1s
0r
0e
1"!
1!!
0~
1}
05!
04!
13!
1z
1w
1|!
1}!
1X!
0^!
0\!
1x!
0y!
1u!
1t!
0o!
0,"
1'"
0&"
0*"
1)"
0V!
1[!
0T!
0B!
0U!
#45000
1!
1C
0H
0T
1I
0R
1J
0K
1@
0Q
0>
1D
0N
0M
0F
1;
1`
0q
1o
1n
0v
1u
1t
0s
0!!
0}
0|
1k
0i
0y
0x
1f
1l!
0""
0#"
0g!
1c!
0w!
0x!
0u!
0'"
1&"
1*"
0)"
1V!
1W!
0]!
1T!
1B!
1("
1i!
1U!
#50000
0!
1H
1T
0I
0J
1K
1>
0D
1N
1M
1F
0;
1&
0O
0E
0A
19
18
0=
1P
0B
0`
1v
0u
0t
1s
1!!
0l
1i
0h
1q
0p
0o
0m
1{
0z
1y
1x
0f
1d
1c
15!
1\!
1q!
1n!
0l!
1""
1#"
0}!
1~!
0`!
0W!
0[!
1]!
0f!
1g!
0d!
1u!
1'"
0&"
0*"
1)"
0T!
0B!
0("
0i!
1_!
1m!
1!"
1+"
0U!
#55000
1!
0T
1I
1J
0K
0>
1D
0N
0M
1;
1O
1A
09
1=
1B
0C
1Q
1:
0U
1`
0"!
0!!
1|
0v
1u
1t
1l
0i
1h
1o
0n
1m
1z
0y
0x
1f
1e
0d
0n!
1o!
1l!
0""
0#"
1}!
1`!
0V!
1W!
1f!
0g!
1d!
1&"
1*"
0)"
1w!
0u!
0t!
1T!
1B!
0+"
1i!
1Z!
0!"
0m!
1p!
1U!
#60000
0!
1>
0D
1N
1M
0O
0A
19
0B
1C
0Q
0&
0P
0@
1S
0L
1%
0?
0<
0`
0l
0k
0j
1i
0o
1n
0m
0{
0z
1y
1x
0w
0g
1d
1~
0|
05!
14!
1^!
0\!
0w!
1y!
1n!
0k!
0|!
1""
1#"
0}!
0~!
0`!
1V!
0W!
1g!
0h!
0c!
0d!
0T!
0B!
0i!
0Z!
1b!
0p!
1z!
0_!
1m!
1+"
0b!
0U!
#65000
1!
0>
1O
09
1B
1Q
1?
0;
0:
0H
0F
1R
1`
1j
0i
1z
0f
0e
0d
0q
1m
1}
1|
0s
0'"
1w!
1x!
1`!
0]!
0n!
0o!
0l!
1}!
0g!
1h!
1T!
1B!
1i!
1!"
0m!
0z!
1("
1-"
1U!
#70000
0!
0B
0Q
0?
1:
1H
1F
0R
0N
1A
1&
0S
1<
1T
0J
1K
0=
08
0`
1q
0m
1!!
0~
0}
0|
1l
0j
0h
1g
1e
0c
1v
0u
1s
0y
15!
1\!
0#"
1'"
0*"
1)"
0q!
1o!
1k!
0f!
0h!
1d!
0w!
0x!
0y!
1u!
0`!
1]!
0T!
0B!
0i!
1p!
0("
0!"
0+"
0-"
0U!
#75000
1!
1Q
1?
0F
1N
1S
0<
1=
1;
0C
1L
1U
1E
1G
1`
1"!
1~
1|
1j
1h
0q
1p
0n
1y
1w
0g
1f
1r
1,"
1l!
0k!
1|!
1#"
0V!
1[!
0]!
1f!
1h!
1w!
1y!
1t!
1T!
1B!
1v!
1z!
1i!
1U!
#80000
0!
0?
0N
0S
1<
0=
0E
0:
0H
0A
0&
0T
1J
0K
18
0M
0%
0I
0$
1#
0`
0l
0j
0h
0y
0x
0!!
0~
1g
0e
1c
0p
0v
1u
0t
0s
05!
04!
03!
12!
1Y!
0X!
0^!
0\!
0'"
0&"
1*"
0)"
0[!
1q!
0o!
1k!
0y!
0u!
0""
0#"
0f!
0h!
0d!
0T!
0B!
1_!
1e!
0v!
0i!
0p!
0z!
0U!
#85000
1!
1?
1S
0<
1:
0J
1K
08
1I
0Q
1F
0L
0G
1B
1R
1P
1@
1`
1k
1j
1~
1}
0|
0g
1e
0c
1v
0u
1t
0r
1q
1m
1{
0w
0|!
1~!
1`!
1]!
0,"
1&"
0*"
1)"
0q!
1o!
0k!
0w!
1x!
1y!
1h!
1c!
1T!
1B!
0e!
0_!
1U!
#90000
0!
0?
1<
0I
0F
1G
0R
1N
1=
1E
1H
1&
1T
1>
0`
0j
1i
1h
1g
0t
1s
1r
0q
1p
1!!
0}
1y
15!
1\!
1#"
0x!
1u!
1[!
0]!
1,"
1'"
0&"
1k!
1f!
1g!
0h!
0T!
0B!
1i!
1("
1+"
0U!
#95000
1!
1I
0G
1R
0H
0T
0>
0K
18
1L
1C
0U
19
1`
0v
1t
0s
0r
0"!
0!!
1}
0i
1d
1c
1w
1n
1V!
1|!
1q!
1n!
0g!
1x!
0u!
0t!
0,"
0'"
1&"
0)"
1T!
1B!
0+"
0("
1-"
0i!
1Z!
0-"
1U!
#100000
0!
0I
1G
0R
1H
1T
0L
0C
09
1?
0N
0E
0&
0S
0:
1J
0P
1A
1%
0;
0O
1D
0`
1u
0t
1s
1r
1!!
0~
0}
0{
0z
0y
0w
0p
1o
0n
0f
0e
0d
1l
1j
05!
14!
1^!
0\!
1h!
1d!
0n!
0o!
0l!
0V!
1W!
0[!
0|!
0#"
0}!
0~!
0x!
0y!
1u!
1,"
1'"
0&"
1*"
0T!
0B!
1("
0Z!
1v!
1+"
0U!
#105000
1!
1I
1R
0H
1L
1C
1E
0A
1;
1O
0D
08
0<
1F
1Q
0B
0@
1M
1`
1t
0s
1}
1|
1z
1x
1w
1q
1p
0o
1n
0m
0l
0k
0g
1f
0c
0q!
1l!
0k!
0c!
0d!
0`!
1V!
0W!
1[!
1]!
1|!
1""
1}!
1w!
1x!
0'"
1&"
1T!
1B!
0("
1z!
1!"
1$"
1Z!
1m!
1U!
#110000
0!
0L
0E
18
0F
0Q
1@
0?
1&
1:
0`
0w
0q
0p
1e
1c
0|
1k
0j
15!
1\!
0h!
1c!
0w!
1q!
1o!
0[!
0]!
0|!
0T!
0B!
1%"
1{!
0m!
0v!
0!"
0+"
0%"
0{!
0U!
#115000
1!
1Q
0:
0R
1H
0C
1A
0O
1D
1<
1B
0G
0T
0=
1`
0!!
0}
1|
1g
0e
1s
0r
1o
0n
1m
1l
0h
0z
0}!
0f!
1d!
1`!
0V!
1W!
0,"
1'"
0o!
1k!
1w!
0x!
0u!
1T!
1B!
0z!
1m!
0Z!
1e!
1U!
#120000
0!
0Q
1:
1R
1C
0A
1O
0D
0<
0B
1T
08
1F
0@
0&
19
1N
0J
1P
0%
1$
0`
1!!
1}
0|
0g
1e
1d
0c
1q
0o
1n
0m
0l
0k
1{
1z
1y
05!
04!
13!
0u
0*"
1X!
0^!
0\!
1#"
1}!
1~!
0c!
0d!
0`!
1V!
0W!
1]!
0q!
1n!
1o!
0k!
0w!
1x!
1u!
0T!
0B!
0m!
1p!
1("
1+"
1-"
0U!
#125000
1!
1Q
0:
1D
18
1J
0P
0H
1G
1=
1L
1?
0;
1S
1>
1K
1U
1`
1"!
1~
1|
0f
0e
1c
1o
1v
1u
0s
1r
0{
1w
1j
1i
1h
1f!
1g!
1h!
1|!
0~!
1,"
0'"
1*"
1)"
1W!
1q!
0o!
0l!
1w!
1y!
1t!
1T!
1B!
1z!
1m!
0p!
1Z!
0+"
0("
0-"
1i!
1U!
#130000
0!
0Q
1:
0J
1H
0=
0L
0S
0K
0U
0C
1A
1B
1&
09
0N
0M
0`
0"!
0~
0|
1e
0d
0v
0u
1s
1l
0h
0y
0x
0w
0n
1m
15!
1\!
1`!
0V!
0|!
0""
0#"
0f!
1d!
1'"
0*"
0)"
0n!
1o!
0w!
0y!
0t!
0T!
0B!
0z!
1("
1j!
0$"
0Z!
1_!
0m!
0U!
#135000
1!
0:
1J
0H
1=
1L
0A
0B
1N
1M
0D
08
0?
1;
0>
0O
1E
0I
1`
1f
0e
0c
1u
0t
0s
0l
0j
0i
1h
0z
1y
1x
1w
1p
0o
0m
0`!
0W!
1[!
1|!
1""
1#"
0}!
1f!
0g!
0h!
0d!
0'"
0&"
1*"
0q!
0o!
1l!
1T!
1B!
0("
0e!
0i!
0j!
1$"
0_!
1U!
#140000
0!
1:
0J
1H
0L
0M
0;
0E
1S
1K
1U
1C
0&
0R
0T
1@
1%
0`
0f
1e
1v
0u
1s
0x
0w
0p
1n
1"!
0!!
1~
0}
05!
14!
1k
1c!
1^!
0\!
0x!
1y!
0u!
1t!
1V!
0[!
0|!
0""
1'"
0*"
1)"
1o!
0l!
0T!
0B!
0$"
1e!
0U!
#145000
1!
0:
1J
1L
1M
1;
0S
0K
0N
1D
18
1O
1P
0G
0F
1`
1f
0e
1c
0v
1u
0r
1{
1z
0y
1x
1w
0~
0q
1o
1W!
0]!
0y!
1|!
1""
0#"
1}!
1~!
0,"
1*"
0)"
1q!
0o!
1l!
1T!
1B!
1m!
1+"
1Z!
1U!
#150000
0!
1:
0J
0L
0M
0;
1S
1K
1N
0D
08
0H
1E
0U
0C
1&
1R
1T
0@
0=
1B
1?
1>
1I
1Q
19
1<
0`
1g
0f
1e
1d
0c
1v
0u
1t
0s
1y
0x
0w
0"!
1!!
1~
1}
1|
1p
0o
0n
1m
15!
0k
1j
1i
0h
0f!
1g!
1h!
0c!
1\!
1`!
0V!
0W!
1[!
1w!
1x!
1y!
1u!
0t!
0|!
0""
1#"
0'"
1&"
0*"
1)"
0q!
1n!
1o!
0l!
1k!
0T!
0B!
1p!
1z!
0Z!
0m!
1!"
0+"
0e!
1i!
0U!
#155000
1!
0:
1J
1M
1;
1D
1H
0E
1U
0R
0T
1=
0B
0?
0>
0I
09
0O
0P
1G
1`
1f
0e
0d
1u
0t
1s
1r
0{
0z
1x
0p
1o
0m
1"!
0!!
0}
0j
0i
1h
1f!
0g!
0h!
0x!
0u!
1t!
0`!
1W!
0[!
1""
0}!
0~!
1,"
1'"
0&"
1*"
0n!
0o!
1l!
1T!
1B!
1m!
0p!
1+"
0!"
1$"
0z!
0i!
1U!
#160000
0!
1:
0J
0M
0;
0D
1T
0=
1?
1I
1P
0K
18
0&
0Q
1F
0%
1A
0$
0#
1"
0`
0f
1e
1c
0v
0u
1t
1{
0x
1q
0o
1!!
0|
1l
1j
0h
05!
04!
03!
02!
11!
1a!
0Y!
0X!
0^!
0\!
0f!
1h!
1d!
0w!
1u!
0W!
1]!
0""
1~!
1&"
0*"
0)"
1q!
1o!
0l!
0T!
0B!
0m!
1Z!
0$"
0U!
#165000
1!
0:
1D
0T
1=
0I
0P
08
1Q
1E
0U
1R
1B
19
1O
0S
0N
0<
1`
0g
0e
1d
0c
1p
1o
1m
0"!
0!!
0~
1}
1|
1h
0t
0{
1z
0y
0#"
1}!
0~!
0&"
1f!
1w!
1x!
0y!
0u!
0t!
1`!
1W!
1[!
0q!
1n!
0o!
0k!
1T!
1B!
1m!
0Z!
1v!
1$"
1U!
#170000
0!
1:
1T
0=
1I
0E
1U
0R
0O
1S
1;
0?
1&
0F
0A
1>
0G
1L
1C
0`
1f
1e
1"!
1!!
1~
0}
0l
0j
1i
0h
1t
0r
0q
0p
1n
0z
1w
15!
1\!
1|!
0}!
1V!
0[!
0]!
0,"
1&"
0f!
1g!
0h!
0d!
0x!
1y!
1u!
1t!
1o!
1l!
0T!
0B!
0m!
0v!
0+"
0U!
#175000
1!
0:
0T
1=
0I
0U
1R
1O
0S
1?
1G
0D
1P
18
0Q
0B
1J
1K
0H
1`
0e
1c
0"!
0!!
0~
1}
0|
1j
1h
1v
1u
0t
0s
1r
1{
1z
0o
0m
0`!
0W!
1}!
1~!
1,"
0'"
0&"
1*"
1)"
1f!
1h!
0w!
1x!
0y!
0u!
0t!
1q!
0o!
1T!
1B!
1("
1U!
#180000
0!
0R
1S
0?
0G
0P
08
1Q
1B
1H
0;
0&
1F
1A
0>
0L
0C
09
1%
0`
1~
0}
1|
1l
0j
0i
1s
0r
0{
0w
0f
0d
0c
1q
0n
1m
05!
14!
1^!
0\!
1`!
0V!
1]!
0q!
0n!
0l!
0|!
0~!
0,"
1'"
0g!
0h!
1d!
1w!
0x!
1y!
0T!
0B!
1i!
0("
1p!
1Z!
1!"
0U!
#185000
1!
1R
1G
1P
18
0F
1>
1C
1:
1I
1U
1D
1E
1<
1M
1@
1`
1"!
1}
1t
1r
1{
1x
1g
1e
1c
0q
1p
1o
1n
1k
1i
1g!
1c!
1V!
1W!
1[!
0]!
1q!
1o!
1k!
1""
1~!
1,"
1&"
1x!
1t!
1T!
1B!
0!"
0$"
0p!
1_!
0Z!
0i!
1U!
#190000
0!
08
1F
0:
0@
0S
0Q
0B
1;
1&
0A
1L
19
1T
0O
0J
0`
1f
0e
1d
0c
1q
0m
0l
0k
1!!
0~
0|
15!
0z
1w
0u
0*"
1|!
0}!
1\!
0w!
0y!
1u!
0c!
0d!
0`!
1]!
0q!
1n!
0o!
1l!
0T!
0B!
1m!
1v!
0U!
#195000
1!
18
0F
1:
1J
0I
0D
1?
0H
1N
1`
1e
1c
0q
0o
1u
0t
0s
1j
1y
1#"
1h!
0'"
0&"
1*"
0W!
0]!
1q!
1o!
1T!
1B!
0_!
1+"
1("
1-"
1U!
#200000
0!
08
0J
1I
1D
0?
1H
1S
1Q
0;
0&
1A
09
0R
0>
0C
0E
0<
0M
0%
0=
0K
1$
0`
0g
0f
0d
0c
0v
0u
1t
1s
0p
1o
0n
1l
0j
0i
0h
1~
0}
1|
05!
04!
13!
0x
0""
1X!
0^!
0\!
1w!
0x!
1y!
0f!
0g!
0h!
1d!
0V!
1W!
0[!
1'"
1&"
0*"
0)"
0q!
0n!
0l!
0k!
0T!
0B!
1_!
0v!
1Z!
1p!
1z!
0("
1$"
0-"
0U!
#205000
1!
1J
0I
0D
1?
1;
0A
19
1R
1>
1C
1E
1<
0N
1@
1B
0L
0T
0U
1`
1u
0t
1p
0o
1n
1m
0l
1k
1j
1i
1g
1f
1d
0"!
0!!
1}
0y
0w
0|!
0#"
1x!
0u!
0t!
1n!
1l!
1k!
1g!
1h!
1c!
0d!
1`!
1V!
0W!
1[!
0&"
1*"
1T!
1B!
0+"
0_!
0Z!
1b!
0m!
0p!
1v!
0z!
0$"
0b!
1U!
#210000
0!
0J
0;
1A
0C
1L
1T
1U
18
0S
1&
0:
1O
0`
0u
0f
0e
1c
1l
0n
1z
1w
1"!
1!!
0~
15!
1\!
0y!
1u!
1t!
1|!
1}!
0V!
1d!
1q!
0o!
0l!
0*"
0T!
0B!
1m!
0v!
0U!
